Sex,WeightClassKg,EntryDate,Name,BirthDate,Country,Bench1Kg,Bench2Kg,Bench3Kg,Best3BenchKg,Bench4Kg,TotalKg,BodyweightKg,Event,Equipment,Division,Place
M,49,2021-03-06,Abdullah Kayapinar,1992-10-02,Turkey,160,165,-170,165,,165,47.50,B,Raw,Open,1
M,54,2021-03-06,Javier I. Jimenez Cabrera,1997-06-17,Chile,117,123,-126,123,,123,52.90,B,Raw,Open,1
M,54,2021-03-06,Diego Quispe,1998-12-08,Peru,110,115,-118,115,,115,52.90,B,Raw,Open,2
M,54,2021-03-06,Elias Federico Medina,2001-04-29,Argentina,72,76,-81,76,,76,52.75,B,Raw,Open,3
M,59,2021-03-06,Juan Carlos Garrido,1980-03-04,Chile,180,-182,-185,180,,180,58.40,B,Raw,Open,1
M,59,2021-03-06,Herbert Aceituno,1985-11-01,El Salvador,172,-174,-176,172,,172,58.55,B,Raw,Open,2
M,59,2021-03-06,Niel Garcia Trelles,1973-05-29,Peru,140,150,-155,150,,150,58.20,B,Raw,Open,3
M,59,2021-03-06,Jose Luis Caceres Perez,1990-12-26,Paraguay,80,85,-90,85,,85,57.55,B,Raw,Open,4
M,59,2021-03-06,Enoc Ponza,1990-10-10,Nicaragua,-125,-125,-125,,,,57.85,B,Raw,Open,DQ
M,65,2021-03-05,Jorge Carinao,1991-02-18,Chile,155,165,168,168,168,168,59.50,B,Raw,Open,1
M,65,2021-03-05,Jose M. Abud Coronado,1974-10-26,Dominican Republic,-135,135,-141,135,,135,64.00,B,Raw,Open,2
M,65,2021-03-05,Lucas Marcelo Toledo,2003-12-19,Argentina,-83,-83,-84,,,,61.65,B,Raw,Open,DQ
M,72,2021-03-05,Donato Telesca,1990-02-05,Italy,-178,178,183,183,,183,70.25,B,Raw,Open,1
M,72,2021-03-05,Rey Melchor Dimas Vasquez,1986-01-06,Panama,-165,-165,165,165,,165,71.15,B,Raw,Open,2
M,72,2021-03-05,Shota Omarashvili,1981-11-25,Georgia,-130,-130,-130,,,,69.25,B,Raw,Open,DQ
M,80,2021-03-07,Francisco T. Palomeque Palacios,1967-10-19,Colombia,185,-192,-197,185,,185,78.65,B,Raw,Open,1
M,80,2021-03-07,Ahmad Razm Azar,1992-03-02,Georgia,-180,-180,180,180,,180,78.05,B,Raw,Open,2
M,80,2021-03-07,Jesus Rodriguez Vallejo,1988-11-18,Dominican Republic,140,141,151,151,,151,79.35,B,Raw,Open,3
M,80,2021-03-07,Victoriano Mendoza Gonzalez,1984-03-04,Panama,141,-142,-142,141,,141,79.90,B,Raw,Open,4
M,88,2021-03-05,Jainer Rafael Cantillo Guette,1975-01-29,Colombia,157,-160,162,162,,162,84.65,B,Raw,Open,1
M,97,2021-03-07,Fabio Torres,1976-05-07,Colombia,-218,220,-228,220,,220,95.95,B,Raw,Open,1
M,97,2021-03-07,Diego Javier Flores Amarilla,1991-05-12,Paraguay,-90,-90,90,90,,90,92.65,B,Raw,Open,2
M,107,2021-03-07,José de Jesús Castillo Castillo,1984-08-24,Mexico,205,210,215,215,,215,102.00,B,Raw,Open,1
M,107,2021-03-07,Akaki Jintcharadze,1987-07-19,Georgia,192,206,-212,206,,206,106.30,B,Raw,Open,2
M,107,2021-03-07,Edgardo Gamarra,1982-08-22,Paraguay,-85,-85,-85,,,,102.35,B,Raw,Open,DQ
M,107+,2021-03-07,John F. Castaneda Velasquez,1980-04-17,Colombia,215,221,-225,221,,221,123.45,B,Raw,Open,1
M,107+,2021-03-07,Iago Gorgodze,1976-10-19,Georgia,190,-200,203,203,,203,116.00,B,Raw,Open,2
M,107+,2021-03-07,Giorgi Latsabidze,1987-05-27,Georgia,-180,180,-205,180,,180,132.05,B,Raw,Open,3
F,41,2021-03-05,Cristina G. Poblador,1995-03-23,Colombia,-85,85,-91,85,,85,40.40,B,Raw,Open,1
F,45,2021-03-05,Lourdes Maciel,1996-04-06,Argentina,63,-70,-70,63,,63,42.25,B,Raw,Open,1
F,45,2021-03-05,Oriana Teran,1998-08-01,Venezuela,,,,,,,,B,Raw,Open,DQ
F,50,2021-03-05,Noemi Vasquez Molina,1977-04-27,Peru,-45,45,-52,45,,45,49.20,B,Raw,Open,1
F,55,2021-03-05,Besra Duman,2001-01-10,Turkey,117,-123,-123,117,,117,54.40,B,Raw,Open,1
F,55,2021-03-05,Camila Campos,1995-02-23,Chile,107,-110,-110,107,,107,54.00,B,Raw,Open,2
F,55,2021-03-05,Wiunawis N. Hernandez,1974-08-19,Venezuela,-85,-85,85,85,,85,54.50,B,Raw,Open,3
F,61,2021-03-05,Yasemin Ceylan Baydar,1987-03-10,Turkey,100,-105,105,105,,105,58.75,B,Raw,Open,1
F,61,2021-03-05,Natela Gamidova,1977-09-02,Georgia,45,-55,-55,45,,45,59.10,B,Raw,Open,2
F,67,2021-03-06,Tatiana Judith Gabaglio Rodriguez,1997-01-09,Paraguay,-45,45,-50,45,,45,62.00,B,Raw,Open,1
F,67,2021-03-06,Pamela D. Munoz Rojas,1989-07-18,Chile,-67,-67,-67,,,,66.65,B,Raw,Open,DQ
F,73,2021-03-06,Bertha Cecilia Fernandez Arango,1978-07-12,Colombia,-110,-110,110,110,,110,67.35,B,Raw,Open,1
F,73,2021-03-06,Nino Sabashvili,1981-06-02,Georgia,40,-50,-50,40,,40,68.50,B,Raw,Open,2
F,73,2021-03-06,Sibel Cam,1990-07-04,Turkey,-125,-125,-125,,,,71.10,B,Raw,Open,DQ
F,79,2021-03-06,Maria Antoineta Ortiz,1982-01-20,Chile,-115,-115,-115,,,,76.80,B,Raw,Open,DQ
F,86,2021-03-06,Marion Alejandra Serrano Guajardo,1999-09-08,Chile,,,,,,,,B,Raw,Open,DQ
M,54,2021-03-06,Elias Federico Medina,2001-04-29,Argentina,72,76,-81,76,,76,52.75,B,Raw,Juniors,1
M,65,2021-03-05,Lucas Marcelo Toledo,2003-12-19,Argentina,-83,-83,-84,,,,61.65,B,Raw,Juniors,DQ
F,55,2021-03-05,Besra Duman,2001-01-10,Turkey,117,-123,-123,117,,117,54.40,B,Raw,Juniors,1
