Division,WeightClassKg,Place,Name,Team,BodyweightKg,Best3SquatKg,Best3BenchKg,Best3DeadliftKg,TotalKg,Equipment,Event,Sex,BirthDate
Boys,51.71,1,Enrique Davila,San Saba,51.62,131.54,49.9,149.69,331.12,Single-ply,SBD,M,
Boys,51.71,2,Peyton Way,Lago Vista,50.26,102.06,56.7,120.2,278.96,Single-ply,SBD,M,
Boys,51.71,3,Garrett Buster,Burnet,51.48,102.06,52.16,106.59,260.82,Single-ply,SBD,M,
Boys,51.71,4,Juaquin Flores,Brady,46.95,83.91,52.16,113.4,249.48,Single-ply,SBD,M,
Boys,51.71,5,Brent Wade,Early,44.45,86.18,52.16,77.11,215.46,Single-ply,SBD,M,
Boys,55.79,1,Tommy Purcell,Christoval,53.52,127.01,70.31,170.1,367.41,Single-ply,SBD,M,
Boys,55.79,2,Johnathan Strickland,Lampasas,54.98,140.61,72.57,147.42,360.61,Single-ply,SBD,M,
Boys,55.79,3,Zach Ainsworth,Junction,55.79,122.47,79.38,138.35,340.19,Single-ply,SBD,M,
Boys,55.79,4,Enrique Reyes,Marble Falls,53.98,145.15,61.23,117.93,324.32,Single-ply,SBD,M,
Boys,55.79,5,Sam See,Brownwood,55.29,124.74,70.31,124.74,319.78,Single-ply,SBD,M,
Boys,55.79,6,Jarred Sierra,Marble Falls,53.07,102.06,74.84,113.4,290.3,Single-ply,SBD,M,
Boys,55.79,7,Jasael Ruiz,Marble Falls,54.34,108.86,47.63,122.47,278.96,Single-ply,SBD,M,
Boys,55.79,DQ,Hanner Campbell,Early,55.2,163.29,,,,Single-ply,SBD,M,
Boys,55.79,DQ,Jaxzen Mask,San Saba,51.98,,,,,Single-ply,SBD,M,
Boys,59.87,1,Kyle Arriola,Lampasas,59.87,170.1,104.33,172.37,446.79,Single-ply,SBD,M,
Boys,59.87,2,Ryan Medrano,Brady,59.19,151.95,83.91,183.7,419.57,Single-ply,SBD,M,
Boys,59.87,3,Bryan Silva,Burnet,58.69,163.29,83.91,156.49,403.7,Single-ply,SBD,M,
Boys,59.87,4,Luke Rizzo,Fredericksburg,59.6,142.88,83.91,156.49,383.29,Single-ply,SBD,M,
Boys,59.87,5,Jose Rodriquez,Burnet,55.88,133.81,77.11,151.95,362.87,Single-ply,SBD,M,
Boys,59.87,6,Alonso Caso,Lometa,59.87,138.35,52.16,149.69,340.19,Single-ply,SBD,M,
Boys,59.87,7,Kyler Pitre,Brady,59.15,115.67,61.23,136.08,312.98,Single-ply,SBD,M,
Boys,59.87,DQ,Adan Huron,San Saba,59.78,138.35,,,,Single-ply,SBD,M,
Boys,67.13,1,Anthony Seider,Lometa,65.77,188.24,97.52,204.12,489.88,Single-ply,SBD,M,
Boys,67.13,2,Colton House,Junction,65.05,188.24,104.33,185.97,478.54,Single-ply,SBD,M,
Boys,67.13,3,Dylan Mickler,Coleman,65.77,161.03,104.33,181.44,446.79,Single-ply,SBD,M,
Boys,67.13,4,Uriah King,Brownwood,66.41,163.29,113.4,161.03,437.72,Single-ply,SBD,M,
Boys,67.13,5,Denver Hunter,Coleman,61.6,142.88,106.59,149.69,399.16,Single-ply,SBD,M,
Boys,67.13,6,Jack Huff,Brownwood,66.5,142.88,86.18,158.76,387.82,Single-ply,SBD,M,
Boys,67.13,7,Zuriel Herrera,San Saba,65.5,142.88,74.84,163.29,381.02,Single-ply,SBD,M,
Boys,67.13,8,Tobey Yeats,Brownwood,65.23,142.88,86.18,147.42,376.48,Single-ply,SBD,M,
Boys,67.13,9,Gunner Ivey,Llano,64.5,113.4,81.65,147.42,342.46,Single-ply,SBD,M,
Boys,67.13,10,Dakota Ellis,Junction,65.41,120.2,61.23,136.08,317.51,Single-ply,SBD,M,
Boys,67.13,11,Forrest Swan,Marble Falls,60.15,106.59,61.23,113.4,281.23,Single-ply,SBD,M,
Boys,74.84,1,Jack Jerome,Lampasas,73.66,242.67,147.42,226.8,616.89,Single-ply,SBD,M,
Boys,74.84,2,Gilberto Baez,San Saba,73.3,199.58,111.13,240.4,551.11,Single-ply,SBD,M,
Boys,74.84,3,Quincy Prince,Llano,72.12,197.31,111.13,190.51,498.95,Single-ply,SBD,M,
Boys,74.84,4,Luis Ramírez,San Saba,74.57,183.7,106.59,195.04,485.34,Single-ply,SBD,M,
Boys,74.84,5,Jayden Fuentes,Ballinger,72.12,183.7,92.99,192.78,469.47,Single-ply,SBD,M,
Boys,74.84,6,Dylan Diaz,Coleman,74.48,176.9,122.47,170.1,469.47,Single-ply,SBD,M,
Boys,74.84,7,Zach Porter,Brownwood,73.57,183.7,90.72,192.78,467.2,Single-ply,SBD,M,
Boys,74.84,8,Caleb Roberts,Burnet,70.49,170.1,90.72,195.04,455.86,Single-ply,SBD,M,
Boys,74.84,9,William O'Dell,Brownwood,71.94,161.03,111.13,161.03,433.18,Single-ply,SBD,M,
Boys,74.84,10,Abel Prince,Llano,71.49,163.29,81.65,183.7,428.64,Single-ply,SBD,M,
Boys,74.84,11,Larry Telles,Junction,67.59,145.15,99.79,158.76,403.7,Single-ply,SBD,M,
Boys,74.84,12,Andrew Burns,Fredericksburg,69.4,140.61,92.99,158.76,392.36,Single-ply,SBD,M,
Boys,74.84,13,Cj Seal,Florence,73.03,142.88,95.25,147.42,385.55,Single-ply,SBD,M,
Boys,74.84,14,Ryland Carlile,Florence,72.85,133.81,77.11,138.35,349.27,Single-ply,SBD,M,
Boys,74.84,15,Jaiden Estes,Brady,71.21,102.06,72.57,136.08,310.71,Single-ply,SBD,M,
Boys,74.84,16,Chris Robinson #8,Brownwood,73.03,124.74,72.57,111.13,308.44,Single-ply,SBD,M,
Boys,74.84,17,Wesley Kenner,Fredericksburg,74.84,102.06,79.38,124.74,306.17,Single-ply,SBD,M,
Boys,74.84,18,Micheal Amezquita,Marble Falls,71.3,97.52,65.77,136.08,299.37,Single-ply,SBD,M,
Boys,74.84,DQ,Kaden Bessent,Brownwood,69.04,161.03,102.06,,,Single-ply,SBD,M,
Boys,82.1,1,Case Brister,Lampasas,79.92,240.4,129.27,231.33,601.01,Single-ply,SBD,M,
Boys,82.1,2,Weston Reid,Lampasas,80.92,231.33,129.27,229.06,589.67,Single-ply,SBD,M,
Boys,82.1,3,Colby Henry,Lometa,76.48,197.31,140.61,190.51,528.44,Single-ply,SBD,M,
Boys,82.1,4,Fabian Rubio,Ballinger,81.92,204.12,113.4,204.12,521.63,Single-ply,SBD,M,
Boys,82.1,5,Payton Polk,Christoval,77.29,183.7,127.01,206.38,517.1,Single-ply,SBD,M,
Boys,82.1,6,Gage Sikes,Coleman,79.65,192.78,122.47,201.85,517.1,Single-ply,SBD,M,
Boys,82.1,7,Sammy DeLuna,Fredericksburg,80.29,201.85,111.13,188.24,501.22,Single-ply,SBD,M,
Boys,82.1,8,Daniel Medina,Ballinger,80.65,188.24,113.4,192.78,494.42,Single-ply,SBD,M,
Boys,82.1,9,Bladen Calley,San Saba,78.38,190.51,108.86,188.24,487.61,Single-ply,SBD,M,
Boys,82.1,10,Voice Tuttle,Marble Falls,80.83,174.63,122.47,185.97,483.08,Single-ply,SBD,M,
Boys,82.1,11,Benjamin Galindo,Brady,78.11,188.24,108.86,183.7,480.81,Single-ply,SBD,M,
Boys,82.1,12,Jd Ibarra,Brady,77.43,170.1,95.25,195.04,460.4,Single-ply,SBD,M,
Boys,82.1,13,Isaiah Tarr,Brady,78.34,158.76,102.06,183.7,444.52,Single-ply,SBD,M,
Boys,82.1,14,Cristobal Delgadillo,Burnet,80.2,145.15,104.33,176.9,426.38,Single-ply,SBD,M,
Boys,82.1,15,Dylan Ahrens,Fredericksburg,77.84,156.49,108.86,156.49,421.84,Single-ply,SBD,M,
Boys,82.1,16,Aiden Hill,Florence,81.83,154.22,104.33,161.03,419.57,Single-ply,SBD,M,
Boys,82.1,17,Casey Mosley,Early,77.56,158.76,113.4,142.88,415.04,Single-ply,SBD,M,
Boys,82.1,18,Zane Gillespia,Brady,81.74,154.22,83.91,172.37,410.5,Single-ply,SBD,M,
Boys,89.81,1,Daunte Cuffie,Lampasas,85.82,226.8,163.29,222.26,612.35,Single-ply,SBD,M,
Boys,89.81,2,Logan Duggar,Llano,85.28,260.82,113.4,231.33,605.55,Single-ply,SBD,M,
Boys,89.81,3,Jacob Maldonado,Marble Falls,87.63,213.19,129.27,244.94,587.4,Single-ply,SBD,M,
Boys,89.81,4,Grisham Pun,Burnet,82.55,226.8,131.54,188.24,546.58,Single-ply,SBD,M,
Boys,89.81,5,Keagan Richardson,Lampasas,83.28,204.12,122.47,210.92,537.51,Single-ply,SBD,M,
Boys,89.81,6,Daniel Hernandez,Brady,89.13,204.12,106.59,192.78,503.49,Single-ply,SBD,M,
Boys,89.81,7,Diego Crader,Early,83.19,190.51,129.27,172.37,492.15,Single-ply,SBD,M,
Boys,89.81,8,Zaiden Lopez,Brownwood,87.54,188.24,106.59,181.44,476.27,Single-ply,SBD,M,
Boys,89.81,9,Jose Tonche,Marble Falls,84.73,183.7,102.06,183.7,469.47,Single-ply,SBD,M,
Boys,89.81,10,Youri Estrada,Fredericksburg,86.64,185.97,111.13,165.56,462.66,Single-ply,SBD,M,
Boys,89.81,11,Wyatt Puryear,Coleman,89.18,136.08,68.04,136.08,340.19,Single-ply,SBD,M,
Boys,89.81,12,Malachi Arredondo,Brady,83.69,129.27,65.77,102.06,297.1,Single-ply,SBD,M,
Boys,89.81,DQ,James Hogan,Lampasas,86.36,,,,,Single-ply,SBD,M,
Boys,89.81,DQ,Daniel Morgan,Brady,89.63,188.24,104.33,,,Single-ply,SBD,M,
Boys,89.81,DQ,Alan Cardenas,Lago Vista,84.37,142.88,,,,Single-ply,SBD,M,
Boys,89.81,DQ,Adan Rivas,Fredericksburg,85.64,142.88,,,,Single-ply,SBD,M,
Boys,89.81,DQ,Chris Fernandez,Early,83.46,,,,,Single-ply,SBD,M,
Boys,89.81,DQ,Landyn McIntire,Ballinger,84.1,174.63,,,,Single-ply,SBD,M,
Boys,99.79,1,Gabriel Barker,Marble Falls,94.44,210.92,147.42,222.26,580.6,Single-ply,SBD,M,
Boys,99.79,2,Gabriel Perez,Marble Falls,91.81,226.8,136.08,206.38,569.26,Single-ply,SBD,M,
Boys,99.79,3,Adrian Lopez #6,Burnet,98.61,206.38,120.2,197.31,523.9,Single-ply,SBD,M,
Boys,99.79,4,Jose Vasquez,Marble Falls,97.07,174.63,104.33,204.12,483.08,Single-ply,SBD,M,
Boys,99.79,5,Jose Lopez,Burnet,96.34,165.56,92.99,158.76,417.3,Single-ply,SBD,M,
Boys,99.79,6,Kaleb Dye,Christoval,91.81,163.29,99.79,151.95,415.04,Single-ply,SBD,M,
Boys,99.79,7,Brennen Fuhrman,Lago Vista,93.8,138.35,83.91,156.49,378.75,Single-ply,SBD,M,
Boys,99.79,8,Steven Childress,Junction,97.52,113.4,68.04,131.54,312.98,Single-ply,SBD,M,
Boys,99.79,DQ,Kevin Garcia,Junction,97.98,183.7,111.13,,,Single-ply,SBD,M,
Boys,109.77,1,Landin Short,San Saba,101.24,238.14,158.76,249.48,646.37,Single-ply,SBD,M,
Boys,109.77,2,Ethan Harris,Lago Vista,103.51,226.8,122.47,254.01,603.28,Single-ply,SBD,M,
Boys,109.77,3,Owen Seaver,Lampasas,103.51,199.58,174.63,208.65,582.87,Single-ply,SBD,M,
Boys,109.77,4,Matthew Whitley,Llano,105.78,210.92,142.88,213.19,566.99,Single-ply,SBD,M,
Boys,109.77,5,Daniel Herrera,San Saba,107.05,231.33,142.88,174.63,548.85,Single-ply,SBD,M,
Boys,109.77,6,Ethan Pesina,Brownwood,100.52,213.19,136.08,170.1,519.36,Single-ply,SBD,M,
Boys,109.77,7,Logan Itara,Lago Vista,101.97,213.19,108.86,197.31,519.36,Single-ply,SBD,M,
Boys,109.77,8,Alex Reyna,Brownwood,106.87,226.8,113.4,170.1,510.29,Single-ply,SBD,M,
Boys,109.77,9,Gerardo Hernandez,Marble Falls,107.86,170.1,99.79,154.22,424.11,Single-ply,SBD,M,
Boys,109.77,DQ,Dj Powell,Brady,102.38,136.08,,,,Single-ply,SBD,M,
Boys,109.77,DQ,Gavyn McDonald,Coleman,109.5,,,,,Single-ply,SBD,M,
Boys,109.77,DQ,Dax Lawhon,Lago Vista,101.6,179.17,102.06,,,Single-ply,SBD,M,
Boys,124.74,1,Logan Gillam,Early,122.7,281.23,176.9,254.01,712.14,Single-ply,SBD,M,
Boys,124.74,2,Cesar Reza,Brady,122.38,240.4,124.74,249.48,614.62,Single-ply,SBD,M,
Boys,124.74,3,Brad Robinson,Brownwood,111.58,238.14,149.69,215.46,603.28,Single-ply,SBD,M,
Boys,124.74,4,Bryan Reza,San Saba,123.56,215.46,151.95,226.8,594.21,Single-ply,SBD,M,
Boys,124.74,5,Zach Wubbolding,Fredericksburg,116.12,215.46,165.56,204.12,585.13,Single-ply,SBD,M,
Boys,124.74,6,Cristian Ramirez,San Saba,118.39,238.14,124.74,190.51,553.38,Single-ply,SBD,M,
Boys,124.74,7,Juan Leon,Brady,118.3,208.65,127.01,192.78,528.44,Single-ply,SBD,M,
Boys,124.74,8,Fischer Fulton,Early,112.04,181.44,124.74,158.76,464.93,Single-ply,SBD,M,
Boys,124.74,9,Hunter Wills,Brady,113.53,170.1,92.99,167.83,430.91,Single-ply,SBD,M,
Boys,124.74,10,Charlie Bigham,Coleman,112.04,142.88,88.45,145.15,376.48,Single-ply,SBD,M,
Boys,124.74,DQ,Jimi Brown,Brownwood,115.08,185.97,124.74,,,Single-ply,SBD,M,
Boys,124.74,DQ,Ceasar Avila,Junction,112.49,249.48,,,,Single-ply,SBD,M,
Boys,124.74+,1,John Long,Lampasas,131.18,240.4,172.37,215.46,628.23,Single-ply,SBD,M,
Boys,124.74+,2,Jeryd Fain,Coleman,132.54,249.48,138.35,204.12,591.94,Single-ply,SBD,M,
Boys,124.74+,3,Travis Cates,Fredericksburg,126.92,215.46,154.22,206.38,576.06,Single-ply,SBD,M,
Boys,124.74+,4,Caden Thrift,Lampasas,148.14,192.78,149.69,204.12,546.58,Single-ply,SBD,M,
Boys,124.74+,5,Rafael Benavides,Junction,132.99,226.8,106.59,204.12,537.51,Single-ply,SBD,M,
Boys,124.74+,6,Jaime Palacios,Burnet,142.43,188.24,124.74,222.26,535.24,Single-ply,SBD,M,
Boys,,NS,Simon Guzman,Brady,,,68.04,95.25,,Single-ply,SBD,M,
Boys,,NS,Jay Villa,Brady,,,27.22,,,Single-ply,SBD,M,
