Place,Sex,Name,CyrillicName,BodyweightKg,Squat1Kg,Squat2Kg,Squat3Kg,Best3SquatKg,Squat4Kg,Bench1Kg,Bench2Kg,Bench3Kg,Best3BenchKg,Bench4Kg,Deadlift1Kg,Deadlift2Kg,Deadlift3Kg,Best3DeadliftKg,Deadlift4Kg,TotalKg,WeightClassKg,Event,Equipment,Tested,Division,Age,BirthDate
1,F,Darya Markelova,Дарья Маркелова,47.5,60,62.5,65,65,,40,42.5,45,45,,60,72.5,75,75,,185,48,SBD,Raw,No,Open,15,2005-06-09
1,F,Vera Ilina,Вера Ильина,50.75,-80,82.5,87.5,87.5,,37.5,40,-42.5,40,,95,97.5,102.5,102.5,,230,52,SBD,Raw,No,Masters 40-44,41,1980-02-18
1,F,Darya Guseva,Дарья Гусева,57.5,90,97.5,-102,97.5,,55,57.5,-60,57.5,,100,110,115,115,,270,60,SBD,Raw,No,Juniors 20-23,22,1998-04-18
1,F,Olga Osipova,Ольга Осипова,98.8,140,150,-160,150,,80,-90,100,100,,140,160,170,170,,420,90+,SBD,Raw,No,Open,47,1973-06-07
1,M,Ilgar Samigullin,Ильгар Самигуллин,30,47.5,-50,50,50,,20,-25,-27.5,20,,60,62.5,-65,62.5,,132.5,52,SBD,Raw,No,Youth,10,2010-08-06
2,M,Almaz Galikeev,Алмаз Галикеев,28,42.5,45,-47.5,45,,20,-22.5,-22.5,20,,52,55,57.5,57.5,,122.5,52,SBD,Raw,No,Youth,10,2011-01-12
1,M,Chingiz Arduanov,Чингиз Ардуанов,56,70,75,77.5,77.5,,50,52.5,-55,52.5,,90,100,110,110,,240,56,SBD,Raw,No,Teen 13-15,14,2006-09-12
1,M,Ayaz Islanov,Аяз Исланов,65,90,-95,-95,90,,60,-62.5,-62.5,60,,125,135,-140,135,,285,67.5,SBD,Raw,No,Teen 16-17,16,2004-08-06
1,M,Marat Musin,Марат Мусин,71.65,150,160,170,170,,110,120,127.5,127.5,,200,210,-215,210,,507.5,75,SBD,Raw,No,Open,31,1989-05-08
2,M,Sergey Fedorov #18,Сергей Федоров,73.4,135,142.5,147.5,147.5,,110,117.5,125,125,,170,180,195,195,,467.5,75,SBD,Raw,No,Open,26,1994-03-30
1,M,Andrey Vashchenko,Андрей Ващенко,74.7,155,165,-170,165,,115,-117.5,-117.5,115,,165,175,180,180,,460,75,SBD,Raw,No,Masters 40-44,40,1980-07-19
1,M,Ruslan Mukhamedyarov,Руслан Мухамедьяров,84.35,115,125,135,135,,100,110,-117.5,110,,145,175,180,180,,425,90,SBD,Raw,No,Open,33,1987-09-25
1,M,Eduard Davleev,Эдуард Давлеев,93.2,205,212.5,225,225,,125,132.5,-140,132.5,,225,237.5,250,250,,607.5,100,SBD,Raw,No,Juniors 20-23,21,1999-09-02
1,M,Timur Podvoyskiy,Тимур Подвойский,97.35,180,190,195,195,,150,155,162.5,162.5,,215,230,-240,230,,587.5,100,SBD,Raw,No,Open,34,1986-08-11
1,M,Anton Smirnov,Антон Смирнов,108.7,180,190,210,210,,110,120,127.5,127.5,,240,255,270,270,,607.5,110,SBD,Raw,No,Open,35,1985-06-07
2,M,Konstantin Ivanov,Константин Иванов,109.5,160,170,180,180,,155,165,170,170,,200,225,240,240,,590,110,SBD,Raw,No,Open,33,1987-10-28
1,F,Yuliya Shchepina,Юлия Щепина,63.95,150,,,150,,85,95,-105,95,,190,200,-210,200,,445,67.5,SBD,Wraps,No,Open,31,1989-09-18
1,M,Artyom Musin,Артём Мусин,96.6,160,-180,-180,160,,110,120,-125,120,,170,185,200,200,,480,100,SBD,Wraps,No,Teen 18-19,18,2002-04-23
1,F,Arina Minaeva,Арина Минаева,50,,,,,,22.5,25,30,30,,,,,,,30,52,B,Raw,No,Teen 16-17,17,2003-05-15
1,F,Vlada Velikorodnaya,Влада Великородная,78.75,,,,,,65,70,-72.5,70,,,,,,,70,82.5,B,Raw,No,Teen 16-17,17,2004-03-08
1,M,Mikhail Kryukov,Михаил Крюков,42.95,,,,,,22.5,25,-30,25,,,,,,,25,52,B,Raw,No,Youth,12,2008-12-11
1,M,Georgiy Yansitov,Георгий Янситов,55.5,,,,,,70,-80,-80,70,,,,,,,70,56,B,Raw,No,Teen 16-17,17,2003-11-19
1,M,Damir Mukhametshin,Дамир Мухаметшин,59.35,,,,,,-95,95,-100,95,,,,,,,95,60,B,Raw,No,Teen 18-19,19,2002-02-09
2,M,Ilyas Kadikov,Ильяс Кадиков,58.55,,,,,,75,-80,-80,75,,,,,,,75,60,B,Raw,No,Teen 18-19,19,2002-03-04
3,M,Radmir Kashapov,Радмир Кашапов,58.95,,,,,,60,70,72.5,72.5,,,,,,,72.5,60,B,Raw,No,Teen 16-17,16,2004-09-25
4,M,Nikita Topychkanov,Никита Топычканов,57.35,,,,,,45,50,-55,50,,,,,,,50,60,B,Raw,No,Teen 13-15,13,2007-10-22
1,M,Ruslan Khisamutdinov,Руслан Хисамутдинов,56.6,,,,,,70,75,82.5,82.5,,,,,,,82.5,60,B,Raw,No,Open,26,1994-11-22
1,M,Valeriy Patrikeev,Валерий Патрикеев,60,,,,,,90,100,105,105,,,,,,,105,60,B,Raw,No,Masters 55-59,56,1964-04-12
1,M,Radmir Galiev,Радмир Галиев,65.75,,,,,,80,85,-90,85,,,,,,,85,67.5,B,Raw,No,Teen 16-17,17,2003-03-31
2,M,Amir Nizamov,Амир Низамов,61.95,,,,,,55,60,-70,60,,,,,,,60,67.5,B,Raw,No,Teen 13-15,15,2005-07-21
1,M,Nikolay Koloskov,Николай Колосков,66.25,,,,,,110,115,-122.5,115,,,,,,,115,67.5,B,Raw,No,Open,26,1994-08-26
1,M,Maksim Lebedev,Максим Лебедев,69.1,,,,,,85,92.5,100,100,,,,,,,100,75,B,Raw,No,Teen 13-15,15,2005-04-24
2,M,Shamil Minnullin,Шамиль Миннуллин,71.75,,,,,,80,85,-90,85,,,,,,,85,75,B,Raw,No,Teen 16-17,17,2003-04-18
1,M,Ilya Larionov,Илья Ларионов,69.5,,,,,,110,120,-135,120,,,,,,,120,75,B,Raw,No,Juniors 20-23,23,1997-06-30
1,M,Edgar Gataulin,Эдгар Гатаулин,71.55,,,,,,135,137.5,140,140,,,,,,,140,75,B,Raw,No,Open,28,1992-12-29
2,M,Roman Ovsepyan,Роман Овсепьян,71.65,,,,,,110,120,132.5,132.5,,,,,,,132.5,75,B,Raw,No,Open,28,1992-09-01
3,M,Sergey Fedorov #18,Сергей Федоров,73.4,,,,,,125,,,125,,,,,,,125,75,B,Raw,No,Open,26,1994-03-30
1,M,Andrey Vashchenko,Андрей Ващенко,74.7,,,,,,115,,,115,,,,,,,115,75,B,Raw,No,Masters 40-44,40,1980-07-19
1,M,Artur Akhmetdinov,Артур Ахметдинов,80.35,,,,,,105,110,-117.5,110,,,,,,,110,82.5,B,Raw,No,Teen 18-19,18,2002-12-03
1,M,Konstantin Shimkovich,Константин Шимкович,80.6,,,,,,140,150,157.5,157.5,,,,,,,157.5,82.5,B,Raw,No,Open,44,1976-11-23
2,M,Ildar Nizamov,Ильдар Низамов,82.05,,,,,,145,152.5,157.5,157.5,,,,,,,157.5,82.5,B,Raw,No,Open,45,1975-11-20
3,M,Dmitriy Kiselev,Дмитрий Киселев,81.5,,,,,,140,147.5,-152.5,147.5,,,,,,,147.5,82.5,B,Raw,No,Open,40,1981-01-30
4,M,Vladimir Khusainov,Владимир Хусаинов,82,,,,,,140,145,-150,145,,,,,,,145,82.5,B,Raw,No,Open,33,1987-04-08
5,M,Stanislav Doynikov,Станислав Дойников,81.45,,,,,,-120,125,-130,125,,,,,,,125,82.5,B,Raw,No,Open,37,1983-07-08
1,M,Konstantin Pomelov,Константин Помелов,79,,,,,,75,80,85,85,,,,,,,85,82.5,B,Raw,No,Open,27,1994-03-03
1,M,Igor Evdokimov,Игорь Евдокимов,80,,,,,,120,130,135,135,,,,,,,135,82.5,B,Raw,No,Masters 50-54,51,1969-09-24
1,M,Erik Kurbanov,Эрик Курбанов,87.8,,,,,,155,160,,160,,,,,,,160,90,B,Raw,No,Open,30,1990-09-13
2,M,Svyatoslav Ivanyuta,Святослав Иванюта,89.9,,,,,,110,117.5,-122.5,117.5,,,,,,,117.5,90,B,Raw,No,Open,25,1995-07-07
1,M,Pyotr Isaev,Пётр Исаев,89.5,,,,,,110,115,117.5,117.5,,,,,,,117.5,90,B,Raw,No,Masters 70-74,71,1950-02-18
1,M,Aleksey Naryshkin,Алексей Нарышкин,97.6,,,,,,200,210,215,215,,,,,,,215,100,B,Raw,No,Open,26,1994-08-30
2,M,Ramil Sharafutdinov,Рамиль Шарафутдинов,92.15,,,,,,170,177.5,-185,177.5,,,,,,,177.5,100,B,Raw,No,Open,49,1972-02-12
3,M,Denis Kuzminykh,Денис Кузьминых,99.1,,,,,,150,155,160,160,,,,,,,160,100,B,Raw,No,Open,37,1984-01-30
4,M,Alik Imamov,Алик Имамов,97.5,,,,,,-155,155,-160,155,,,,,,,155,100,B,Raw,No,Open,38,1982-05-26
1,M,Sergey Troshkin,Сергей Трошкин,94,,,,,,150,155,162.5,162.5,,,,,,,162.5,100,B,Raw,No,Masters 40-44,40,1980-07-05
1,M,Ramil Sharafutdinov,Рамиль Шарафутдинов,92.15,,,,,,170,177.5,-185,177.5,,,,,,,177.5,100,B,Raw,No,Masters 45-49,49,1972-02-12
1,M,Vitaliy Petrov,Виталий Петров,95.3,,,,,,160,-165,-165,160,,,,,,,160,100,B,Raw,No,Masters 50-54,53,1967-04-06
2,M,Sergey Sapozhnikov,Сергей Сапожников,94.2,,,,,,152.5,-160,-160,152.5,,,,,,,152.5,100,B,Raw,No,Masters 50-54,51,1969-04-12
1,M,Alik Basyrov,Алик Басыров,91.65,,,,,,90,100,-105,100,,,,,,,100,100,B,Raw,No,Masters 60-64,61,1959-10-12
1,M,Artur Mukhamedyarov,Артур Мухамедьяров,108.6,,,,,,120,135,-150,135,,,,,,,135,110,B,Raw,No,Open,24,1997-03-06
1,M,Sergey Lashmanov,Сергей Лашманов,104.25,,,,,,180,185,190,190,,,,,,,190,110,B,Raw,No,Open,36,1984-11-12
2,M,Denis Giniyatullin,Денис Гиниятуллин,102.15,,,,,,155,162.5,-170,162.5,,,,,,,162.5,110,B,Raw,No,Open,34,1986-07-12
3,M,Anton Smirnov,Антон Смирнов,108.7,,,,,,110,120,127.5,127.5,,,,,,,127.5,110,B,Raw,No,Open,35,1985-06-07
1,M,Georgiy Gnezdilo,Георгий Гнездило,100.7,,,,,,155,160,167.5,167.5,,,,,,,167.5,110,B,Raw,No,Masters 40-44,43,1977-08-18
1,M,Karim Mingazov,Карим Мингазов,114.2,,,,,,140,145,150,150,,,,,,,150,125,B,Raw,No,Open,28,1992-09-18
1,M,Dmitriy Kuleshov,Дмитрий Кулешов,128.65,,,,,,170,180,-190,180,,,,,,,180,140,B,Raw,No,Juniors 20-23,22,1998-04-27
1,M,Ildar Mukhamatullin,Ильдар Мухаматуллин,128.7,,,,,,182.5,190,195,195,,,,,,,195,140,B,Raw,No,Open,38,1982-06-18
1,M,Sergey Bubnov,Сергей Бубнов,144.55,,,,,,200,210,215,215,,,,,,,215,140+,B,Raw,No,Masters 45-49,45,1975-04-25
1,M,Ildar Nizamov,Ильдар Низамов,82.05,,,,,,180,190,200,200,,,,,,,200,82.5,B,Single-ply,No,Open,45,1975-11-20
1,M,Vladimir Prishchepo,Владимир Прищепо,88.75,,,,,,170,180,-187.5,180,,,,,,,180,90,B,Single-ply,No,Open,26,1994-12-12
1,M,Valeriy Kazhaev,Валерий Кажаев,100.45,,,,,,195,205,210,210,,,,,,,210,110,B,Single-ply,No,Masters 55-59,57,1963-05-01
1,F,Vlada Velikorodnaya,Влада Великородная,78.75,,,,,,85,90,-100,90,,,,,,,90,82.5,B,Unlimited,No,Teen 16-17,17,2004-03-08
1,M,Radmir Kashapov,Радмир Кашапов,58.95,,,,,,70,80,-100,80,,,,,,,80,60,B,Unlimited,No,Teen 16-17,16,2004-09-25
1,M,Roman Ovsepyan,Роман Овсепьян,71.65,,,,,,140,155,165,165,,,,,,,165,75,B,Unlimited,No,Open,28,1992-09-01
1,F,Elena Zolotareva,Елена Золотарева,50.3,,,,,,,,,,,-107.5,-115,117.5,117.5,,117.5,52,D,Raw,No,Open,38,1983-01-21
1,F,Nadezhda Vasileva,Надежда Васильева,55.2,,,,,,,,,,,112.5,117.5,120,120,,120,56,D,Raw,No,Open,48,1972-12-24
1,F,Lidiya Egupova,Лидия Егупова,74,,,,,,,,,,,110,-120,-120,110,,110,75,D,Raw,No,Open,43,1977-04-21
1,M,Marat Musin,Марат Мусин,71.65,,,,,,,,,,,200,210,,210,,210,75,D,Raw,No,Open,31,1989-05-08
1,M,Askar Gubaydullin,Аскар Губайдуллин,86.3,,,,,,,,,,,175,190,-200,190,,190,90,D,Raw,No,Juniors 20-23,20,2000-08-23
1,M,Aleksey Koryukov,Алексей Корюков,83,,,,,,,,,,,270,285,-300,285,,285,90,D,Raw,No,Open,42,1978-08-24
2,M,Ervin Mukhterinov,Эрвин Мухтеринов,88.25,,,,,,,,,,,205,220,-230,220,,220,90,D,Raw,No,Open,28,1992-09-19
3,M,Ruslan Mukhamedyanov,Руслан Мухамедьянов,84.35,,,,,,,,,,,145,175,180,180,,180,90,D,Raw,No,Open,33,1987-09-25
4,M,Svyatoslav Ivanyuta,Святослав Иванюта,89.9,,,,,,,,,,,150,165,-170,165,,165,90,D,Raw,No,Open,25,1995-07-07
5,M,Rafael Batrshin,Рафаэль Батршин,88.65,,,,,,,,,,,150,162.5,-167.5,162.5,,162.5,90,D,Raw,No,Open,25,1995-08-06
1,M,Timur Podvoyskiy,Тимур Подвойский,97.35,,,,,,,,,,,215,230,,230,,230,100,D,Raw,No,Open,35,1986-01-01
2,M,Maksim Zolotaryov,Максим Золотарёв,93.1,,,,,,,,,,,170,185,-192.5,185,,185,100,D,Raw,No,Open,38,1982-11-12
1,M,Vadim Prodanov,Вадим Проданов,98.5,,,,,,,,,,,240,250,260,260,,260,100,D,Raw,No,Masters 40-44,42,1978-04-08
1,M,Anton Smirnov,Антон Смирнов,108.7,,,,,,,,,,,240,255,270,270,,270,110,D,Raw,No,Open,35,1986-03-07
1,M,Dmitriy Kuleshov,Дмитрий Кулешов,128.65,,,,,,,,,,,240,250,260,260,,260,140,D,Raw,No,Open,22,1998-04-27
1,M,Vadim Prodanov,Вадим Проданов,98.5,,,,,,,,,,,240,250,260,260,,260,100,D,Raw,No,Masters 40-44,42,1978-04-08
