Place,WeightClassKg,Event,Equipment,Tested,Sex,Name,CyrillicName,BirthDate,Division,BodyweightKg,Squat1Kg,Squat2Kg,Squat3Kg,Squat4Kg,Best3SquatKg,Bench1Kg,Bench2Kg,Bench3Kg,Bench4Kg,Best3BenchKg,Deadlift1Kg,Deadlift2Kg,Deadlift3Kg,Deadlift4Kg,Best3DeadliftKg,TotalKg
1,60,B,Raw,No,F,Irina Pilipishko,Ирина Пилипишко,1957-02-28,Pro Masters 50-59,59,,,,,,50,-52.5,-52.5,,50,,,,,,50
1,60,B,Raw,No,F,Larisa Gvozdeva,Лариса Гвоздева,1965-06-25,Pro Open,59.95,,,,,,-95,95,,,95,,,,,,95
1,75,B,Raw,No,F,Marina Khodunova,Марина Ходунова,1973-08-05,Pro Masters 40-49,71.03,,,,,,-47.5,47.5,-55,,47.5,,,,,,47.5
1,44,B,Raw,No,M,Makar Perminov,Макар Перминов,2002-08-08,Pro Teen 13,40.7,,,,,,32.5,37.5,-45,,37.5,,,,,,37.5
2,44,B,Raw,No,M,Roman Berdinskikh,Роман Бердинских,2005-08-25,Pro Teen 13,29,,,,,,20,22.5,-25,,22.5,,,,,,22.5
1,48,B,Raw,No,M,Artem Pantyukhin,Артем Пантюхин,2000-11-23,Pro Teen 13,45.95,,,,,,42.5,45,50,,50,,,,,,50
1,56,B,Raw,No,M,Nikita Koposov,Никита Копосов,2000-08-21,Pro Teen 13,53,,,,,,40,50,57.5,,57.5,,,,,,57.5
2,56,B,Raw,No,M,Mikhail Mikhaylov,Михаил Михайлов,2001-01-14,Pro Teen 13,56,,,,,,45,50,-55,,50,,,,,,50
DQ,56,B,Raw,No,M,Evgeniy Nazukin,Евгений Назукин,1999-07-01,Pro Teen 14-15,55.8,,,,,,-90,-90,-95,,,,,,,,
1,75,B,Raw,No,M,Mikhail Lokhmotkin,Михаил Лохмоткин,1989-01-24,Pro Open,74.15,,,,,,150,160,170,,170,,,,,,170
1,75,B,Raw,No,M,Vyacheslav Zorin,Вячеслав Зорин,1997-10-25,Pro Teen 16-17,74.65,,,,,,100,105,112.5,,112.5,,,,,,112.5
1,82.5,B,Raw,No,M,Dmitriy Mayka,Дмитрий Майка,1994-01-03,Pro Juniors 20-23,77.75,,,,,,150,157.5,162.5,,162.5,,,,,,162.5
2,82.5,B,Raw,No,M,Artem Stasyuk,Артем Стасюк,1993-05-30,Pro Juniors 20-23,77,,,,,,-160,160,-165,,160,,,,,,160
3,82.5,B,Raw,No,M,Rasim Oydinov,Расим Ойдинов,1991-09-23,Pro Juniors 20-23,80.8,,,,,,155,160,-165,,160,,,,,,160
4,82.5,B,Raw,No,M,Azamat Zhashuev,Азамат Жашуев,1994-05-06,Pro Juniors 20-23,77,,,,,,-115,115,-120,,115,,,,,,115
1,82.5,B,Raw,No,M,Sergey Koshkin,Сергей Кошкин,1971-09-28,Pro Masters 40-49,82.4,,,,,,215,-222.5,-225,,215,,,,,,215
2,82.5,B,Raw,No,M,Sergey Khodunov,Сергей Ходунов,1968-10-23,Pro Masters 40-49,81.95,,,,,,150,166,,,166,,,,,,166
1,82.5,B,Raw,No,M,Sergey Koshkin,Сергей Кошкин,1971-09-28,Pro Open,82.4,,,,,,215,-222.5,-225,,215,,,,,,215
2,82.5,B,Raw,No,M,Anton Rusov,Антон Русов,1988-04-11,Pro Open,78.3,,,,,,122.5,127.5,132.5,,132.5,,,,,,132.5
DQ,82.5,B,Raw,No,M,Kamil Gafarov,Камиль Гафаров,1984-03-23,Pro Open,82.25,,,,,,-200,-200,-200,,,,,,,,
1,82.5,B,Raw,No,M,Stanislav Kadnikov,Станислав Кадников,1995-02-08,Pro Teen 18-19,81.85,,,,,,117.5,127.5,132.5,,132.5,,,,,,132.5
1,90,B,Raw,No,M,Aleksandr Shilovskiy,Александр Шиловский,1971-08-02,Pro Masters 40-49,85.2,,,,,,130,132.5,-140,,132.5,,,,,,132.5
1,90,B,Raw,No,M,Fedor Chesnokov,Федор Чесноков,1947-02-16,Pro Masters 60-69,88,,,,,,132.5,142.5,147.5,,147.5,,,,,,147.5
1,90,B,Raw,No,M,Sergey Grishko,Сергей Гришко,1980-01-07,Pro Open,85.6,,,,,,230,235,-240,,235,,,,,,235
2,90,B,Raw,No,M,Idris Kuzaev,Идрис Кузаев,1989-07-21,Pro Open,88.5,,,,,,220,-230,-230,,220,,,,,,220
1,90,B,Raw,No,M,Andrey Fadeev,Андрей Фадеев,,Pro Teen 14-15,84.8,,,,,,85,-95,-95,,85,,,,,,85
1,90,B,Raw,No,M,Igor Zherebilov,Игорь Жеребилов,1996-09-07,Pro Teen 16-17,86.9,,,,,,130,140,-145,,140,,,,,,140
1,90,B,Raw,No,M,Grigoriy Pantyukhin,Григорий Пантюхин,1995-07-22,Pro Teen 18-19,85,,,,,,135,145,150,,150,,,,,,150
1,100,B,Raw,No,M,Aleksandr Prozorov,Александр Прозоров,1973-12-12,Pro Masters 40-49,99.8,,,,,,190,197.5,205,,205,,,,,,205
2,100,B,Raw,No,M,Ivan Solntsev,Иван Солнцев,1974-03-25,Pro Masters 40-49,98.65,,,,,,195,-202.5,-205,,195,,,,,,195
1,100,B,Raw,No,M,Aslambek Abaev,Асламбек Абаев,1959-06-28,Pro Masters 50-59,98.4,,,,,,200,210,-217.5,,210,,,,,,210
1,100,B,Raw,No,M,Evgeniy Menesenko,Евгений Менесенко,1989-11-20,Pro Open,93.45,,,,,,200,207.5,-215,,207.5,,,,,,207.5
2,100,B,Raw,No,M,Ivan Solntsev,Иван Солнцев,1974-03-25,Pro Open,98.65,,,,,,195,-202.5,-205,,195,,,,,,195
3,100,B,Raw,No,M,Nikolay Kuprichenkov,Николай Куприченков,1979-09-20,Pro Open,99,,,,,,180,190,-200,,190,,,,,,190
1,110,B,Raw,No,M,Igor Kushin,Игорь Кушин,1966-01-30,Pro Masters 40-49,108.6,,,,,,235,-240,,,235,,,,,,235
1,110,B,Raw,No,M,Vladimir Petrov,Владимир Петров,1968-06-17,Pro Masters 45-49,103,,,,,,190,-195,195,,195,,,,,,195
2,110,B,Raw,No,M,Valeriy Akentyev,Валерий Акентьев,1958-03-13,Pro Masters 50-59,101,,,,,,155,162.5,,,162.5,,,,,,162.5
1,110,B,Raw,No,M,Grigoriy Slipchenko,Григорий Слипченко,1982-11-16,Pro Open,103.5,,,,,,250,260,,,260,,,,,,260
2,110,B,Raw,No,M,Igor Kushin,Игорь Кушин,1966-01-30,Pro Open,108.6,,,,,,235,-240,,,235,,,,,,235
3,110,B,Raw,No,M,Andrey Skvortsov,Андрей Скворцов,1977-11-25,Pro Open,109.5,,,,,,225,235,-237,,235,,,,,,235
4,110,B,Raw,No,M,Timur Mudarov,Тимур Мударов,1982-08-19,Pro Open,107.3,,,,,,210,-227.5,-227.5,,210,,,,,,210
5,110,B,Raw,No,M,Vladimir Petrov,Владимир Петров,1968-06-17,Pro Open,103,,,,,,190,-195,195,,195,,,,,,195
DQ,110,B,Raw,No,M,Andrey Likhman,Андрей Лихман,1977-05-01,Pro Open,108.2,,,,,,-205,,,,,,,,,,
DQ,125,B,Raw,No,M,Sergey Zimin,Сергей Зимин,1972-02-14,Pro Masters 40-49,121.9,,,,,,-227.5,-227.5,,,,,,,,,
1,125,B,Raw,No,M,Igor Babushkin,Игорь Бабушкин,1963-10-25,Pro Masters 50-59,111.7,,,,,,170,-175,-175,,170,,,,,,170
2,125,B,Raw,No,M,Andrey Litvinenko,Андрей Литвиненко,1962-04-19,Pro Masters 50-59,113.95,,,,,,135,-142.5,-145,,135,,,,,,135
1,125,B,Raw,No,M,Nikolay Timofeev,Николай Тимофеев,1982-07-30,Pro Open,121.5,,,,,,215,225,-230,,225,,,,,,225
2,125,B,Raw,No,M,Ruben Odabashyan,Рубен Одабашян,1986-08-27,Pro Open,110.5,,,,,,200,205,-210,,205,,,,,,205
3,125,B,Raw,No,M,Igor Babushkin,Игорь Бабушкин,1963-10-25,Pro Open,111.7,,,,,,170,-175,-175,,170,,,,,,170
DQ,125,B,Raw,No,M,Sergey Zimin,Сергей Зимин,1972-02-14,Pro Open,121.9,,,,,,-227.5,-227.5,,,,,,,,,
1,140,B,Raw,No,M,Artem Dolinyan,Артем Долинян,1980-07-19,Pro Open,127.8,,,,,,-235,235,237.5,,237.5,,,,,,237.5
2,140,B,Raw,No,M,Sergey Luchenkov,Сергей Лученков,1977-05-24,Pro Open,128.8,,,,,,225,-235,237.5,,237.5,,,,,,237.5
3,140,B,Raw,No,M,Sergey Laskavyy,Сергей Ласкавый,1974-10-02,Pro Open,125.25,,,,,,195,-202.5,,,195,,,,,,195
1,140+,B,Raw,No,M,Artem Fadeev,Артем Фадеев,1980-11-11,Pro Open,141,,,,,,240,-250,,,240,,,,,,240
2,140+,B,Raw,No,M,Vladimir Rusanov,Владимир Русанов,1977-02-23,Pro Open,141.05,,,,,,-215,215,222.5,,222.5,,,,,,222.5
1,52,B,Multi-ply,No,F,Margarita Galaktinova,Маргарита Галактинова,1991-03-01,Pro Juniors 20-23,50.85,,,,,,52.5,-57.5,-57.5,,52.5,,,,,,52.5
1,67.5,B,Multi-ply,No,F,Natalya Shvachko,Наталья Швачко,1990-03-01,Pro Open,67.5,,,,,,117.5,122.5,130,,130,,,,,,130
1,56,B,Multi-ply,No,M,Evgeniy Nazukin,Евгений Назукин,1999-07-01,Pro Teen 14-15,55.8,,,,,,-100,100,-110,,100,,,,,,100
1,67.5,B,Multi-ply,No,M,Vladimir Afonin,Владимир Афонин,1945-06-09,Pro Masters 60-69,67.5,,,,,,110,-115,115,,115,,,,,,115
1,82.5,B,Multi-ply,No,M,Aleksey Shirobokov,Алексей Широбоков,1991-05-23,Pro Juniors 20-23,78.2,,,,,,-160,165,175,,175,,,,,,175
1,82.5,B,Multi-ply,No,M,Kamil Gafarov,Камиль Гафаров,1984-03-23,Pro Open,82.25,,,,,,-220,220,-250,,220,,,,,,220
2,82.5,B,Multi-ply,No,M,Viktor Shmatkov,Виктор Шматков,1982-11-05,Pro Open,77,,,,,,135,145,155,,155,,,,,,155
DQ,100,B,Multi-ply,No,M,Aleksandr Prozorov,Александр Прозоров,1973-12-12,Pro Masters 40-49,99.8,,,,,,-230,-242.5,-250,,,,,,,,
DQ,100,B,Multi-ply,No,M,Valeriy Akentyev,Валерий Акентьев,1958-03-13,Pro Masters 50-59,98.75,,,,,,-265,-265,-265,,,,,,,,
1,100,B,Multi-ply,No,M,Nikolay Sergeev,Николай Сергеев,1991-06-07,Pro Open,99.65,,,,,,300,325,-330,,325,,,,,,325
1,110,B,Multi-ply,No,M,Andrey Likhman,Андрей Лихман,1977-05-01,Pro Open,108.2,,,,,,235,240,250,,250,,,,,,250
2,110,B,Multi-ply,No,M,Yashar Shavoev,Яшар Шавоев,1986-10-02,Pro Open,109.6,,,,,,220,-240,240,,240,,,,,,240
1,125,B,Multi-ply,No,M,Igor Babushkin,Игорь Бабушкин,1963-10-25,Pro Masters 50-59,111.7,,,,,,190,200,-210,,200,,,,,,200
2,125,B,Multi-ply,No,M,Anatoliy Talovasov,Анатолий Таловасов,1960-02-01,Pro Masters 50-59,120.6,,,,,,140,150,160,,160,,,,,,160
1,125,B,Multi-ply,No,M,Sergey Andriyashchenko,Сергей Андриященко,1977-08-18,Pro Open,123.3,,,,,,-270,270,,,270,,,,,,270
2,125,B,Multi-ply,No,M,Aleksandr Manchenko,Александр Манченко,1978-11-05,Pro Open,123.35,,,,,,250,-280,-280,,250,,,,,,250
3,125,B,Multi-ply,No,M,Igor Babushkin,Игорь Бабушкин,1963-10-25,Pro Open,111.7,,,,,,190,200,-210,,200,,,,,,200
1,140,B,Multi-ply,No,M,Nikolay Pyshmintsev,Николай Пышминцев,1981-01-04,Pro Open,126.3,,,,,,330,350,-380,,350,,,,,,350
2,140,B,Multi-ply,No,M,Aleksey Shlykov,Алексей Шлыков,1984-08-13,Pro Open,125.1,,,,,,-280,285,,,285,,,,,,285
1,140+,B,Multi-ply,No,M,Valeriy Abiyan,Валерий Абиян,1979-06-02,Pro Open,173,,,,,,220,-230,-230,,220,,,,,,220
1,44,B,Raw,Yes,F,Evgeniya Chistik,Евгения Чистик,1984-11-14,Amateur Open,42.1,,,,,,45,-50,-50,,45,,,,,,45
1,44,B,Raw,Yes,F,Anna Bibanaeva,Анна Бибанаева,2002-04-25,Amateur Teen 13,40.1,,,,,,37.5,40,-42.5,,40,,,,,,40
1,48,B,Raw,Yes,F,Yakha Yusupkhadzhieva,Яха Юсупхаджиева,1990-07-03,Amateur Juniors 20-23,47.8,,,,,,-45,45,50,,50,,,,,,50
DQ,48,B,Raw,Yes,F,Elena Kovalenko,Елена Коваленко,1972-06-15,Amateur Masters 40-49,47.95,,,,,,-50,-50,-50,,,,,,,,
1,48,B,Raw,Yes,F,Yakha Yusupkhadzhieva,Яха Юсупхаджиева,1990-07-03,Amateur Open,47.8,,,,,,-45,45,50,,50,,,,,,50
1,48,B,Raw,Yes,F,Mariya Zavarukhina,Мария Заварухина,2000-08-15,Amateur Teen 13,48,,,,,,47.5,-52.5,-52.5,,47.5,,,,,,47.5
1,52,B,Raw,Yes,F,Oksana Danilyuk,Оксана Данилюк,1979-08-29,Amateur Open,51.1,,,,,,35,40,-42.5,,40,,,,,,40
1,56,B,Raw,Yes,F,Irina Egikyan,Ирина Егикян,1988-04-03,Amateur Open,52.1,,,,,,-30,30,-35,,30,,,,,,30
1,56,B,Raw,Yes,F,Alina Andriyashchenko,Алина Андриященко,1999-01-01,Amateur Teen 14-15,56,,,,,,35,42.5,-47.5,,42.5,,,,,,42.5
1,60,B,Raw,Yes,F,Olga Sokolova,Ольга Соколова,1993-04-12,Amateur Juniors 20-23,59.05,,,,,,22.5,-25,-25,,22.5,,,,,,22.5
1,60,B,Raw,Yes,F,Oksana Kuklina,Оксана Куклина,1969-10-18,Amateur Masters 40-49,60,,,,,,57.5,60,-62.5,,60,,,,,,60
1,60,B,Raw,Yes,F,Polina Turygina,Полина Турыгина,1985-10-19,Amateur Open,60,,,,,,75,-80,80,,80,,,,,,80
1,67.5,B,Raw,Yes,F,Nina Mukhortova,Нина Мухортова,1966-09-16,Amateur Masters 40-49,61.3,,,,,,85,90,-102.5,,90,,,,,,90
1,67.5,B,Raw,Yes,F,Ekaterina Potapova,Екатерина Потапова,1987-07-04,Amateur Open,67.4,,,,,,30,-35,-35,,30,,,,,,30
1,67.5,B,Raw,Yes,F,Valeriya Polevshchikova,Валерия Полевщикова,1998-10-04,Amateur Teen 14-15,65,,,,,,67.5,72.5,-75,,72.5,,,,,,72.5
1,75,B,Raw,Yes,F,Yana Kodzaeva,Яна Кодзаева,1993-06-20,Amateur Juniors 20-23,74.8,,,,,,90,-95,95,,95,,,,,,95
1,75,B,Raw,Yes,F,Olga Kazankova,Ольга Казанкова,1979-06-26,Amateur Open,72.3,,,,,,85,92.5,-95,,92.5,,,,,,92.5
2,75,B,Raw,Yes,F,Tamara Vyazova,Тамара Вязова,1984-07-09,Amateur Open,73.3,,,,,,65,70,-72.5,,70,,,,,,70
1,75,B,Raw,Yes,F,Galina Konovalova,Галина Коновалова,1994-08-08,Amateur Teen 18-19,70.5,,,,,,-57.5,57.5,-65,,57.5,,,,,,57.5
1,82.5,B,Raw,Yes,F,Galina Tsverova,Галина Цверова,1931-07-31,Amateur Masters 80+,76,,,,,,-30,30,35,,35,,,,,,35
1,52,B,Raw,Yes,M,Yuriy Efros,Юрий Эфрос,2000-01-31,Amateur Teen 14-15,47.5,,,,,,50,52.5,55,,55,,,,,,55
1,52,B,Raw,Yes,M,Oleg Nesterov,Олег Нестеров,1992-11-12,Amateur Juniors 20-23,47.8,,,,,,57,60,-65,,60,,,,,,60
1,52,B,Raw,Yes,M,Aleksandr Kuznetsov #11,Александр Кузнецов,1997-09-04,Amateur Teen 16-17,51.7,,,,,,50,,52.5,,52.5,,,,,,52.5
1,60,B,Raw,Yes,M,Andrey Larin,Андрей Ларин,1992-01-20,Amateur Juniors 20-23,59.3,,,,,,100,105,107.5,,107.5,,,,,,107.5
1,60,B,Raw,Yes,M,Andrey Larin,Андрей Ларин,1992-01-20,Amateur Open,59.3,,,,,,100,105,107.5,,107.5,,,,,,107.5
2,60,B,Raw,Yes,M,Nail Mukharramov,Наиль Мухаррамов,1988-12-01,Amateur Open,59.75,,,,,,60,,,,60,,,,,,60
1,60,B,Raw,Yes,M,Ivan Tashlykov,Иван Ташлыков,1997-06-03,Amateur Teen 16-17,60,,,,,,90,-97.5,-100,,90,,,,,,90
1,67.5,B,Raw,Yes,M,Shamil Apazaov,Шамиль Апазаов,1994-05-23,Amateur Juniors 20-23,65.7,,,,,,120,125,,,125,,,,,,125
1,67.5,B,Raw,Yes,M,Aleksandr Mordanov,Александр Морданов,1999-08-10,Amateur Teen 14-15,61.6,,,,,,60,70,-80,,70,,,,,,70
2,67.5,B,Raw,Yes,M,Artem Cherepanov,Артем Черепанов,1998-11-13,Amateur Teen 14-15,66.8,,,,,,55,62.5,-70,,62.5,,,,,,62.5
1,75,B,Raw,Yes,M,Amir Gabdrakhmanov,Амир Габдрахманов,1992-05-04,Amateur Juniors 20-23,72.9,,,,,,110,-120,-120,,110,,,,,,110
1,75,B,Raw,Yes,M,Dmitiy Kukharenko,Дмитий Кухаренко,1969-01-22,Amateur Masters 40-49,75,,,,,,170,-177.5,-177.5,,170,,,,,,170
2,75,B,Raw,Yes,M,Sergey Zavarukhin,Сергей Заварухин,1973-11-03,Amateur Masters 40-49,73.9,,,,,,105,115,120,,120,,,,,,120
1,75,B,Raw,Yes,M,Dmitiy Kukharenko,Дмитий Кухаренко,1969-01-22,Amateur Open,75,,,,,,170,-177.5,-177.5,,170,,,,,,170
2,75,B,Raw,Yes,M,Dmitriy Emelyanov,Дмитрий Емельянов,1980-05-21,Amateur Open,74.4,,,,,,135,145,155,,155,,,,,,155
3,75,B,Raw,Yes,M,Dmitriy Pyzhov,Дмитрий Пыжов,1982-08-01,Amateur Open,75,,,,,,-145,147.5,-157.5,,147.5,,,,,,147.5
4,75,B,Raw,Yes,M,Yaroslav Ivanitskiy,Ярослав Иваницкий,1980-08-30,Amateur Open,69.85,,,,,,135,145,-152.5,,145,,,,,,145
5,75,B,Raw,Yes,M,Sergey Babeshko,Сергей Бабешко,1986-11-20,Amateur Open,74.95,,,,,,-120,-120,120,,120,,,,,,120
1,75,B,Raw,Yes,M,Lev Kuklin,Лев Куклин,1999-01-30,Amateur Teen 14-15,72.8,,,,,,-72.5,75,77.5,,77.5,,,,,,77.5
2,75,B,Raw,Yes,M,Daur Chanturiya,Даур Чантурия,1999-12-23,Amateur Teen 14-15,74.3,,,,,,60,67.5,75,,75,,,,,,75
1,75,B,Raw,Yes,M,Alias Gvindzhiya,Алиас Гвинджия,1997-04-09,Amateur Teen 16-17,74.2,,,,,,100,110,120,,120,,,,,,120
1,82.5,B,Raw,Yes,M,Rishat Fattakhov,Ришат Фаттахов,1967-05-08,Amateur Masters 40-49,82.1,,,,,,140,150,160,-171,160,,,,,,160
2,82.5,B,Raw,Yes,M,Andrey Maleshin,Андрей Малешин,1964-01-01,Amateur Masters 50-59,79.35,,,,,,110,120,125,,125,,,,,,125
1,82.5,B,Raw,Yes,M,Sergey Rudenko,Сергей Руденко,1959-07-11,Amateur Masters 50-59,80.2,,,,,,147.5,155,-162.5,,155,,,,,,155
2,82.5,B,Raw,Yes,M,Igor Volodin,Игорь Володин,1962-12-28,Amateur Masters 50-59,82,,,,,,137.5,-147.5,-147.5,,137.5,,,,,,137.5
1,82.5,B,Raw,Yes,M,Vladimir Rybalko,Владимир Рыбалко,1987-05-04,Amateur Open,82,,,,,,155,162.5,-170,,162.5,,,,,,162.5
2,82.5,B,Raw,Yes,M,Sergey Rudenko,Сергей Руденко,1959-07-11,Amateur Open,80.2,,,,,,147.5,155,-162.5,,155,,,,,,155
3,82.5,B,Raw,Yes,M,Nikolay Storozhenko,Николай Стороженко,1979-08-21,Amateur Open,81.9,,,,,,140,147.5,-150,,147.5,,,,,,147.5
4,82.5,B,Raw,Yes,M,Anatoliy Sarkisyan,Анатолий Саркисян,1987-07-23,Amateur Open,82.3,,,,,,130,137.5,142.5,,142.5,,,,,,142.5
5,82.5,B,Raw,Yes,M,Igor Volodin,Игорь Володин,1962-12-28,Amateur Open,82,,,,,,137.5,-147.5,-147.5,,137.5,,,,,,137.5
DQ,82.5,B,Raw,Yes,M,Nikolay Sidnev,Николай Сиднев,1987-11-20,Amateur Open,78.95,,,,,,-140,-145,-147.5,,,,,,,,
1,82.5,B,Raw,Yes,M,Sergey Shershnev,Сергей Шершнев,1997-05-02,Amateur Teen 16-17,82.4,,,,,,90,92.5,95,,95,,,,,,95
1,82.5,B,Raw,Yes,M,Aleksandr Redko,Александр Редько,1996-02-03,Amateur Teen 18-19,79.65,,,,,,120,125,-130,,125,,,,,,125
1,90,B,Raw,Yes,M,Aleksandr Tyulenev,Александр Тюленев,1968-08-26,Amateur Masters 40-49,89.6,,,,,,142.5,150,-155,,150,,,,,,150
1,90,B,Raw,Yes,M,Dilyus Gumarov,Дилюс Гумаров,1960-10-16,Amateur Masters 50-59,88.1,,,,,,100,110,-115,,110,,,,,,110
1,90,B,Raw,Yes,M,Vladimir Vanyan,Владимир Ванян,1989-10-14,Amateur Open,86.95,,,,,,175,180,-182.5,,180,,,,,,180
2,90,B,Raw,Yes,M,Vasiliy Anisimov,Василий Анисимов,1982-12-15,Amateur Open,89.2,,,,,,172.5,175,-177.5,,175,,,,,,175
3,90,B,Raw,Yes,M,Denis Skorodumov,Денис Скородумов,1982-02-17,Amateur Open,89.5,,,,,,155,165,-170,,165,,,,,,165
4,90,B,Raw,Yes,M,Aleksey Zotov,Алексей Зотов,1986-07-05,Amateur Open,87.05,,,,,,150,155,-162.5,,155,,,,,,155
5,90,B,Raw,Yes,M,Ignat Vardaniya,Игнат Вардания,1986-01-09,Amateur Open,90,,,,,,140,-155,-155,,140,,,,,,140
DQ,90,B,Raw,Yes,M,Ivan Vezdenetskiy,Иван Везденецкий,1983-01-07,Amateur Open,89,,,,,,-145,-155,-155,,,,,,,,
1,90,B,Raw,Yes,M,Rashid Inapshba,Рашид Инапшба,1995-08-16,Amateur Teen 18-19,87.8,,,,,,135,145,-155,,145,,,,,,145
1,100,B,Raw,Yes,M,Boris Arlyukov,Борис Арлюков,1992-12-10,Amateur Juniors 20-23,90.45,,,,,,-125,,125,,125,,,,,,125
1,100,B,Raw,Yes,M,Sergey Nikolaev,Сергей Николаев,1971-10-07,Amateur Masters 40-49,99.9,,,,,,-175,177.5,-182.5,,177.5,,,,,,177.5
2,100,B,Raw,Yes,M,Dmitriy Bibanaev,Дмитрий Бибанаев,1972-08-02,Amateur Masters 40-49,99.7,,,,,,165,170,172.5,,172.5,,,,,,172.5
1,100,B,Raw,Yes,M,Petr Komarov,Петр Комаров,1958-10-06,Amateur Masters 50-59,98.3,,,,,,155,160,-170,,160,,,,,,160
2,100,B,Raw,Yes,M,Sergey Marchenko,Сергей Марченко,1959-06-29,Amateur Masters 50-59,98.3,,,,,,125,-135,-142.5,,125,,,,,,125
1,100,B,Raw,Yes,M,Aleksandr Chebotarev,Александр Чеботарев,1988-03-26,Amateur Open,97.95,,,,,,200,205,-212,,205,,,,,,205
2,100,B,Raw,Yes,M,Anatoliy Krylov,Анатолий Крылов,1986-08-22,Amateur Open,99.85,,,,,,180,190,-200,,190,,,,,,190
3,100,B,Raw,Yes,M,Sergey Nikolaev,Сергей Николаев,1971-10-07,Amateur Open,99.9,,,,,,-175,177.5,-182.5,,177.5,,,,,,177.5
4,100,B,Raw,Yes,M,Ivan Sorokin,Иван Сорокин,1983-09-02,Amateur Open,99.9,,,,,,165,,172.5,,172.5,,,,,,172.5
5,100,B,Raw,Yes,M,Pavel Shibaev,Павел Шибаев,1975-07-22,Amateur Open,99.9,,,,,,150,162.5,167.5,,167.5,,,,,,167.5
6,100,B,Raw,Yes,M,Mikhail Shatunov,Михаил Шатунов,1985-12-23,Amateur Open,98.7,,,,,,150,155,-162.5,,155,,,,,,155
7,100,B,Raw,Yes,M,Aleksey Lazukin,Алексей Лазукин,1990-05-03,Amateur Open,99.25,,,,,,145,150,152.5,,152.5,,,,,,152.5
1,110,B,Raw,Yes,M,Evgeniy Fadeev,Евгений Фадеев,1967-01-28,Amateur Masters 40-49,103.3,,,,,,170,175,-180,,175,,,,,,175
1,110,B,Raw,Yes,M,Boris Grabovoy,Борис Грабовой,1956-01-23,Amateur Masters 50-59,110,,,,,,120,,127.5,,127.5,,,,,,127.5
1,110,B,Raw,Yes,M,Vitaliy Mordvinov,Виталий Мордвинов,1987-04-24,Amateur Open,109.1,,,,,,212.5,-217.5,217.5,,217.5,,,,,,217.5
2,110,B,Raw,Yes,M,Vladimir Astakhov,Владимир Астахов,1979-07-11,Amateur Open,105.75,,,,,,190,200,-212.5,,200,,,,,,200
3,110,B,Raw,Yes,M,Evgeniy Fadeev,Евгений Фадеев,1967-01-28,Amateur Open,103.3,,,,,,170,175,-180,,175,,,,,,175
4,110,B,Raw,Yes,M,Roman Kireev,Роман Киреев,1979-10-13,Amateur Open,101.9,,,,,,160,170,-177.5,,170,,,,,,170
5,110,B,Raw,Yes,M,Artem Grigoryan,Артем Григорян,1988-05-12,Amateur Open,108.4,,,,,,150,162.5,,,162.5,,,,,,162.5
1,125,B,Raw,Yes,M,Dmytro Gosman,Дмитро Госман,1993-05-22,Amateur Juniors 20-23,111.8,,,,,,172.5,177.5,180,,180,,,,,,180
1,125,B,Raw,Yes,M,Aleksandr Vasilchenko,Александр Васильченко,1966-03-19,Amateur Masters 40-49,121.5,,,,,,170,180,-185,,180,,,,,,180
2,125,B,Raw,Yes,M,Vyacheslav Prikhodko,Вячеслав Приходько,1968-10-15,Amateur Masters 40-49,112.5,,,,,,170,175,-180,,175,,,,,,175
3,125,B,Raw,Yes,M,Aleksandr Ponomarev,Александр Пономарев,1967-02-27,Amateur Masters 40-49,112,,,,,,157.5,162.5,-165,,162.5,,,,,,162.5
1,125,B,Raw,Yes,M,Isa Israilov,Иса Исраилов,1984-06-27,Amateur Open,124.1,,,,,,235,241,-250,,241,,,,,,241
1,125,B,Raw,Yes,M,Isa Israilov,Иса Исраилов,1984-06-27,Amateur Open,124.1,,,,,,235,241,-250,,241,,,,,,241
2,125,B,Raw,Yes,M,Dmitriy Rezaykin,Дмитрий Резайкин,1984-02-12,Amateur Open,123.2,,,,,,220,230,235,,235,,,,,,235
3,125,B,Raw,Yes,M,Ivan Regulyarnyy,Иван Регулярный,1984-11-27,Amateur Open,111.2,,,,,,175,182.5,-187.5,,182.5,,,,,,182.5
4,125,B,Raw,Yes,M,Sergey Golovkov,Сергей Головков,1980-11-22,Amateur Open,116.5,,,,,,155,167.5,170,,170,,,,,,170
5,125,B,Raw,Yes,M,Andrey Ruban,Андрей Рубан,1983-09-21,Amateur Open,112.7,,,,,,165,-175,-177.5,,165,,,,,,165
1,140,B,Raw,Yes,M,Georgiy Pirtskhelava,Георгий Пирцхелава,1991-04-24,Amateur Juniors 20-23,126.8,,,,,,185,190,195,,195,,,,,,195
1,140,B,Raw,Yes,M,Georgiy Pirtskhelava,Георгий Пирцхелава,1991-04-24,Amateur Open,126.8,,,,,,185,190,195,,195,,,,,,195
1,48,B,Multi-ply,Yes,F,Anastasiya Sergienko,Анастасия Сергиенко,1987-09-14,Amateur Open,47.6,,,,,,75,82.5,87.5,,87.5,,,,,,87.5
1,56,B,Multi-ply,Yes,F,Ekaterina Puzyrenko,Екатерина Пузыренко,1976-11-24,Amateur Open,56,,,,,,-90,90,-97.5,,90,,,,,,90
1,67.5,B,Multi-ply,Yes,F,Alena Baturina,Алена Батурина,1994-10-03,Amateur Teen 18-19,67.2,,,,,,112.5,-122.5,-122.5,,112.5,,,,,,112.5
1,82.5,B,Multi-ply,Yes,M,Akshin Ismailov,Акшин Исмаилов,1978-03-30,Amateur Open,82,,,,,,200,210,220,,220,,,,,,220
2,82.5,B,Multi-ply,Yes,M,Stepan Pogosyan,Степан Погосян,1985-04-18,Amateur Open,81.35,,,,,,190,-200,200,,200,,,,,,200
3,82.5,B,Multi-ply,Yes,M,Vladimir Rybalko,Владимир Рыбалко,1987-05-04,Amateur Open,82,,,,,,170,180,-192.5,,180,,,,,,180
DQ,82.5,B,Multi-ply,Yes,M,Armen Khachaturyan,Армен Хачатурян,1978-07-18,Amateur Open,80.35,,,,,,-190,-190,-200,,,,,,,,
DQ,90,B,Multi-ply,Yes,M,Sirazhudin Amirchupanov,Сиражудин Амирчупанов,1971-05-16,Amateur Masters 40-49,90,,,,,,-180,-180,-180,,,,,,,,
1,90,B,Multi-ply,Yes,M,Dilyus Gumarov,Дилюс Гумаров,1960-10-16,Amateur Masters 50-59,88.1,,,,,,100,-120,,,100,,,,,,100
1,90,B,Multi-ply,Yes,M,Namig Dzhafarov,Намиг Джафаров,1976-08-27,Amateur Open,89.7,,,,,,230,245,-255,,245,,,,,,245
2,90,B,Multi-ply,Yes,M,Stanislav Kulikov,Станислав Куликов,1978-11-29,Amateur Open,88.4,,,,,,-190,-190,190,,190,,,,,,190
3,90,B,Multi-ply,Yes,M,Aleksey Zotov,Алексей Зотов,1986-07-05,Amateur Open,87.05,,,,,,180,-190,-190,,180,,,,,,180
1,100,B,Multi-ply,Yes,M,Evgeniy Chernozipunnikov,Евгений Чернозипунников,1956-01-21,Amateur Masters 50-59,95.25,,,,,,-145,145,-170,,145,,,,,,145
1,100,B,Multi-ply,Yes,M,Vasiliy Zhilyakov,Василий Жиляков,1985-02-16,Amateur Open,98.6,,,,,,210,-220,-232.5,,210,,,,,,210
DQ,100,B,Multi-ply,Yes,M,Artem Merzoyan,Артем Мерзоян,1976-08-12,Amateur Open,97.9,,,,,,-230,-230,,,,,,,,,
1,125,B,Multi-ply,Yes,M,Anatoliy Panchenko #1,Анатолий Панченко,1973-11-07,Amateur Masters 40-49,116.8,,,,,,-210,210,217.5,,217.5,,,,,,217.5
2,125,B,Multi-ply,Yes,M,Vyacheslav Prikhodko,Вячеслав Приходько,1968-10-15,Amateur Masters 40-49,112.5,,,,,,205,210,215,,215,,,,,,215
1,140,B,Multi-ply,Yes,M,Aleksandr Ballod,Александр Баллод,1979-08-17,Amateur Open,138,,,,,,255,-270,-280,,255,,,,,,255
1,90,S,Wraps,No,M,Mikhail Sizykh,Михаил Сизых,1962-06-17,Pro Masters 50-59,86.6,-100,-100,100,,100,,,,,,,,,,,100
1,110,S,Wraps,No,M,Yashar Shavoev,Яшар Шавоев,1986-10-02,Pro Open,109.6,250,260,,,260,,,,,,,,,,,260
1,52,D,Raw,No,F,Olga Mikhaylova,Ольга Михайлова,1971-12-14,Pro Open,51.95,,,,,,,,,,,155,162.5,-167.5,,162.5,162.5
1,56,D,Raw,No,F,Inna Starun,Инна Старунь,1989-11-19,Pro Open,55.1,,,,,,,,,,,122.5,135,145,,145,145
1,60,D,Raw,No,F,Yuliya Rogozhina,Юлия Рогожина,1991-07-29,Pro Juniors 20-23,56.85,,,,,,,,,,,97.5,105,-110,,105,105
1,60,D,Raw,No,F,Irina Sokolovskaya,Ирина Соколовская,1975-05-25,Pro Open,59.6,,,,,,,,,,,65,75,80,,80,80
1,67.5,D,Raw,No,F,Olga Sudoseva,Ольга Судосьева,1966-08-02,Pro Open,67.5,,,,,,,,,,,-145,150,-162.5,,150,150
1,75,D,Raw,No,F,Viktoriya Doga,Виктория Дога,1982-09-04,Pro Open,74.9,,,,,,,,,,,155,162.5,170,,170,170
1,90+,D,Raw,No,F,Elena Moiseycheva,Елена Моисейчева,1980-06-04,Pro Open,106.5,,,,,,,,,,,125,140,150,,150,150
1,75,D,Raw,No,M,Artemiy Litovchenko,Артемий Литовченко,1989-09-05,Pro Open,73.6,,,,,,,,,,,135,145,150,,150,150
1,82.5,D,Raw,No,M,Rasim Oydinov,Расим Ойдинов,1991-09-23,Pro Juniors 20-23,78.8,,,,,,,,,,,200,220,230,,230,230
1,82.5,D,Raw,No,M,Aleksey Kotov,Алексей Котов,1986-04-08,Pro Open,78.9,,,,,,,,,,,177.5,187.5,195,,195,195
1,90,D,Raw,No,M,Mikhail Sizykh,Михаил Сизых,1962-06-17,Pro Masters 50-59,86.6,,,,,,,,,,,130,155,-165,,155,155
1,90,D,Raw,No,M,Idris Kuzaev,Идрис Кузаев,1989-07-21,Pro Open,87.7,,,,,,,,,,,230,240,-250,,240,240
1,100,D,Raw,No,M,Aleksey Matveev,Алексей Матвеев,1989-08-21,Pro Open,97.8,,,,,,,,,,,265,-275,-275,,265,265
1,110,D,Raw,No,M,Ridvan Aliev,Ридван Алиев,1993-06-29,Pro Juniors 20-23,105,,,,,,,,,,,242.5,-252.5,257.5,,257.5,257.5
2,110,D,Raw,No,M,Sergey Tsirulnikov,Сергей Цирульников,1994-02-22,Pro Juniors 20-23,107.05,,,,,,,,,,,242.5,-252.5,-257.5,,242.5,242.5
1,110,D,Raw,No,M,Aleksey Kiselev,Алексей Киселев,1974-04-27,Pro Masters 40-49,106.6,,,,,,,,,,,262.5,-270,-270,,262.5,262.5
1,110,D,Raw,No,M,Renad Akhmetov,Ренад Ахметов,1961-05-20,Pro Open,110,,,,,,,,,,,310,320,330,,330,330
2,110,D,Raw,No,M,Ruben Odabashyan,Рубен Одабашян,1986-08-27,Pro Open,108.05,,,,,,,,,,,250,270,-280,,270,270
1,125,D,Raw,No,M,Ivan Regulyarnyy,Иван Регулярный,1984-11-27,Pro Open,111.05,,,,,,,,,,,-230,230,250,,250,250
DQ,125,D,Raw,No,M,Maksim Pogas,Максим Погас,1985-03-10,Pro Open,112.8,,,,,,,,,,,-310,-310,,,,
1,140,D,Raw,No,M,Denis Makeev #1,Денис Макеев,1983-04-22,Pro Open,129.75,,,,,,,,,,,280,300,310,,310,310
1,52,SBD,Wraps,No,F,Olga Mikhaylova,Ольга Михайлова,1971-12-14,Pro Open,51.95,-100,100,107.5,-113,107.5,62.5,67.5,-70,,67.5,155,162.5,-167.5,,162.5,337.5
1,56,SBD,Wraps,No,F,Inna Starun,Инна Старунь,1989-11-19,Pro Open,55.1,85,92.5,97.5,,97.5,52.5,57.5,60,,60,122.5,135,145,,145,302.5
1,67.5,SBD,Wraps,No,F,Olga Sudoseva,Ольга Судосьева,1966-08-02,Pro Open,67.5,107.5,115,-122.5,,115,62.5,67.5,-70,,67.5,-145,150,-162.5,,150,332.5
1,75,SBD,Wraps,No,F,Viktoriya Doga,Виктория Дога,1982-09-04,Pro Open,74.9,100,107.5,-110,,107.5,75,80,82.5,,82.5,155,162.5,170,,170,360
2,75,SBD,Wraps,No,F,Elina Chernina,Элина Чернина,1987-06-10,Pro Open,73.1,-75,75,80,,80,37.5,42.5,45,,45,-85,90,100,,100,225
1,56,SBD,Wraps,No,M,Nikolay Martyanov,Николай Мартьянов,1997-10-11,Pro Teen 16-17,56,110,-120,,,110,-70,70,-75,,70,130,-140,-140,,130,310
DQ,67.5,SBD,Wraps,No,M,Aleksandr Dambinov,Александр Дамбинов,1936-03-12,Pro Masters 70-79,65,-90,90,92.5,,92.5,62.5,-65,-65,,62.5,-160,-160,-160,,,
1,82.5,SBD,Wraps,No,M,Azamat Zhashuev,Азамат Жашуев,1994-05-06,Pro Juniors 20-23,79.8,-115,115,127.5,,127.5,110,-117.5,117.5,,117.5,160,-165,-165,,160,405
1,82.5,SBD,Wraps,No,M,Kaplan Tlevtsezhev,Каплан Тлевцежев,1956-02-13,Pro Masters 50-59,82,170,180,,,180,105,110,,,110,200,215,220,,220,510
DQ,82.5,SBD,Wraps,No,M,Vladimir Makovetskiy,Владимир Маковецкий,1953-02-27,Pro Masters 60-69,76.8,-160,-160,-160,171,,-90,,,,,-170,,,,,
1,82.5,SBD,Wraps,No,M,Rafael Buklov,Рафаэль Буклов,1985-07-18,Pro Open,82,190,205,215,,215,130,140,145,,145,200,210,220,,220,580
2,82.5,SBD,Wraps,No,M,Mikhail Tukmakov,Михаил Тукмаков,1990-02-04,Pro Open,80.6,-175,175,-185,,175,120,127.5,132.5,,132.5,200,217.5,230,,230,537.5
1,90,SBD,Wraps,No,M,Roman Luzhnetskiy,Роман Лужнецкий,1992-03-05,Pro Juniors 20-23,89.6,200,-215,215,,215,-165,165,170,,170,260,-275,-275,,260,645
1,90,SBD,Wraps,No,M,Mikhail Sizykh,Михаил Сизых,1962-06-17,Pro Masters 50-59,86.6,-100,-100,100,,100,110,115,-120,,115,130,155,-165,,155,370
1,90,SBD,Wraps,No,M,Soslan Eloev,Сослан Елоев,1988-03-02,Pro Open,86.95,180,190,-200,,190,120,130,-145,,130,190,200,210,,210,530
DQ,100,SBD,Wraps,No,M,Andrey Lopatko,Андрей Лопатко,1993-09-11,Pro Juniors 20-23,97.3,200,210,-220,,210,-160,-160,-160,,,-220,,,,,
1,100,SBD,Wraps,No,M,Evgeniy Dokumov,Евгений Докумов,1973-02-06,Pro Masters 40-49,94,210,220,230,,230,120,-130,,,120,220,240,250,,250,600
1,100,SBD,Wraps,No,M,Aslambek Abaev,Асламбек Абаев,1959-06-28,Pro Masters 50-59,99.1,265,285,-290,,285,200,210,215,,215,-250,250,270,,270,770
1,100,SBD,Wraps,No,M,Aslambek Abaev,Асламбек Абаев,1959-06-28,Pro Open,99.1,265,285,-290,,285,200,210,215,,215,-250,250,270,,270,770
2,100,SBD,Wraps,No,M,Evgeniy Blinkov,Евгений Блинков,1987-09-03,Pro Open,96.6,252.5,267.5,277.5,,277.5,-165,172.5,177.5,,177.5,285,300,-315,,300,755
3,100,SBD,Wraps,No,M,Evgeniy Lut,Евгений Лут,1986-12-17,Pro Open,96.25,170,180,-190,,180,120,130,135,,135,180,190,200,,200,515
1,110,SBD,Wraps,No,M,Vladislav Siyanovich,Владислав Сиянович,1972-04-20,Pro Masters 40-49,103.8,220,230,-240,,230,150,160,165,,165,240,250,255,,255,650
1,110,SBD,Wraps,No,M,Dmitriy Semenin,Дмитрий Семенин,1983-12-09,Pro Open,109.3,265,280,290,,290,190,210,-215,,210,290,300,-310,,300,800
2,110,SBD,Wraps,No,M,Renad Akhmetov,Ренад Ахметов,1961-05-20,Pro Open,110,230,240,250,,250,170,-180,,,170,310,320,330,,330,750
3,110,SBD,Wraps,No,M,Andrey Skvortsov,Андрей Скворцов,1977-11-25,Pro Open,110,240,252.5,-260,,252.5,225,230,-235,,230,250,260,,,260,742.5
4,110,SBD,Wraps,No,M,Denis Korobeynikov,Денис Коробейников,1990-04-16,Pro Open,101.15,240,-260,260,,260,170,-180,180,,180,260,275,285,,285,725
5,110,SBD,Wraps,No,M,Pavel Ivanilov,Павел Иванилов,1988-04-07,Pro Open,107.4,210,220,-230,,220,155,160,167.5,,167.5,220,240,250,,250,637.5
6,110,SBD,Wraps,No,M,Pavel Vysochin,Павел Высочин,1986-11-19,Pro Open,103.2,185,200,207.5,,207.5,152.5,162.5,170,,170,215,230,-242.5,,230,607.5
1,125,SBD,Wraps,No,M,Aleksandr Zaytsev,Александр Зайцев,1980-04-06,Pro Open,125,-310,310,-340,,310,220,-240,-240,,220,310,330,-340,,330,860
DQ,125,SBD,Wraps,No,M,Maksim Pogas,Максим Погас,1985-03-10,Pro Open,112.8,-300,-300,,,,-225,,,,,-310,,,,,
1,140,SBD,Wraps,No,M,Sergey Luchenkov,Сергей Лученков,1977-05-24,Pro Open,130,-270,270,-285,,270,220,230,235,,235,290,305,-312.5,,305,810
1,90,S,Multi-ply,Yes,M,Aleksey Zotov,Алексей Зотов,1986-07-05,Amateur Open,87,170,185,190,,190,,,,,,,,,,,190
1,75,D,Multi-ply,Yes,M,Sergey Alampiev,Сергей Алампиев,1957-04-07,Amateur Masters 50-59,72.75,,,,,,,,,,,180,200,,,200,200
1,82.5,D,Multi-ply,Yes,M,Artem Bykhovets,Артем Быховец,1983-07-19,Amateur Open,82.3,,,,,,,,,,,255,270,-280,,270,270
1,90,D,Multi-ply,Yes,M,Evgeniy Solovev,Евгений Соловьев,1988-09-20,Amateur Open,90,,,,,,,,,,,250,-260,260,,260,260
2,90,D,Multi-ply,Yes,M,Aleksey Zotov,Алексей Зотов,1986-07-05,Amateur Open,87,,,,,,,,,,,210,230,-235,,230,230
1,100,D,Multi-ply,Yes,M,Aleksandr Kalinin,Александр Калинин,1975-05-07,Amateur Open,99.9,,,,,,,,,,,230,245,-257.5,,245,245
1,67.5,SBD,Multi-ply,Yes,F,Lidiya Orudzhova,Лидия Оруджова,1995-07-15,Amateur Teen 18-19,65.6,-130,130,147.5,,147.5,92.5,100,107.5,,107.5,130,140,150,,150,405
1,90+,SBD,Multi-ply,Yes,F,Tatyana Ermakova,Татьяна Ермакова,1987-06-22,Amateur Open,104.7,-210,220,230,,230,120,130,,,130,175,186,-200,,186,546
1,75,SBD,Multi-ply,Yes,M,Sergey Alampiev,Сергей Алампиев,1957-04-07,Amateur Masters 50-59,72.75,180,200,,,200,95,105,110,,110,180,200,,,200,510
1,82.5,SBD,Multi-ply,Yes,M,Artem Bykhovets,Артем Быховец,1983-07-19,Amateur Open,82.3,270,-290,300.5,,300.5,190,200,210,,210,255,270,-280,,270,780.5
1,90,SBD,Multi-ply,Yes,M,Aleksey Safonov,Алексей Сафонов,1976-10-03,Amateur Open,85.15,305,325,335,,335,170,180,187.5,,187.5,225,255,265,,265,787.5
2,90,SBD,Multi-ply,Yes,M,Evgeniy Solovev,Евгений Соловьев,1988-09-20,Amateur Open,90,-290,290,-305,,290,180,-190,-190,,180,250,-260,260,,260,730
1,100,SBD,Multi-ply,Yes,M,Eldar Mammadov,Эльдар Маммадов,1978-08-14,Amateur Open,99.25,270,300,330,,330,230,-240,242.5,,242.5,270,290,305,,305,877.5
1,56,D,Multi-ply,No,F,Lidiya Sizova,Лидия Сизова,1989-10-23,Pro Open,56,,,,,,,,,,,80,90,100,,100,100
1,82.5,D,Multi-ply,No,F,Susana Sogomonyan,Сусана Согомонян,1985-12-27,Pro Open,81.25,,,,,,,,,,,150,-160,-160,,150,150
1,67.5,D,Multi-ply,No,M,Vladimir Afonin,Владимир Афонин,1945-06-09,Pro Masters 60-69,67.25,,,,,,,,,,,180,-190,,,180,180
1,67.5,D,Multi-ply,No,M,Aleksandr Dambinov,Александр Дамбинов,1936-03-12,Pro Masters 70-79,64.8,,,,,,,,,,,140,147.5,-150,,147.5,147.5
1,82.5,D,Multi-ply,No,M,Viktor Shmatkov,Виктор Шматков,1982-11-05,Pro Open,76.7,,,,,,,,,,,180,210,-232.5,,210,210
1,100,D,Multi-ply,No,M,Andrey Sizov,Андрей Сизов,1968-01-29,Pro Open,95.5,,,,,,,,,,,320,330,-350,,330,330
1,110,D,Multi-ply,No,M,Ruslan Minibaev,Руслан Минибаев,1985-02-21,Pro Open,101.85,,,,,,,,,,,310,-320,-320,,310,310
1,140+,D,Multi-ply,No,M,Igor Nastynov,Игорь Настынов,1961-03-14,Pro Open,141.8,,,,,,,,,,,-250,250,302.5,,302.5,302.5
1,52,SBD,Multi-ply,No,F,Anastasiya Ishchenko,Анастасия Ищенко,1995-07-29,Pro Teen 18-19,51.45,-75,75,-85,,75,42.5,45,-50,,45,85,90,95,,95,215
1,60,SBD,Multi-ply,No,F,Svetlana Dergaputskaya,Світлана Дергапутська,1978-10-31,Pro Open,59,-150,150,-160,,150,137.5,-140,-140,,137.5,140,150,-160,,150,437.5
1,60,SBD,Multi-ply,No,F,Tatyana Medvedeva,Татьяна Медведева,1995-06-12,Pro Teen 18-19,60,-75,75,85,,85,-35,35,-37.5,,35,70,-75,-75,,70,190
1,75,SBD,Multi-ply,No,F,Ekaterina Miroshnikova,Екатерина Мирошникова,1995-11-19,Pro Teen 18-19,70,90,100,-105,,100,40,42.5,-45,,42.5,85,-92.5,92.5,,92.5,235
1,67.5,SBD,Multi-ply,No,M,Vladimir Afonin,Владимир Афонин,1945-06-09,Pro Masters 60-69,67.25,130,140,-145,,140,110,115,,,115,180,-190,,,180,435
1,75,SBD,Multi-ply,No,M,Evgeniy Konnov,Евгений Коннов,1983-08-09,Pro Open,74.3,240,-250,-255,,240,160,-167.5,167.5,,167.5,222.5,232.5,-237.5,,232.5,640
1,82.5,SBD,Multi-ply,No,M,Vladimir Makovetskiy,Владимир Маковецкий,1953-02-27,Pro Masters 60-69,78,140,160,-175,,160,80,90,,,90,140,160,,,160,410
1,82.5,SBD,Multi-ply,No,M,Dmitriy Krutko,Дмитрий Крутько,1989-07-24,Pro Open,82.4,-280,280,-300,,280,-210,210,-215,,210,225,235,,,235,725
1,90,SBD,Multi-ply,No,M,Evgeniy Korotych,Евгений Коротыч,1977-08-16,Pro Open,85.75,-215,220,-230,,220,165,-175,175,,175,210,225,-232.5,,225,620
1,100,SBD,Multi-ply,No,M,Pavel Mitrofanov,Павел Митрофанов,1983-08-12,Pro Open,98.55,-340,-340,360,,360,230,250,260,,260,270,-290,290,,290,910
1,110,SBD,Multi-ply,No,M,Aleksandr Sykmenyov,Александр Сыкменёв,1978-06-24,Pro Open,110,-320,320,-340,,320,-330,-340,340,,340,270,-290,290,,290,950
2,110,SBD,Multi-ply,No,M,Ruslan Minibaev,Руслан Минибаев,1985-02-21,Pro Open,101.85,310,320,-332.5,,320,215,222.5,-230,,222.5,310,-320,-320,,310,852.5
1,125,SBD,Multi-ply,No,M,Aleksandr Mitrofanov,Александр Митрофанов,1985-12-29,Pro Open,114.9,-380,-380,380,,380,250,270,-280,,270,320,-340,-340,,320,970
1,140,SBD,Multi-ply,No,M,Denis Makeev #1,Денис Макеев,1983-04-22,Pro Open,129.75,235,250,260,,260,120,132.5,140,,140,100,155,,,155,555
1,67.5,S,Wraps,Yes,F,Tatiana Ukhlina,Татьяна Ухлина,1971-07-19,Amateur Masters 40-49,60.7,110,-117.5,-117.5,,110,,,,,,,,,,,110
1,67.5,S,Wraps,Yes,F,Tatiana Ukhlina,Татьяна Ухлина,1971-07-19,Amateur Open,60.7,110,-117.5,-117.5,,110,,,,,,,,,,,110
1,82.5,S,Wraps,Yes,M,Grigoriy Yudin,Григорий Юдин,1985-06-06,Amateur Open,80.9,200,210,217.5,,217.5,,,,,,,,,,,217.5
1,100,S,Wraps,Yes,M,Kyamran Ali-Zade,Кямран Али-Заде,1964-12-01,Amateur Masters 40-49,94.9,125,135,,,135,,,,,,,,,,,135
1,48,D,Raw,Yes,F,Yana Slyusareva,Яна Слюсарева,1988-12-19,Amateur Open,48,,,,,,,,,,,80,85,,,85,85
1,56,D,Raw,Yes,F,Veronika Liberman,Вероника Либерман,1986-07-30,Amateur Open,55.1,,,,,,,,,,,95,100,-107.5,,100,100
1,67.5,D,Raw,Yes,F,Tatiana Ukhlina,Татьяна Ухлина,1971-07-19,Amateur Masters 40-49,60.7,,,,,,,,,,,110,120,-125,,120,120
1,67.5,D,Raw,Yes,F,Tatiana Ukhlina,Татьяна Ухлина,1971-07-19,Amateur Open,60.7,,,,,,,,,,,110,120,-125,,120,120
1,75,D,Raw,Yes,F,Alesya Semenina,Алеся Семенина,1988-01-21,Amateur Open,68,,,,,,,,,,,80,90,-100,,90,90
1,44,D,Raw,Yes,M,Saveliy Kusmartsev,Савелий Кусмарцев,2001-12-24,Amateur Teen 13,39,,,,,,,,,,,80,85,90,,90,90
1,67.5,D,Raw,Yes,M,Ramazan Rakhimyanov,Рамазан Рахимьянов,2001-05-06,Amateur Teen 13,64.6,,,,,,,,,,,80,85,87.5,,87.5,87.5
1,82.5,D,Raw,Yes,M,Armen Khachaturyan,Армен Хачатурян,1978-07-18,Amateur Open,78.45,,,,,,,,,,,-190,190,200,,200,200
1,90,D,Raw,Yes,M,Aleksandr Sytnikov,Александр Сытников,1978-08-11,Amateur Open,89.2,,,,,,,,,,,215,-225,225,,225,225
1,100,D,Raw,Yes,M,Kyamran Ali-Zade,Кямран Али-Заде,1964-12-01,Amateur Masters 40-49,94.9,,,,,,,,,,,160,180,190,,190,190
1,100,D,Raw,Yes,M,Sergey Marchenko,Сергей Марченко,1959-06-29,Amateur Masters 50-59,98.3,,,,,,,,,,,185,-195,,,185,185
1,100,D,Raw,Yes,M,Sergey Litvinenko,Сергей Литвиненко,1979-12-21,Amateur Open,98.4,,,,,,,,,,,207.5,-235,-235,,207.5,207.5
1,110,D,Raw,Yes,M,Evgeniy Kochnev,Евгений Кочнев,1965-09-19,Amateur Masters 40-49,108.9,,,,,,,,,,,220,242.5,,,242.5,242.5
1,125,D,Raw,Yes,M,Aleksandr Vasilchenko,Александр Васильченко,1966-03-19,Amateur Masters 40-49,120.3,,,,,,,,,,,275,-287.5,-287.5,,275,275
1,125,D,Raw,Yes,M,Ivan Regulyarnyy,Иван Регулярный,1984-11-27,Amateur Open,112.35,,,,,,,,,,,225,252.5,-265,,252.5,252.5
1,140,D,Raw,Yes,M,Sergey Filin,Сергей Филин,1969-06-30,Amateur Masters 40-49,137,,,,,,,,,,,140,150,160,,160,160
1,44,SBD,Wraps,Yes,F,Anastasiya Filipskikh,Анастасия Филипских,1997-04-08,Amateur Teen 16-17,41.65,-50,50,-57.5,,50,25,30,,,30,55,62.5,67.5,,67.5,147.5
1,52,SBD,Wraps,Yes,F,Olga Mezhbert,Ольга Межберт,1984-05-17,Amateur Open,52,90,97.5,100,,100,52.5,57.5,60,,60,100,110,,,110,270
2,52,SBD,Wraps,Yes,F,Oksana Danilyuk,Оксана Данилюк,1979-08-29,Amateur Open,51.8,60,65,70,,70,35,-40,-40,,35,90,95,-100,,95,200
3,52,SBD,Wraps,Yes,F,Valentina Litvinenko,Валентина Литвиненко,1981-08-02,Amateur Open,50.2,50,57.5,-65,,57.5,30,35,-37.5,,35,77.5,90,-107.5,,90,182.5
1,56,SBD,Wraps,Yes,F,Darya Kosolapova,Дарья Косолапова,1993-02-10,Amateur Juniors 20-23,55.45,100,-107.5,-107.5,,100,70,75,77.5,,77.5,112.5,121,-122.5,,121,298.5
DQ,56,SBD,Wraps,Yes,F,Veronika Liberman,Вероника Либерман,1986-07-30,Amateur Open,55.1,-85,85,-90,,85,-50,-50,-50,,,-100,,,,,
1,60,SBD,Wraps,Yes,F,Viktoriya Kolva,Виктория Кольва,1993-12-10,Amateur Juniors 20-23,59.9,60,65,70,,70,50,-55,-55,,50,90,95,100,,100,220
2,60,SBD,Wraps,Yes,F,Anastasiya Aleksashina,Анастасия Алексашина,1993-02-01,Amateur Juniors 20-23,58.6,65,-75,-75,,65,42.5,47.5,50,,50,80,92.5,-105,,92.5,207.5
1,60,SBD,Wraps,Yes,F,Polina Turygina,Полина Турыгина,1985-10-19,Amateur Open,60,100,105,-110,,105,77.5,-82.5,-82.5,,77.5,110,120,125,,125,307.5
1,67.5,SBD,Wraps,Yes,F,Ulyana Osipova,Ульяна Осипова,1990-08-16,Amateur Juniors 20-23,65.8,90,95,-97.5,,95,70,75,-77.5,,75,110,120,-132.5,,120,290
1,67.5,SBD,Wraps,Yes,F,Tatiana Ukhlina,Татьяна Ухлина,1971-07-19,Amateur Masters 40-49,60.7,110,-117.5,-117.5,,110,50,60,-62.5,,60,110,120,-125,,120,290
1,67.5,SBD,Wraps,Yes,F,Nadezhda Marochkina,Надежда Марочкина,1957-02-07,Amateur Masters 50-59,63.35,70,75,80,,80,45,52.5,-60.5,,52.5,85,95,100,,100,232.5
1,67.5,SBD,Wraps,Yes,F,Yuliya Pilipchatina,Юлия Пилипчатина,1984-09-29,Amateur Open,67.4,110,120,-125,,120,55,60,65,,65,140,160,-170,,160,345
2,67.5,SBD,Wraps,Yes,F,Tatiana Ukhlina,Татьяна Ухлина,1971-07-19,Amateur Open,60.7,110,-117.5,-117.5,,110,50,60,-62.5,,60,110,120,-125,,120,290
1,75,SBD,Wraps,Yes,F,Olga Kazankova,Ольга Казанкова,1979-06-26,Amateur Open,72.6,130,140,145,148,145,90,92.5,95,,95,160,165,-170.5,,165,405
1,44,SBD,Wraps,Yes,M,Saveliy Kusmartsev,Савелий Кусмарцев,2001-12-24,Amateur Teen 13,39,42.5,47.5,52.5,,52.5,40,45,-47.5,,45,80,85,90,,90,187.5
1,60,SBD,Wraps,Yes,M,Artem Basistov,Артем Басистов,1997-09-09,Amateur Teen 16-17,59.1,80,90,100,,100,50,57.5,60,,60,100,110,120,,120,280
1,67.5,SBD,Wraps,Yes,M,Ivan Tashlykov,Иван Ташлыков,1997-06-03,Amateur Teen 16-17,61.75,80,90,-105,,90,80,92.5,97.5,,97.5,70,105,120,,120,307.5
1,75,SBD,Wraps,Yes,M,Nikita Paltsev,Никита Пальцев,1992-02-21,Amateur Juniors 20-23,69.95,160,175,-180,,175,100,115,122.5,,122.5,200,220,-225,,220,517.5
2,75,SBD,Wraps,Yes,M,Zakhar Kuimov,Захар Куимов,1993-04-04,Amateur Juniors 20-23,71.3,160,185,-195,,185,90,105,-117.5,,105,210,220,-235,,220,510
3,75,SBD,Wraps,Yes,M,Viktor Kurzenev,Виктор Курзенев,1993-07-23,Amateur Juniors 20-23,74,165,175,180,,180,117.5,122.5,-125,,122.5,185,-202.5,-205,,185,487.5
1,75,SBD,Wraps,Yes,M,Dmitriy Vasilvitskiy,Дмитрий Васильвицкий,1966-02-14,Amateur Masters 40-49,75,150,160,175,,175,140,150,-155,,150,190,200,205,,205,530
2,75,SBD,Wraps,Yes,M,Yuriy Shulga #2,Юрий Шульга,1965-05-07,Amateur Masters 40-49,73.9,150,160,170,,170,105,110,115,,115,160,170,-180,,170,455
1,75,SBD,Wraps,Yes,M,Sergey Alampiev,Сергей Алампиев,1957-04-07,Amateur Masters 50-59,71.55,145,155,165,,165,90,100,-105,,100,180,205,215,,215,480
1,75,SBD,Wraps,Yes,M,Vladislav Lukanin,Владислав Луканин,1984-10-28,Amateur Open,74.85,220,237.5,242.5,,242.5,120,125,-127.5,,125,220,230,,,230,597.5
2,75,SBD,Wraps,Yes,M,Roman Gostryy,Роман Гострый,1978-09-06,Amateur Open,73.2,180,200,210,,210,130,140,145,,145,210,-230,230,,230,585
3,75,SBD,Wraps,Yes,M,Dmitriy Vasilvitskiy,Дмитрий Васильвицкий,1966-02-14,Amateur Open,75,150,160,175,,175,140,150,-155,,150,190,200,205,,205,530
4,75,SBD,Wraps,Yes,M,Anton Sidorenko,Антон Сидоренко,1988-05-18,Amateur Open,74.9,170,180,-190,,180,120,125,-130,,125,190,205,210,,210,515
1,75,SBD,Wraps,Yes,M,Maksim Korobeynikov,Максим Коробейников,1996-12-08,Amateur Teen 16-17,75,160,170,180,,180,90,-100,-100,,90,-205,-215,215,220,215,485
2,75,SBD,Wraps,Yes,M,Georgiy Salnikov,Георгий Сальников,1996-07-30,Amateur Teen 16-17,70,125,145,-165,,145,80,-92.5,,,80,160,185,-200,,185,410
1,82.5,SBD,Wraps,Yes,M,Valeriy Korepanov,Валерий Корепанов,1966-10-17,Amateur Masters 40-49,79.1,-150,160,-170,,160,115,120,-125,,120,180,190,-200,,190,470
1,82.5,SBD,Wraps,Yes,M,Aleksey Krasnov,Алексей Краснов,1959-11-15,Amateur Masters 50-59,82.4,200,215,-225,,215,140,145,,,145,200,215,225,,225,585
1,82.5,SBD,Wraps,Yes,M,Denis Kormilov,Денис Кормилов,1976-09-15,Amateur Open,81.35,200,215,-220,,215,145,-150,-150,,145,235,247.5,-252.5,,247.5,607.5
2,82.5,SBD,Wraps,Yes,M,Vladimir Rybalko,Владимир Рыбалко,1987-05-04,Amateur Open,82.45,190,200,205,,205,155,162.5,-167.5,,162.5,230,240,-245,,240,607.5
3,82.5,SBD,Wraps,Yes,M,Grigoriy Yudin,Григорий Юдин,1985-06-06,Amateur Open,80.9,200,210,217.5,,217.5,130,140,-145,,140,185,200,-207.5,,200,557.5
1,82.5,SBD,Wraps,Yes,M,Eduard Titulenko,Эдуард Титуленко,1996-07-10,Amateur Teen 16-17,81.6,145,155,165,,165,140,145,150,,150,180,200,210,,210,525
1,82.5,SBD,Wraps,Yes,M,Denis Akhtariev,Денис Ахтариев,1994-06-24,Amateur Teen 18-19,79,175,-190,-195,,175,112.5,117.5,122.5,,122.5,170,185,-195,,185,482.5
1,90,SBD,Wraps,Yes,M,Boris Arlyukov,Борис Арлюков,1992-12-10,Amateur Juniors 20-23,89.6,150,170,180,,180,125,132.5,-137.5,,132.5,170,185,195,,195,507.5
1,90,SBD,Wraps,Yes,M,Yuriy Kulikov #1,Юрій Куліков,1959-08-01,Amateur Masters 50-59,89.85,-120,120,,,120,110,-120,120,,120,150,,,,150,390
1,90,SBD,Wraps,Yes,M,Vladimir Ivantsov,Владимир Иванцов,1985-04-23,Amateur Open,89.3,240,250,-253,,250,150,155,-160,,155,240,-250,,,240,645
1,90,SBD,Wraps,Yes,M,Nikita Pyatkus,Никита Пяткус,1997-07-02,Amateur Teen 16-17,89.45,-110,-110,110,,110,80,90,-95,,90,140,155,165,,165,365
1,90,SBD,Wraps,Yes,M,Roman Pokhvatko,Роман Похватько,1995-05-26,Amateur Teen 18-19,90,-200,200,-210,211,200,140,-145,145,,145,240,-250,-250,,240,585
1,100,SBD,Wraps,Yes,M,Zinoviy Kashuba,Зиновий Кашуба,1973-08-01,Amateur Masters 40-49,98.8,230,240,-250,,240,150,160,-165,,160,260,-270,-270,,260,660
2,100,SBD,Wraps,Yes,M,Kyamran Ali-Zade,Кямран Али-Заде,1964-12-01,Amateur Masters 40-49,94.9,125,135,,,135,120,125,130,,130,160,180,190,,190,455
1,100,SBD,Wraps,Yes,M,Viktor Pashaev,Виктор Пашаев,1957-01-22,Amateur Masters 50-59,98,170,-180,-185,,170,100,110,115,,115,185,195,205,,205,490
2,100,SBD,Wraps,Yes,M,Sergey Marchenko,Сергей Марченко,1959-06-29,Amateur Masters 50-59,98.3,140,155,165,,165,125,132.5,-135,,132.5,185,-195,,,185,482.5
1,100,SBD,Wraps,Yes,M,Oleg Zotov,Олег Зотов,1985-01-18,Amateur Open,98.8,150,-160,160,,160,140,-150,-150,,140,185,200,207.5,,207.5,507.5
1,100,SBD,Wraps,Yes,M,Valeriy Kirkin,Валерий Киркин,1995-08-25,Amateur Teen 18-19,93.85,190,200,-207.5,,200,140,145,150,,150,205,220,225,,225,575
2,100,SBD,Wraps,Yes,M,Anton Patrushev,Антон Патрушев,1995-08-12,Amateur Teen 18-19,96.9,-125,125,-170,,125,90,102.5,-110,,102.5,185,-205,,,185,412.5
1,110,SBD,Wraps,Yes,M,Konstantin Komelin,Константин Комелин,1986-03-31,Amateur Open,107.8,245,255,260,,260,145,155,165,,165,292.5,300,-305,,300,725
1,110,SBD,Wraps,Yes,M,Vitaliy Kruzhalkin,Виталий Кружалкин,1995-08-24,Amateur Teen 18-19,102.3,160,170,180,,180,110,125,-130,,125,200,-220,225,,225,530
1,125,SBD,Wraps,Yes,M,Sergey Golovkov,Сергей Головков,1980-11-22,Amateur Open,114.3,-200,200,210,,210,150,160,-170,,160,230,235,-240,,235,605
