Division,WeightClassKg,Place,Name,Team,BodyweightKg,Best3SquatKg,Best3BenchKg,Best3DeadliftKg,TotalKg,Equipment,Event,Sex
Boys,51.71,1,Miguel Hernandez,Emory Rains,51.62,140.61,83.91,147.42,371.95,Single-ply,SBD,M
Boys,51.71,2,Jesse Ortiz,Sulphur Springs,51.62,136.08,68.04,154.22,358.34,Single-ply,SBD,M
Boys,51.71,3,Justin Dowdy,Wills Point,48.35,113.4,70.31,124.74,308.44,Single-ply,SBD,M
Boys,55.79,4,Jose Guajardo,Greenville,51.94,102.06,70.31,120.2,292.57,Single-ply,SBD,M
Boys,55.79,5,Chris Polo,Bishop Lynch,51.89,106.59,43.09,124.74,274.42,Single-ply,SBD,M
Boys,51.71,6,Woodrow Strain,Kaufman,45.9,81.65,52.16,95.25,229.06,Single-ply,SBD,M
Boys,51.71,7,Dylan Simmons,Emory Rains,51.07,97.52,45.36,83.91,226.8,Single-ply,SBD,M
Boys,51.71,8,Ethan Hoops,Eustace,48.72,88.45,49.9,83.91,222.26,Single-ply,SBD,M
Boys,51.71,9,Colton Lewis,Lindale,48.81,77.11,54.43,81.65,213.19,Single-ply,SBD,M
Boys,55.79,1,Devon Harris,North Forney,55.79,170.1,108.86,181.44,460.4,Single-ply,SBD,M
Boys,55.79,2,Brandon Nettles,Texarkana Liberty-Eylau,55.43,142.88,99.79,124.74,367.41,Single-ply,SBD,M
Boys,55.79,3,Dillan Cromeens,Nevada Community,55.34,142.88,70.31,142.88,356.07,Single-ply,SBD,M
Boys,55.79,4,Ralph Bustos,Kaufman,54.88,145.15,79.38,124.74,349.27,Single-ply,SBD,M
Boys,55.79,5,Daniel Pena,Ferris,54.61,133.81,65.77,145.15,344.73,Single-ply,SBD,M
Boys,55.79,6,McKenzie Davis,Texarkana Liberty-Eylau,55.79,142.88,74.84,124.74,342.46,Single-ply,SBD,M
Boys,59.87,7,Dakota Patton,Sulphur Springs,55.88,124.74,61.23,136.08,322.05,Single-ply,SBD,M
Boys,55.79,8,Garrett Weems,Emory Rains,55.16,106.59,63.5,108.86,278.96,Single-ply,SBD,M
Boys,59.87,9,José Castillo #7,Bishop Lynch,55.88,108.86,56.7,108.86,274.42,Single-ply,SBD,M
Boys,55.79,10,Theo Serrano,Quinlan Ford,55.43,86.18,45.36,124.74,256.28,Single-ply,SBD,M
Boys,55.79,11,Joe Brockman,Bishop Lynch,54.79,90.72,45.36,102.06,238.14,Single-ply,SBD,M
Boys,59.87,1,Gashia Moua,Quinlan Ford,59.87,149.69,92.99,172.37,415.04,Single-ply,SBD,M
Boys,59.87,2,Luis Gamez,Sulphur Springs,56.97,147.42,90.72,158.76,396.89,Single-ply,SBD,M
Boys,59.87,3,Trey Russell,Eustace,58.88,131.54,88.45,149.69,369.68,Single-ply,SBD,M
Boys,59.87,4,Chase Arras,Texarkana Liberty-Eylau,59.69,142.88,77.11,145.15,365.14,Single-ply,SBD,M
Boys,59.87,5,Joseph Rico,Forney,58.15,138.35,83.91,136.08,358.34,Single-ply,SBD,M
Boys,59.87,6,Tyler Davis,Kaufman,59.24,136.08,74.84,133.81,344.73,Single-ply,SBD,M
Boys,59.87,7,Tyler Watson,Crandall,57.7,122.47,74.84,142.88,340.19,Single-ply,SBD,M
Boys,59.87,8,Jack Jones,Cumby,58.51,117.93,72.57,117.93,308.44,Single-ply,SBD,M
Boys,59.87,9,Sergio Camacho,Emory Rains,58.79,111.13,58.97,111.13,281.23,Single-ply,SBD,M
Boys,59.87,10,Trenton Worley,Emory Rains,58.97,106.59,70.31,104.33,281.23,Single-ply,SBD,M
Boys,59.87,11,Jacob Lopez,Ferris,56.88,102.06,58.97,111.13,272.16,Single-ply,SBD,M
Boys,67.13,DQ,Gilbert Torres,Forney,60.1,104.33,,,,Single-ply,SBD,M
Boys,67.13,1,Andres Sandoval,Ferris,65.95,174.63,129.27,183.7,487.61,Single-ply,SBD,M
Boys,67.13,2,Rod Howard,Texarkana Liberty-Eylau,63.59,170.1,111.13,181.44,462.66,Single-ply,SBD,M
Boys,67.13,3,Juan Mendez,Emory Rains,61.96,147.42,104.33,190.51,442.25,Single-ply,SBD,M
Boys,67.13,4,Nathan Evans,Lindale,65.05,142.88,83.91,172.37,399.16,Single-ply,SBD,M
Boys,67.13,5,Armahn Mathis,Carrollton Ranchview,66.41,142.88,88.45,147.42,378.75,Single-ply,SBD,M
Boys,67.13,6,Denton Bridges,Terrell,66.32,129.27,92.99,149.69,371.95,Single-ply,SBD,M
Boys,67.13,7,Charles William,Quinlan Ford,66.95,124.74,95.25,136.08,356.07,Single-ply,SBD,M
Boys,67.13,8,Tabari Hill,Texarkana Liberty-Eylau,61.51,133.81,72.57,147.42,353.8,Single-ply,SBD,M
Boys,67.13,9,Brayden Holley,Greenville,63.96,124.74,90.72,129.27,344.73,Single-ply,SBD,M
Boys,67.13,10,Dawonya Tucker,Terrell,63.96,115.67,72.57,154.22,342.46,Single-ply,SBD,M
Boys,67.13,11,Preston Peck,Bishop Lynch,65.05,127.01,77.11,127.01,331.12,Single-ply,SBD,M
Boys,67.13,12,Zach Smith #15,Nevada Community,65.77,124.74,65.77,140.61,331.12,Single-ply,SBD,M
Boys,67.13,13,Jorge Urteaga,Eustace,60.51,113.4,77.11,117.93,308.44,Single-ply,SBD,M
Boys,67.13,14,Casey Cranford,Wills Point,64.41,115.67,65.77,122.47,303.91,Single-ply,SBD,M
Boys,67.13,15,Tristen Levitsky,Quinlan Ford,63.78,111.13,54.43,111.13,276.69,Single-ply,SBD,M
Boys,67.13,DQ,Jacob Ghormley,Crandall,67.04,,,,,Single-ply,SBD,M
Boys,74.84,DQ,Gavin Kirkhart,Eustace,67.36,115.67,,,,Single-ply,SBD,M
Boys,67.13,DQ,Justin Griffin,Eustace,62.05,113.4,61.23,,,Single-ply,SBD,M
Boys,74.84,1,John Wrenn,Bishop Lynch,70.22,231.33,136.08,229.06,596.47,Single-ply,SBD,M
Boys,74.84,2,Jesse Hudson #1,Emory Rains,68.4,208.65,104.33,226.8,539.77,Single-ply,SBD,M
Boys,74.84,3,Christian Darter,Emory Rains,74.03,179.17,113.4,188.24,480.81,Single-ply,SBD,M
Boys,74.84,4,Tino Elias,Mineola,68.86,185.97,92.99,183.7,462.66,Single-ply,SBD,M
Boys,74.84,5,LaXavier Battee,Kaufman,73.12,170.1,99.79,167.83,437.72,Single-ply,SBD,M
Boys,74.84,6,Austin Coin,Crandall,71.76,156.49,92.99,183.7,433.18,Single-ply,SBD,M
Boys,74.84,7,Jacob Mitchell,Greenville,72.85,163.29,102.06,163.29,428.64,Single-ply,SBD,M
Boys,74.84,8,Justin Blackburn,Emory Rains,74.21,156.49,92.99,172.37,421.84,Single-ply,SBD,M
Boys,74.84,9,Jonny Parker,Wills Point,73.94,156.49,88.45,161.03,405.97,Single-ply,SBD,M
Boys,82.1,10,Ryan Robison,Lindale,75.07,163.29,90.72,151.95,405.97,Single-ply,SBD,M
Boys,74.84,11,Brett Mallon,Crandall,74.57,161.03,90.72,145.15,396.89,Single-ply,SBD,M
Boys,74.84,12,Colton Poyner,Wills Point,69.49,129.27,95.25,158.76,383.29,Single-ply,SBD,M
Boys,82.1,13,Ronnie Steed,Forney,74.93,117.93,95.25,158.76,371.95,Single-ply,SBD,M
Boys,74.84,14,Cyle Ferrell,Nevada Community,74.12,136.08,99.79,131.54,367.41,Single-ply,SBD,M
Boys,74.84,15,Alex Gamez,Sulphur Springs,74.66,147.42,72.57,147.42,367.41,Single-ply,SBD,M
Boys,74.84,16,Anfernee Harris,Wills Point,69.67,120.2,86.18,151.95,358.34,Single-ply,SBD,M
Boys,74.84,17,Justin DeLeon,Nevada Community,70.49,122.47,79.38,140.61,342.46,Single-ply,SBD,M
Boys,74.84,DQ,Brandon Barkowsky,Lindale,74.21,111.13,68.04,122.47,,Single-ply,SBD,M
Boys,82.1,DQ,Gavin Burl,Garland Sachse,75.02,151.95,,,,Single-ply,SBD,M
Boys,82.1,DQ,Brenden Blunt,Crandall,75.02,120.2,,,,Single-ply,SBD,M
Boys,82.1,1,Adam Galaz,Lindale,81.01,240.4,138.35,226.8,605.55,Single-ply,SBD,M
Boys,82.1,2,Gannon Brown,Emory Rains,79.2,201.85,142.88,238.14,582.87,Single-ply,SBD,M
Boys,82.1,3,Ace Clear,Bishop Lynch,76.11,231.33,120.2,215.46,566.99,Single-ply,SBD,M
Boys,82.1,4,Tay Roper,Forney,78.83,204.12,92.99,244.94,542.04,Single-ply,SBD,M
Boys,82.1,5,Dedric Smith,Sulphur Springs,80.29,192.78,120.2,215.46,528.44,Single-ply,SBD,M
Boys,82.1,6,Austin Musser,Mineola,81.47,210.92,113.4,192.78,517.1,Single-ply,SBD,M
Boys,82.1,7,Deontae Thornton,Texarkana Liberty-Eylau,78.38,188.24,120.2,172.37,480.81,Single-ply,SBD,M
Boys,89.81,8,Grant Russell,Emory Rains,82.33,158.76,120.2,201.85,480.81,Single-ply,SBD,M
Boys,82.1,9,Kendrick Blake,Texarkana Liberty-Eylau,81.74,183.7,77.11,204.12,464.93,Single-ply,SBD,M
Boys,82.1,10,Dalton Huelscher,Bishop Lynch,80.47,192.78,90.72,163.29,446.79,Single-ply,SBD,M
Boys,82.1,11,Dylan Jewell,Red Oak,81.28,165.56,99.79,170.1,435.45,Single-ply,SBD,M
Boys,82.1,12,Jacob Holley,Kaufman,78.47,140.61,115.67,174.63,430.91,Single-ply,SBD,M
Boys,82.1,13,Herlin James,Texarkana Liberty-Eylau,75.75,195.04,90.72,136.08,421.84,Single-ply,SBD,M
Boys,82.1,14,Claton Wyman,Lindale,78.11,151.95,90.72,167.83,410.5,Single-ply,SBD,M
Boys,82.1,15,Brandon Melton,Quinlan Ford,82.1,158.76,81.65,158.76,399.16,Single-ply,SBD,M
Boys,89.81,16,Cameron Wiser,Nevada Community,82.19,151.95,90.72,151.95,394.63,Single-ply,SBD,M
Boys,82.1,17,Jake Guercia,Forney,78.2,151.95,68.04,172.37,392.36,Single-ply,SBD,M
Boys,82.1,18,Mason Wood,Lindale,80.56,154.22,88.45,149.69,392.36,Single-ply,SBD,M
Boys,82.1,19,Jose Rios,Garland Sachse,77.38,136.08,104.33,149.69,390.09,Single-ply,SBD,M
Boys,82.1,20,Armando Cortes,Emory Rains,75.84,151.95,83.91,151.95,387.82,Single-ply,SBD,M
Boys,82.1,21,Remington Bater,Garland Sachse,78.74,108.86,113.4,149.69,371.95,Single-ply,SBD,M
Boys,82.1,22,Chase Pemberton,Wills Point,82.01,111.13,70.31,142.88,324.32,Single-ply,SBD,M
Boys,82.1,DQ,Jacob DeHart,Lindale,81.65,113.4,65.77,115.67,,Single-ply,SBD,M
Boys,82.1,DQ,Chase Houston,Lindale,79.83,142.88,79.38,151.95,,Single-ply,SBD,M
Boys,99.79,1,Colton Henderson,Terrell,90.04,213.19,145.15,213.19,571.53,Single-ply,SBD,M
Boys,89.81,2,Lapone Finley,North Forney,84.73,208.65,108.86,217.72,535.24,Single-ply,SBD,M
Boys,89.81,3,Fabi Molina,Lindale,88.45,188.24,117.93,204.12,510.29,Single-ply,SBD,M
Boys,89.81,4,Chase McDaniel,Quinlan Ford,89.27,210.92,111.13,183.7,505.76,Single-ply,SBD,M
Boys,89.81,5,Chance Hamilton,Greenville,87.09,170.1,113.4,197.31,480.81,Single-ply,SBD,M
Boys,89.81,6,Austin Cooper #4,Greenville,86.09,185.97,111.13,181.44,478.54,Single-ply,SBD,M
Boys,89.81,7,Santiago Flores,Forney,84.28,183.7,108.86,183.7,476.27,Single-ply,SBD,M
Boys,89.81,8,Derrick Alexander,Kaufman,84.46,158.76,88.45,154.22,401.43,Single-ply,SBD,M
Boys,89.81,9,Draylon Porter,Sulphur Springs,88.72,129.27,88.45,158.76,376.48,Single-ply,SBD,M
Boys,89.81,10,Brandon Foster,Sulphur Springs,86.91,136.08,90.72,129.27,356.07,Single-ply,SBD,M
Boys,89.81,11,Colten Sneed,Mineola,83.1,124.74,86.18,138.35,349.27,Single-ply,SBD,M
Boys,89.81,12,Jose Sorrono,Mineola,84.91,124.74,79.38,142.88,347,Single-ply,SBD,M
Boys,89.81,DQ,Diego Waddle,Red Oak,88,181.44,,,,Single-ply,SBD,M
Boys,89.81,DQ,Drew Coleman,Forney,85.18,124.74,,,,Single-ply,SBD,M
Boys,89.81,DQ,Cody Anderson,Cumby,85.37,172.37,,,,Single-ply,SBD,M
Boys,89.81,DQ,Eric Ramon,Bishop Lynch,87.54,192.78,,,,Single-ply,SBD,M
Boys,99.79,1,Terry Jackson,North Forney,99.7,226.8,149.69,217.72,594.21,Single-ply,SBD,M
Boys,99.79,2,William Wayne,Texarkana Liberty-Eylau,99.34,219.99,136.08,208.65,564.72,Single-ply,SBD,M
Boys,99.79,3,Delenis Garrett,Lindale,99.25,222.26,136.08,201.85,560.19,Single-ply,SBD,M
Boys,99.79,4,Mathew Sellers,Texarkana Liberty-Eylau,91.53,226.8,136.08,188.24,551.11,Single-ply,SBD,M
Boys,99.79,5,Braylon Champion,Greenville,94.8,185.97,124.74,226.8,537.51,Single-ply,SBD,M
Boys,109.77,6,Hunter Lord,Red Oak,99.97,181.44,138.35,192.78,512.56,Single-ply,SBD,M
Boys,99.79,7,Cipriano Gonzales,Greenville,92.8,195.04,138.35,176.9,510.29,Single-ply,SBD,M
Boys,99.79,8,Landon Wright,Lindale,99.34,192.78,111.13,199.58,503.49,Single-ply,SBD,M
Boys,99.79,9,Antonio Harris,Terrell,97.61,183.7,133.81,183.7,501.22,Single-ply,SBD,M
Boys,99.79,10,Dequan Washington,Carrollton Ranchview,99.61,183.7,129.27,179.17,492.15,Single-ply,SBD,M
Boys,99.79,11,Jonathan Dunson,Kaufman,90.54,195.04,127.01,165.56,487.61,Single-ply,SBD,M
Boys,99.79,12,Myles Morgan,Lindale,94.17,163.29,111.13,170.1,444.52,Single-ply,SBD,M
Boys,109.77,13,Weston Weitner,Red Oak,100.02,163.29,88.45,192.78,444.52,Single-ply,SBD,M
Boys,99.79,14,Elier Avila,Kaufman,93.71,199.58,104.33,138.35,442.25,Single-ply,SBD,M
Boys,99.79,15,Rickey Johnson,Texarkana Liberty-Eylau,93.62,183.7,97.52,154.22,435.45,Single-ply,SBD,M
Boys,99.79,16,Quadarion George,North Forney,91.99,167.83,102.06,158.76,428.64,Single-ply,SBD,M
Boys,99.79,17,Will Barnes,North Forney,96.16,176.9,99.79,138.35,415.04,Single-ply,SBD,M
Boys,99.79,18,Austin Kocian,Terrell,90.36,140.61,102.06,163.29,405.97,Single-ply,SBD,M
Boys,99.79,19,Lathan Fink,Terrell,94.8,142.88,99.79,158.76,401.43,Single-ply,SBD,M
Boys,99.79,20,Tyler Segrest,Lindale,91.81,165.56,79.38,149.69,394.63,Single-ply,SBD,M
Boys,99.79,21,Bryce Bodine,Garland Sachse,96.89,158.76,97.52,136.08,392.36,Single-ply,SBD,M
Boys,99.79,22,James Findley,Garland Sachse,94.71,142.88,111.13,129.27,383.29,Single-ply,SBD,M
Boys,99.79,23,Calder Mccarthy,Garland Sachse,98.16,142.88,83.91,124.74,351.53,Single-ply,SBD,M
Boys,99.79,24,Billy Pritchett,Quinlan Ford,95.25,83.91,45.36,104.33,233.6,Single-ply,SBD,M
Boys,99.79,DQ,Jacob Adams,Lindale,97.43,,,,,Single-ply,SBD,M
Boys,109.77,1,Morocco Arnold,Texarkana Liberty-Eylau,105.87,235.87,158.76,254.01,648.64,Single-ply,SBD,M
Boys,109.77,2,Stetson Farrell,Lindale,108.59,242.67,163.29,222.26,628.23,Single-ply,SBD,M
Boys,109.77,3,Jon Molina,Bishop Lynch,104.6,231.33,99.79,208.65,539.77,Single-ply,SBD,M
Boys,109.77,4,Brandon Saens,Red Oak,104.24,204.12,124.74,204.12,532.97,Single-ply,SBD,M
Boys,109.77,5,Julius Hall,Carrollton Ranchview,108.59,170.1,129.27,197.31,496.68,Single-ply,SBD,M
Boys,109.77,6,Bryce Ford,North Forney,103.15,190.51,106.59,197.31,494.42,Single-ply,SBD,M
Boys,109.77,7,James Evans,Cumby,104.6,197.31,122.47,174.63,494.42,Single-ply,SBD,M
Boys,109.77,8,Codey Huggins,Wills Point,107.14,195.04,102.06,188.24,485.34,Single-ply,SBD,M
Boys,109.77,9,Isaiah Alvarez,Lindale,103.87,195.04,104.33,172.37,471.74,Single-ply,SBD,M
Boys,109.77,10,Dj Blohm,Garland Sachse,105.69,167.83,124.74,172.37,464.93,Single-ply,SBD,M
Boys,109.77,11,Chris Garcia #9,Quinlan Ford,108.95,181.44,115.67,165.56,462.66,Single-ply,SBD,M
Boys,109.77,12,Chase Williams,Mineola,100.7,165.56,120.2,174.63,460.4,Single-ply,SBD,M
Boys,109.77,13,Josh Hurst,Mineola,105.51,188.24,92.99,179.17,460.4,Single-ply,SBD,M
Boys,109.77,14,Adam Lagunas,North Forney,107.86,188.24,90.72,176.9,455.86,Single-ply,SBD,M
Boys,109.77,15,Julian Abdallah,Carrollton Ranchview,109.41,170.1,111.13,174.63,455.86,Single-ply,SBD,M
Boys,109.77,16,Zach Spurgin,Greenville,103.33,172.37,111.13,167.83,451.32,Single-ply,SBD,M
Boys,109.77,17,Seth Harred,Sulphur Springs,106.87,174.63,111.13,158.76,444.52,Single-ply,SBD,M
Boys,109.77,18,Dylan Blizzard,Kaufman,105.69,167.83,90.72,163.29,421.84,Single-ply,SBD,M
Boys,109.77,19,Doug Attaway,Terrell,101.33,161.03,111.13,138.35,410.5,Single-ply,SBD,M
Boys,109.77,20,Jose Ramirez #6,Lindale,101.06,165.56,70.31,170.1,405.97,Single-ply,SBD,M
Boys,124.74,21,Ryan Warren,Wills Point,109.95,156.49,95.25,127.01,378.75,Single-ply,SBD,M
Boys,109.77,22,Taylor Hughes,Terrell,106.14,151.95,77.11,142.88,371.95,Single-ply,SBD,M
Boys,109.77,23,Cameron Fleming,Lindale,109.59,136.08,88.45,145.15,369.68,Single-ply,SBD,M
Boys,109.77,24,Layton Pace,Sulphur Springs,103.15,129.27,77.11,131.54,337.93,Single-ply,SBD,M
Boys,109.77,DQ,Luke Hooten,Emory Rains,109.77,,,,,Single-ply,SBD,M
Boys,109.77,DQ,Zach Gray,Wills Point,106.68,,,,,Single-ply,SBD,M
Boys,124.74,1,David Allen,Quinlan Ford,117.93,215.46,117.93,213.19,546.58,Single-ply,SBD,M
Boys,124.74,2,Dillon Stevens,Greenville,114.94,204.12,133.81,197.31,535.24,Single-ply,SBD,M
Boys,124.74,3,Nick Savala,Bishop Lynch,121.47,226.8,113.4,170.1,510.29,Single-ply,SBD,M
Boys,124.74,4,Alex Ellis #1,Garland Sachse,120.2,188.24,117.93,195.04,501.22,Single-ply,SBD,M
Boys,124.74,5,Glen Goode,Cumby,114.76,185.97,129.27,181.44,496.68,Single-ply,SBD,M
Boys,124.74,6,Mitchell Wheat,Greenville,121.11,195.04,127.01,174.63,496.68,Single-ply,SBD,M
Boys,124.74,7,Max DeLahoya,Lindale,111.4,176.9,108.86,176.9,462.66,Single-ply,SBD,M
Boys,124.74,8,Larry Counts,Kaufman,110.77,170.1,113.4,165.56,449.06,Single-ply,SBD,M
Boys,124.74,9,Brandon Glenn,Carrollton Ranchview,111.77,165.56,92.99,170.1,428.64,Single-ply,SBD,M
Boys,124.74,10,Randy Martinez,Red Oak,112.85,158.76,106.59,163.29,428.64,Single-ply,SBD,M
Boys,124.74,11,Nicholas Rodriguez,Kaufman,121.65,158.76,97.52,151.95,408.23,Single-ply,SBD,M
Boys,124.74,12,Wally Baker,Eustace,111.13,151.95,104.33,136.08,392.36,Single-ply,SBD,M
Boys,124.74,13,Rebel Venglarik,Carrollton Ranchview,121.11,124.74,95.25,133.81,353.8,Single-ply,SBD,M
Boys,124.74,14,Tristan Bennett,Carrollton Ranchview,111.58,120.2,83.91,136.08,340.19,Single-ply,SBD,M
Boys,124.74,15,CJ Mendoza #2,Carrollton Ranchview,111.58,102.06,74.84,117.93,294.84,Single-ply,SBD,M
Boys,124.74,16,Zach Watkins,Lindale,121.2,183.7,99.79,,283.5,Single-ply,SB,M
Boys,124.74,DQ,Terrance Walker,North Forney,123.83,226.8,145.15,,,Single-ply,SB,M
Boys,124.74,DQ,Levi Williams,Sulphur Springs,121.74,,,,,Single-ply,SB,M
Boys,124.74,DQ,Matt Price,Forney,123.56,,,,,Single-ply,SB,M
Boys,124.74,DQ,Clayton Arendson,Forney,116.12,181.44,,,,Single-ply,SB,M
Boys,124.74,DQ,AJ Roland,Garland Sachse,116.94,,,,,Single-ply,SB,M
Boys,124.74+,1,Michael Stiles,Lindale,135.53,247.21,163.29,240.4,650.91,Single-ply,SBD,M
Boys,124.74+,2,Vincent Wurst,Bishop Lynch,138.8,272.16,140.61,238.14,650.91,Single-ply,SBD,M
Boys,124.74+,3,Steven Patton,Red Oak,140.61,242.67,161.03,238.14,641.83,Single-ply,SBD,M
Boys,124.74+,4,Cameron Jones,Texarkana Liberty-Eylau,146.96,229.06,136.08,226.8,591.94,Single-ply,SBD,M
Boys,124.74+,5,Dj Williams,Lindale,128.28,215.46,140.61,224.53,580.6,Single-ply,SBD,M
Boys,124.74+,6,Andre McKissick,Crandall,136.53,215.46,138.35,226.8,580.6,Single-ply,SBD,M
Boys,124.74+,7,Jacob Reicherau,Crandall,144.7,208.65,104.33,199.58,512.56,Single-ply,SBD,M
Boys,124.74+,8,Felix Olvera,Ferris,130.18,204.12,97.52,197.31,498.95,Single-ply,SBD,M
Boys,124.74+,9,Josue Vargas,Ferris,155.13,226.8,99.79,170.1,496.68,Single-ply,SBD,M
Boys,124.74+,10,Ethan Thompson,Garland Sachse,138.71,183.7,108.86,181.44,474,Single-ply,SBD,M
Boys,124.74+,11,Jermaine Williams JR,North Forney,126.92,167.83,117.93,185.97,471.74,Single-ply,SBD,M
Boys,124.74+,12,Jesse Luna,Wills Point,147.05,206.38,99.79,158.76,464.93,Single-ply,SBD,M
Boys,124.74+,13,Eric Roberts,Terrell,125.92,190.51,113.4,158.76,462.66,Single-ply,SBD,M
Boys,124.74+,DQ,Chris Paul,Texarkana Liberty-Eylau,125.55,,,,,Single-ply,SBD,M
Boys,124.74+,DQ,Daniel Fethkenher,Forney,131.63,142.88,,,,Single-ply,SBD,M
Boys,124.74+,DQ,Rj Carranza,Nevada Community,129.27,183.7,,,,Single-ply,SBD,M
