Division,WeightClassKg,Place,Name,Team,BodyweightKg,Best3SquatKg,Best3BenchKg,Best3DeadliftKg,TotalKg,Equipment,Event,Sex,BirthDate
Boys,51.71,1,Erick Estrella,Brownsville Lopez,51.71,161.03,79.38,163.29,403.7,Single-ply,SBD,M,
Boys,51.71,2,Julio Velasco,Brownsville Lopez,44.09,61.23,49.9,95.25,206.38,Single-ply,SBD,M,
Boys,82.1,1,Andrew Rader,Brownsville Lopez,79.92,136.08,79.38,154.22,369.68,Single-ply,SBD,M,
Boys,82.1,2,Angel Escobedo,Brownsville Porter,80.29,129.27,97.52,140.61,367.41,Single-ply,SBD,M,
Boys,89.81,1,Omar Flores,Brownsville Porter,82.46,170.1,106.59,172.37,449.06,Single-ply,SBD,M,
Boys,89.81,2,Juan Zavala,Brownsville Porter,84.37,158.76,111.13,172.37,442.25,Single-ply,SBD,M,
Boys,89.81,3,Eric Machado,Brownsville Lopez,87.09,92.99,77.11,151.95,322.05,Single-ply,SBD,M,
Boys,99.79,1,Giovani Ahumada,Brownsville Porter,93.17,215.46,120.2,208.65,544.31,Single-ply,SBD,M,
Boys,99.79,2,Juan Rosendo,Brownsville Lopez,95.98,97.52,70.31,151.95,319.78,Single-ply,SBD,M,
Boys,99.79,3,Isaac Vasquez,Brownsville Lopez,98.79,81.65,61.23,108.86,251.74,Single-ply,SBD,M,
Boys,109.77,1,Omar Cervantes,Brownsville Lopez,104.24,183.7,102.06,165.56,451.32,Single-ply,SBD,M,
Boys,109.77,2,Octavio Mata,Brownsville Lopez,104.51,142.88,102.06,183.7,428.64,Single-ply,SBD,M,
Boys,109.77,3,Andrew Hernandez,Brownsville Lopez,105.14,113.4,70.31,151.95,335.66,Single-ply,SBD,M,
Boys,124.74,1,Arath De La Torre,Brownsville Porter,113.4,204.12,120.2,183.7,508.02,Single-ply,SBD,M,
Boys,124.74,2,Luis Garza,Brownsville Lopez,124.38,183.7,83.91,192.78,460.4,Single-ply,SBD,M,
Boys,124.74,3,Rey Rios,Brownsville Lopez,119.57,165.56,102.06,188.24,455.86,Single-ply,SBD,M,
Boys,139.71,1,Manuel Garcia,Brownsville Porter,126.19,254.01,154.22,204.12,612.35,Single-ply,SBD,M,
Boys,139.71,2,Victor Ramos,Brownsville Porter,131.27,192.78,147.42,226.8,566.99,Single-ply,SBD,M,
Boys,139.71,3,Diego Castillo,Brownsville Lopez,129.09,151.95,92.99,185.97,430.91,Single-ply,SBD,M,
Boys,139.71,4,Chris Morales,Brownsville Lopez,138.89,133.81,86.18,161.03,381.02,Single-ply,SBD,M,
