Division,WeightClassKg,Place,Name,Team,BodyweightKg,Best3SquatKg,Best3BenchKg,Best3DeadliftKg,TotalKg,Equipment,Event,Sex
Boys,51.71,1,Enoch Solis,Edinburg Economedes,48.72,188.24,108.86,172.37,469.47,Single-ply,SBD,M
Boys,51.71,2,John Ortega,Mercedes,51.17,174.63,102.06,176.9,453.59,Single-ply,SBD,M
Boys,51.71,3,Tristan Villareal,Donna North,50.71,145.15,83.91,156.49,385.55,Single-ply,SBD,M
Boys,51.71,4,Uziel Vasquez,Edinburg Idea College Prep,51.35,151.95,68.04,129.27,349.27,Single-ply,SBD,M
Boys,51.71,5,Aaron Morin,Edinburg North,49.9,104.33,58.97,142.88,306.17,Single-ply,SBD,M
Boys,55.79,1,Jose Soto,Edinburg Economedes,55.43,208.65,117.93,167.83,494.42,Single-ply,SBD,M
Boys,55.79,2,Joey Rodriguez,Edinburg Idea College Prep,54.07,204.12,83.91,179.17,467.2,Single-ply,SBD,M
Boys,55.79,3,Fabian Garica,Edinburg Idea College Prep,52.16,170.1,97.52,172.37,439.98,Single-ply,SBD,M
Boys,55.79,4,Mario Perez,Weslaco,55.79,176.9,99.79,158.76,435.45,Single-ply,SBD,M
Boys,55.79,5,Eric Camarillo,Edinburg Economedes,55.79,149.69,83.91,188.24,421.84,Single-ply,SBD,M
Boys,55.79,6,Fred Mares,Edinburg,55.16,154.22,86.18,174.63,415.04,Single-ply,SBD,M
Boys,55.79,7,Andy Oceguerra,Edcouch-Elsa,55.52,172.37,70.31,161.03,403.7,Single-ply,SBD,M
Boys,55.79,8,Samuel Gracia,Weslaco,54.98,136.08,81.65,140.61,358.34,Single-ply,SBD,M
Boys,55.79,9,Elijah Rodriguez,Hidalgo Early College,53.25,136.08,65.77,122.47,324.32,Single-ply,SBD,M
Boys,55.79,10,Ramiro Yanez,PSJA,54.79,127.01,65.77,131.54,324.32,Single-ply,SBD,M
Boys,55.79,11,David Garza,La Joya Juarez-Lincoln,53.43,113.4,68.04,129.27,310.71,Single-ply,SBD,M
Boys,55.79,DQ,Adrian Garcia,Edinburg Economedes,55.7,161.03,,,,Single-ply,SBD,M
Boys,59.87,1,Elijah Wheeler,Edinburg Quest College Prep,59.33,213.19,99.79,199.58,512.56,Single-ply,SBD,M
Boys,59.87,2,Fernando Martinez #2,Weslaco,59.87,210.92,102.06,185.97,498.95,Single-ply,SBD,M
Boys,59.87,3,Josh Gonzalez,Weslaco East,59.87,181.44,108.86,199.58,489.88,Single-ply,SBD,M
Boys,59.87,4,Justin Berner,Edinburg North,59.42,204.12,117.93,165.56,487.61,Single-ply,SBD,M
Boys,59.87,5,Aaron Lozano,Edinburg Quest College Prep,59.78,190.51,83.91,201.85,476.27,Single-ply,SBD,M
Boys,59.87,6,San Juan Rodriguez,Edcouch-Elsa,59.6,181.44,97.52,192.78,471.74,Single-ply,SBD,M
Boys,59.87,7,Julian Villanueva Villanueva,Donna North,59.87,181.44,95.25,192.78,469.47,Single-ply,SBD,M
Boys,59.87,8,Kevin Garcia,Edinburg Vela,59.33,170.1,97.52,161.03,428.64,Single-ply,SBD,M
Boys,59.87,9,Daniel Ochoa,Harlingen South,57.79,154.22,102.06,170.1,426.38,Single-ply,SBD,M
Boys,59.87,10,Juan Perez #6,Harlingen South,58.88,147.42,79.38,156.49,383.29,Single-ply,SBD,M
Boys,59.87,11,Robert Quintanilla,PSJA,59.87,163.29,77.11,142.88,383.29,Single-ply,SBD,M
Boys,59.87,12,Ramses Vasquez,Edinburg Idea College Prep,58.69,142.88,83.91,136.08,362.87,Single-ply,SBD,M
Boys,59.87,13,Zuriel Garcia,Pharr Valley View,58.6,122.47,81.65,142.88,347,Single-ply,SBD,M
Boys,59.87,14,Uriel Martinez,Edinburg North,59.87,131.54,83.91,127.01,342.46,Single-ply,SBD,M
Boys,59.87,15,Jose Garcia #9,Edinburg North,56.43,124.74,63.5,129.27,317.51,Single-ply,SBD,M
Boys,59.87,DQ,Kevin Marroquin,PSJA Southwest,58.06,167.83,,,,Single-ply,SBD,M
Boys,67.13,1,Leo Cuellar,Pharr Valley View,67.09,208.65,138.35,197.31,544.31,Single-ply,SBD,M
Boys,67.13,2,Eddie Luna,Mercedes,66.77,197.31,113.4,210.92,521.63,Single-ply,SBD,M
Boys,67.13,3,Tony Lopez Lopez,Donna North,67.13,190.51,117.93,208.65,517.1,Single-ply,SBD,M
Boys,67.13,4,Miguel Castillo,Edinburg Vela,67.13,185.97,115.67,188.24,489.88,Single-ply,SBD,M
Boys,67.13,5,Michael Garcia,Edinburg Vela,66.68,185.97,115.67,183.7,485.34,Single-ply,SBD,M
Boys,67.13,6,Dezi Saenz,Weslaco East,66.32,154.22,113.4,190.51,458.13,Single-ply,SBD,M
Boys,67.13,7,Robert Rivera,La Villa,67.13,201.85,88.45,163.29,453.59,Single-ply,SBD,M
Boys,67.13,8,Frank Mendoza,Mercedes,65.41,170.1,92.99,179.17,442.25,Single-ply,SBD,M
Boys,67.13,9,Jaryd Amaro,PSJA Memorial,62.14,167.83,86.18,163.29,417.3,Single-ply,SBD,M
Boys,67.13,10,Marco Esparza,Hidalgo Early College,66.41,170.1,99.79,145.15,415.04,Single-ply,SBD,M
Boys,67.13,11,Fidencio Ortega,La Joya Juarez-Lincoln,64.59,154.22,99.79,158.76,412.77,Single-ply,SBD,M
Boys,67.13,12,Jerry Reyes,La Villa,66.59,158.76,92.99,140.61,392.36,Single-ply,SBD,M
Boys,67.13,13,Diego Esquivel,La Feria,63.5,140.61,79.38,151.95,371.95,Single-ply,SBD,M
Boys,67.13,14,Joseph Cano,Monte Alto,65.59,142.88,81.65,147.42,371.95,Single-ply,SBD,M
Boys,67.13,15,Jacob Olivarez,PSJA Memorial,61.33,136.08,88.45,140.61,365.14,Single-ply,SBD,M
Boys,67.13,16,Nicolas Carpo,PSJA,66.41,145.15,88.45,129.27,362.87,Single-ply,SBD,M
Boys,67.13,17,Anthony Villarreal,Pharr Valley View,67.04,142.88,61.23,154.22,358.34,Single-ply,SBD,M
Boys,67.13,DQ,Carlos Coronado,Edinburg North,67.13,179.17,142.88,,,Single-ply,SBD,M
Boys,67.13,DQ,Joshua Martinez,Hidalgo Early College,64.32,176.9,104.33,,,Single-ply,SBD,M
Boys,67.13,DQ,Edgar Martinez #3,Edinburg Vela,64.95,219.99,122.47,,,Single-ply,SBD,M
Boys,67.13,DQ,Tony Anzaldua,Mercedes,66.5,156.49,,,,Single-ply,SBD,M
Boys,74.84,1,Andrew Solis,Edinburg Vela,74.39,235.87,149.69,210.92,596.47,Single-ply,SBD,M
Boys,74.84,2,Javier Pichardo,PSJA,74.84,226.8,131.54,231.33,589.67,Single-ply,SBD,M
Boys,74.84,3,Christian Avila,Weslaco East,72.85,231.33,120.2,233.6,585.13,Single-ply,SBD,M
Boys,74.84,4,Jesse Contreras,Edcouch-Elsa,74.66,219.99,102.06,206.38,528.44,Single-ply,SBD,M
Boys,74.84,5,Jose Guerra,Weslaco East,73.75,172.37,115.67,190.51,478.54,Single-ply,SBD,M
Boys,74.84,6,Leo Perez,Mission,68.58,165.56,92.99,185.97,444.52,Single-ply,SBD,M
Boys,74.84,7,Malachai Ortega,Edinburg North,73.39,161.03,92.99,176.9,430.91,Single-ply,SBD,M
Boys,74.84,8,Brandon Ramirez,Edinburg North,74.84,136.08,133.81,151.95,421.84,Single-ply,SBD,M
Boys,74.84,9,Bryan Ramirez,Edinburg North,71.3,154.22,83.91,172.37,410.5,Single-ply,SBD,M
Boys,74.84,10,Dorian Gonzalez,Edinburg Idea College Prep,70.94,156.49,86.18,154.22,396.89,Single-ply,SBD,M
Boys,74.84,11,Martin Vargas,Hidalgo Early College,70.03,149.69,95.25,149.69,394.63,Single-ply,SBD,M
Boys,74.84,12,Brandon London,Monte Alto,71.76,136.08,86.18,142.88,365.14,Single-ply,SBD,M
Boys,74.84,13,Enrique Garcia,Pharr Valley View,74.62,133.81,88.45,142.88,365.14,Single-ply,SBD,M
Boys,74.84,14,Evan Sanchez,La Feria,71.85,142.88,70.31,145.15,358.34,Single-ply,SBD,M
Boys,74.84,DQ,Jacob Martinez,Hidalgo Early College,71.49,,,,,Single-ply,SBD,M
Boys,74.84,DQ,Bobby Flores,Edinburg,74.3,,,,,Single-ply,SBD,M
Boys,74.84,DQ,Jesus Sepulveda,Edinburg Economedes,73.12,,,,,Single-ply,SBD,M
Boys,74.84,DQ,Omar Diaz,PSJA Memorial,74.3,213.19,161.03,,,Single-ply,SBD,M
Boys,74.84,DQ,Andrew Campos,PSJA,74.39,172.37,,,,Single-ply,SBD,M
Boys,74.84,DQ,Daniel Rosas,Pharr Valley View,74.34,,,,,Single-ply,SBD,M
Boys,74.84,DQ,Alex Benavides,Donna North,74.21,,,,,Single-ply,SBD,M
Boys,74.84,DQ,Angel Vasquez,Edinburg Vela,74.57,,,,,Single-ply,SBD,M
Boys,82.1,1,Imanol Ordonez,Weslaco East,81.92,260.82,188.24,285.76,734.82,Single-ply,SBD,M
Boys,82.1,2,Brandon Adame,Mercedes,80.47,231.33,129.27,226.8,587.4,Single-ply,SBD,M
Boys,82.1,3,Avishai Dickerson,La Feria,81.92,229.06,131.54,219.99,580.6,Single-ply,SBD,M
Boys,82.1,4,Tony Gil,Edcouch-Elsa,82.1,231.33,145.15,204.12,580.6,Single-ply,SBD,M
Boys,82.1,5,Erik Guzman,La Joya Juarez-Lincoln,81.83,222.26,124.74,210.92,557.92,Single-ply,SBD,M
Boys,82.1,6,Noah Martinez #4,Edinburg,82.1,231.33,120.2,199.58,551.11,Single-ply,SBD,M
Boys,82.1,7,Charles Juarez,Weslaco,81.74,213.19,117.93,208.65,539.77,Single-ply,SBD,M
Boys,82.1,8,Felipe Ortega,La Villa,82.1,222.26,120.2,195.04,537.51,Single-ply,SBD,M
Boys,82.1,9,Martin Rabanales,Edinburg Quest College Prep,81.74,213.19,108.86,179.17,501.22,Single-ply,SBD,M
Boys,82.1,10,Robert Ortiz,Edinburg North,82.1,172.37,108.86,185.97,467.2,Single-ply,SBD,M
Boys,82.1,11,Leonardo Salazar,Monte Alto,80.1,154.22,106.59,181.44,442.25,Single-ply,SBD,M
Boys,82.1,12,Michael Zamora,Pharr Valley View,78.79,163.29,83.91,190.51,437.72,Single-ply,SBD,M
Boys,82.1,13,Emiliano Sanchez,Edinburg Idea College Prep,76.02,165.56,97.52,165.56,428.64,Single-ply,SBD,M
Boys,82.1,14,Mario Sigala,PSJA,80.29,151.95,97.52,151.95,401.43,Single-ply,SBD,M
Boys,82.1,DQ,Larry Stickland,Weslaco,81.28,,,,,Single-ply,SBD,M
Boys,89.81,1,Mario Reyna,Edinburg Economedes,89.54,283.5,181.44,249.48,714.41,Single-ply,SBD,M
Boys,89.81,2,Jose Guzman,Donna,89.45,281.23,158.76,254.01,694,Single-ply,SBD,M
Boys,89.81,3,Simon Fernandez,Pharr Valley View,89.09,260.82,149.69,238.14,648.64,Single-ply,SBD,M
Boys,89.81,4,Isaac de Anda,Edcouch-Elsa,88.72,249.48,124.74,233.6,607.81,Single-ply,SBD,M
Boys,89.81,5,Jose Flores #5,Pharr Valley View,87.91,215.46,113.4,215.46,544.31,Single-ply,SBD,M
Boys,89.81,6,Vince Rodea,Harlingen South,87,179.17,111.13,181.44,471.74,Single-ply,SBD,M
Boys,89.81,7,Aja Hernandez,La Feria,89.36,158.76,111.13,197.31,467.2,Single-ply,SBD,M
Boys,89.81,8,Isaiah Cepeda,Edinburg North,86.55,158.76,106.59,131.54,396.89,Single-ply,SBD,M
Boys,89.81,DQ,Davin Pollard,PSJA Memorial,88.18,167.83,86.18,,,Single-ply,SBD,M
Boys,89.81,DQ,Fred Cardenas,Weslaco East,88.81,267.62,170.1,,,Single-ply,SBD,M
Boys,89.81,DQ,Nathan Morales,La Feria,89.72,170.1,117.93,,,Single-ply,SBD,M
Boys,99.79,1,Frank Coronado,Edinburg,98.16,231.33,147.42,240.4,619.15,Single-ply,SBD,M
Boys,99.79,2,Matt Vela,Weslaco East,90.72,240.4,145.15,231.33,616.89,Single-ply,SBD,M
Boys,99.79,3,Antonio Banda,Donna,98.34,254.01,149.69,199.58,603.28,Single-ply,SBD,M
Boys,99.79,4,Fabian Ahumada,Mission,98.88,233.6,131.54,233.6,598.74,Single-ply,SBD,M
Boys,99.79,5,Eric Gutierrez,Mission,93.17,242.67,147.42,204.12,594.21,Single-ply,SBD,M
Boys,99.79,6,Juan Mendoza,Edinburg,99.34,233.6,142.88,204.12,580.6,Single-ply,SBD,M
Boys,99.79,7,Dustin Earhart,Hidalgo Early College,97.34,238.14,122.47,197.31,557.92,Single-ply,SBD,M
Boys,99.79,8,Robert Grimaldo,PSJA,93.44,229.06,124.74,197.31,551.11,Single-ply,SBD,M
Boys,99.79,9,Alvaro Ramirez,La Joya Juarez-Lincoln,96.43,201.85,124.74,188.24,514.83,Single-ply,SBD,M
Boys,99.79,10,Victor Martinez,PSJA Memorial,99.79,206.38,102.06,199.58,508.02,Single-ply,SBD,M
Boys,99.79,11,Noe Castillo,Weslaco East,97.98,197.31,124.74,172.37,494.42,Single-ply,SBD,M
Boys,99.79,12,Alejandro De La Cruz,Hidalgo Early College,90.17,154.22,90.72,136.08,381.02,Single-ply,SBD,M
Boys,99.79,13,Gilberto Camacho,La Feria,98.43,142.88,77.11,151.95,371.95,Single-ply,SBD,M
Boys,99.79,14,Roan Galvan,Mercedes,93.71,226.8,111.13,,337.93,Single-ply,SB,M
Boys,99.79,15,Bryan Rosales,Mission,94.62,204.12,129.27,,333.39,Single-ply,SB,M
Boys,99.79,DQ,Aj Flores,Mission,92.35,208.65,124.74,,,Single-ply,SB,M
Boys,99.79,DQ,Justin Valdez,Edinburg Vela,91.81,251.74,,,,Single-ply,SB,M
Boys,99.79,DQ,Tony Gandaria,Donna North,96.34,263.08,156.49,,,Single-ply,SB,M
Boys,99.79,DQ,Jordan Vasquez,Hidalgo Early College,96.16,213.19,,,,Single-ply,SB,M
Boys,99.79,DQ,Rogelio Rada,Donna,98.25,,,,,Single-ply,SB,M
Boys,109.77,1,Jacob Banda,Weslaco East,107.77,294.84,190.51,299.37,784.71,Single-ply,SBD,M
Boys,109.77,2,Juan Flores,PSJA,101.15,306.17,192.78,267.62,766.57,Single-ply,SBD,M
Boys,109.77,3,Lazaro Patlan,Edinburg,105.6,294.84,185.97,244.94,725.75,Single-ply,SBD,M
Boys,109.77,4,Enrique Guajardo,Pharr Valley View,109.72,272.16,151.95,254.01,678.12,Single-ply,SBD,M
Boys,109.77,5,Matthew Alfaro,Edinburg Economedes,107.77,272.16,161.03,242.67,675.85,Single-ply,SBD,M
Boys,109.77,6,Joey Ramirez,La Villa,108.41,285.76,183.7,199.58,669.05,Single-ply,SBD,M
Boys,109.77,7,Ramon Cuellar,Pharr Valley View,106.59,272.16,156.49,215.46,644.1,Single-ply,SBD,M
Boys,109.77,8,Angel Guiterrez,Pharr Valley View,109.45,249.48,154.22,222.26,625.96,Single-ply,SBD,M
Boys,109.77,9,Roland Morales,Weslaco,107.86,258.55,154.22,208.65,621.42,Single-ply,SBD,M
Boys,109.77,10,Eziquiel Garcia,La Joya Juarez-Lincoln,102.42,229.06,145.15,204.12,578.33,Single-ply,SBD,M
Boys,109.77,11,Jareh Gonzalez,Hidalgo Early College,105.69,238.14,138.35,199.58,576.06,Single-ply,SBD,M
Boys,109.77,12,Angel Pulido,Hidalgo Early College,107.14,247.21,145.15,183.7,576.06,Single-ply,SBD,M
Boys,109.77,13,Manny Castillo,PSJA,109.32,242.67,131.54,183.7,557.92,Single-ply,SBD,M
Boys,109.77,14,Christian Hernandez,La Joya Juarez-Lincoln,105.87,226.8,113.4,204.12,544.31,Single-ply,SBD,M
Boys,109.77,15,Tony Marroquin,La Feria,106.32,208.65,111.13,199.58,519.36,Single-ply,SBD,M
Boys,109.77,16,Carlos Olmedo,Mercedes,102.15,201.85,106.59,206.38,514.83,Single-ply,SBD,M
Boys,109.77,17,Saturnino Cantu,La Feria,109.32,183.7,120.2,167.83,471.74,Single-ply,SBD,M
Boys,109.77,DQ,Pablo Rodriguez,Edinburg North,107.95,263.08,154.22,,,Single-ply,SBD,M
Boys,109.77,DQ,Luis Trevino,Edinburg,109.5,,,,,Single-ply,SBD,M
Boys,109.77,DQ,Shayne Sanchez,Edinburg,108.41,,,,,Single-ply,SBD,M
Boys,124.74,1,Isai Martinez,Weslaco East,123.29,283.5,201.85,249.48,734.82,Single-ply,SBD,M
Boys,124.74,2,Raul Martinez,Weslaco,122.74,265.35,163.29,226.8,655.44,Single-ply,SBD,M
Boys,124.74,3,Joshua Sanchez,PSJA,119.11,263.08,145.15,213.19,621.42,Single-ply,SBD,M
Boys,124.74,4,Israel Moncivais,La Joya Juarez-Lincoln,118.3,240.4,142.88,229.06,612.35,Single-ply,SBD,M
Boys,124.74,5,Robert Garza,PSJA,116.03,254.01,145.15,206.38,605.55,Single-ply,SBD,M
Boys,124.74,6,Esia Reyes,La Feria,116.75,229.06,138.35,210.92,578.33,Single-ply,SBD,M
Boys,124.74,7,Aaron Noriega,PSJA,119.48,226.8,142.88,192.78,562.45,Single-ply,SBD,M
Boys,124.74,8,Ryan Garcia,Edinburg Idea College Prep,121.74,226.8,102.06,210.92,539.77,Single-ply,SBD,M
Boys,124.74,DQ,Antonio Mujica,Edinburg Economedes,118.93,,,,,Single-ply,SBD,M
Boys,124.74,DQ,Kevin Lopez,PSJA Memorial,118.3,265.35,,,,Single-ply,SBD,M
Boys,124.74+,1,Zack Clemmons,Mission,130.45,281.23,179.17,260.82,721.21,Single-ply,SBD,M
Boys,124.74+,2,Jason Vasquez,Edcouch-Elsa,128,272.16,136.08,226.8,635.03,Single-ply,SBD,M
Boys,124.74+,3,Triston Rosales,La Feria,127.28,274.42,129.27,195.04,598.74,Single-ply,SBD,M
Boys,124.74+,4,Juan Mendoza,Harlingen South,147.96,233.6,129.27,224.53,587.4,Single-ply,SBD,M
Boys,124.74+,5,Genaro Paez,Edinburg,167.38,197.31,156.49,217.72,571.53,Single-ply,SBD,M
Boys,124.74+,6,Jose Martinez,PSJA Memorial,142.07,195.04,136.08,195.04,526.17,Single-ply,SBD,M
Boys,124.74+,7,Juan Villagomez,La Joya Juarez-Lincoln,132.09,197.31,142.88,183.7,523.9,Single-ply,SBD,M
Boys,124.74+,DQ,David Garza,Hidalgo Early College,142.7,224.53,92.99,,,Single-ply,SBD,M
Boys,124.74+,DQ,Jose Tovar,PSJA Memorial,128.37,,,,,Single-ply,SBD,M
Boys,124.74+,DQ,David Garza,Edinburg Vela,129.82,,,,,Single-ply,SBD,M
Boys,,NS,Jonathan Navarro,Edinburg Vela,,,,,,Single-ply,SBD,M
Boys,,NS,Aaron Alvarez,Edinburg Vela,,,,,,Single-ply,SBD,M
Boys,,NS,Imanol Rocha,Edinburg Vela,,,,,,Single-ply,SBD,M
Boys,,NS,Meshach Vasquez,Mercedes,,,,,,Single-ply,SBD,M
Boys,,NS,Marck Placencia,PSJA Memorial,,,,,,Single-ply,SBD,M
Boys,,NS,Elian Padilla,La Joya Juarez-Lincoln,,,,,,Single-ply,SBD,M
Boys,,NS,JR Salinas,Mercedes,,,,,,Single-ply,SBD,M
Boys,,NS,Juan Alvarado,Mercedes,,,,,,Single-ply,SBD,M
Boys,,NS,Andrew Nevarez,Edinburg Idea College Prep,,,,,,Single-ply,SBD,M
Boys,,NS,Erik Flores,La Joya Juarez-Lincoln,,,,,,Single-ply,SBD,M
Boys,,NS,Osiel Alonso,La Joya Juarez-Lincoln,,,,,,Single-ply,SBD,M
Boys,,NS,Saul Hernandez,Hidalgo Early College,,,,,,Single-ply,SBD,M
Boys,,NS,AJ Trevino,Edinburg,,,,,,Single-ply,SBD,M
Boys,,NS,Shayne Hernandez,Edinburg,,,,,,Single-ply,SBD,M
Boys,,NS,Marcelo Reyes,Weslaco,,,,,,Single-ply,SBD,M
Boys,,NS,Andrew Ott,Harlingen South,,,,,,Single-ply,SBD,M
Boys,,NS,Ben Ruiz,Harlingen South,,,,,,Single-ply,SBD,M
Boys,,NS,Carlos Torres,La Feria,,,,,,Single-ply,SBD,M
Boys,,NS,Carlos Olivo,Edinburg North,,,,,,Single-ply,SBD,M
Boys,,NS,Gonzalo Perez,Mission,,,,,,Single-ply,SBD,M
Boys,,NS,Adrian Villeagas,Mission,,,,,,Single-ply,SBD,M
Boys,,NS,Omar Orzonio,Mission,,,,,,Single-ply,SBD,M
Boys,,NS,Issac Rangel,Donna,,,,,,Single-ply,SBD,M
Boys,,NS,Carlos Pineda,Donna,,,,,,Single-ply,SBD,M
Boys,,NS,Miguel Rendon,Mission,,,,,,Single-ply,SBD,M
Boys,,NS,Christopher Rivera,Weslaco East,,,,,,Single-ply,SBD,M
