Name,Team,Division,BodyweightKg,WeightClassKg,Best3SquatKg,Best3BenchKg,Best3DeadliftKg,TotalKg,Place,Sex,Equipment,Event
Monika Laskowska,DSC,F-O,51.2,52,67.5,40,87.5,195,1,F,Raw,SBD
Trisha O'Dowd,PPA,F-O,52,52,52.5,37.5,80,170,2,F,Raw,SBD
Sarah Scallan,SDS,F-O,56.1,57,100,62.5,130,292.5,1,F,Raw,SBD
Clare O'Donoghue,PPA,F-O,57,57,92.5,50,112.5,255,2,F,Raw,SBD
April Dardis,APC,F-O,56.2,57,85,47.5,110,242.5,3,F,Raw,SBD
Martina Hanniffy,APC,F-O,53.4,57,77.5,37.5,90,205,4,F,Raw,SBD
Laura Hanley,KJS,F-O,62.7,63,107.5,55,140,302.5,1,F,Raw,SBD
Dawn Murphy O'Shea,PPA,F-O,61.7,63,112.5,45,140,297.5,2,F,Raw,SBD
Tara Maguire,,F-O,61.8,63,115,57.5,125,297.5,3,F,Raw,SBD
Joanne Gibbons,APC,F-O,62.3,63,97.5,47.5,117.5,262.5,4,F,Raw,SBD
Tracey Fitzmaurice,DSC,F-O,61.7,63,90,52.5,117.5,260,5,F,Raw,SBD
Eva Lomasney,ST1,F-O,63,63,85,47.5,115,247.5,6,F,Raw,SBD
Lisa Towell,ST1,F-O,62.7,63,85,47.5,110,242.5,7,F,Raw,SBD
Emma Keyes,ST1,F-O,61.6,63,90,42.5,102.5,235,8,F,Raw,SBD
Laura Cooley,REV,F-O,58.3,63,77.5,50,95,222.5,9,F,Raw,SBD
Cliona Wrenne,WFC,F-O,61.7,63,70,40,110,220,10,F,Raw,SBD
Rachel Knight #1,REV,F-O,62,63,75,45,97.5,217.5,11,F,Raw,SBD
Amanda Dunlea,KJS,F-O,60.6,63,62.5,35,100,197.5,12,F,Raw,SBD
Eleanor McShortall,PBD,F-O,70,72,105,62.5,125,292.5,1,F,Raw,SBD
Joanne Greene,APC,F-O,70.9,72,105,60,125,290,2,F,Raw,SBD
Rachel Cassidy,KJS,F-O,69.6,72,90,47.5,130,267.5,3,F,Raw,SBD
Amy O'Gara,REV,F-O,70,72,87.5,50,127.5,265,4,F,Raw,SBD
Sinead Vallely,WFC,F-O,68.8,72,75,55,127.5,257.5,5,F,Raw,SBD
Ciara Reynolds,REV,F-O,71.2,72,87.5,50,105,242.5,6,F,Raw,SBD
Aoife O'Leary,,F-O,83,84,150,50,180,380,1,F,Raw,SBD
Nicole Craig,KJS,F-O,82.2,84,120,62.5,162.5,345,2,F,Raw,SBD
Mairead O'Sullivan,,F-O,79.5,84,115,40,142.5,297.5,3,F,Raw,SBD
Amy Hughes #1,REV,F-O,81.2,84,92.5,52.5,130,275,4,F,Raw,SBD
Sophie Renshaw,,F-O,79.1,84,90,55,127.5,272.5,5,F,Raw,SBD
Laura Bray,DSC,F-O,82.5,84,100,50,115,265,6,F,Raw,SBD
Rebecca Kidney,KJS,F-O,74.2,84,75,35,110,220,7,F,Raw,SBD
Urszula Pfister,PPA,F-O,83.9,84,70,50,100,220,8,F,Raw,SBD
Heather Thompson,,F-O,94.3,84+,130,62.5,135,327.5,1,F,Raw,SBD
Tracey Kelly,UCC,F-O,101.2,84+,110,55,142.5,307.5,2,F,Raw,SBD
Miranda Connolly,APC,F-O,121.1,84+,110,82.5,115,307.5,3,F,Raw,SBD
Aisling Fahy,,F-O,101.7,84+,100,60,135,295,4,F,Raw,SBD
Sarah Hayden,REV,F-G,57.8,63,82.5,47.5,115,245,G,F,Raw,SBD
Elaine O'Sullivan,,F-G,67.6,72,40,45,97.5,182.5,G,F,Raw,SBD
Nicola Cogley,KAI,F-G,75,84,77.5,45,92.5,215,G,F,Raw,SBD
Megan Dunlea-O'Brien,KJS,F-G,94.5,84+,105,45,125,275,G,F,Raw,SBD
Jason Finan,SDS,M-O,72.9,74,167.5,112.5,205,485,1,M,Raw,SBD
Colm Curley,,M-O,71.9,74,180,90,200,470,2,M,Raw,SBD
JP McGowan,REV,M-O,72.6,74,160,90,200,450,3,M,Raw,SBD
Jared O'Sullivan,PPA,M-O,71.6,74,135,107.5,152.5,395,4,M,Raw,SBD
Jack Noone,,M-O,72.8,74,127.5,75,147.5,350,5,M,Raw,SBD
James Moran,KJS,M-O,72.6,74,95,70,135,300,6,M,Raw,SBD
John Maher,,M-O,82.7,83,235,145,277.5,657.5,1,M,Raw,SBD
Darragh Mulcahy,CGL,M-O,82.3,83,210,140,250,600,2,M,Raw,SBD
Alan Flanagan,,M-O,82.8,83,182.5,127.5,247.5,557.5,3,M,Raw,SBD
Ian Wafer,REV,M-O,81.4,83,190,112.5,240,542.5,4,M,Raw,SBD
Eoin Jefferies,UCC,M-O,78.7,83,180,122.5,215,517.5,5,M,Raw,SBD
Farzad Azizi,APC,M-O,81.1,83,162.5,130,190,482.5,6,M,Raw,SBD
Brian McIntyre,EST,M-O,80.7,83,160,95,222.5,477.5,7,M,Raw,SBD
Adrian Mullins,REV,M-O,79.6,83,117.5,87.5,190,395,8,M,Raw,SBD
Mark O'Sullivan,KJS,M-O,80.6,83,135,75,175,385,9,M,Raw,SBD
Eric Killeen,REV,M-O,79.8,83,127.5,95,160,382.5,10,M,Raw,SBD
Mark Dowling #1,TGL,M-O,90.8,93,240,132.5,265,637.5,1,M,Raw,SBD
Ian Benson,ST1,M-O,92.3,93,220,137.5,260,617.5,2,M,Raw,SBD
Dan Hurley,UCC,M-O,89.7,93,210,122.5,260,592.5,3,M,Raw,SBD
Brian Madden,UCC,M-O,90.5,93,202.5,112.5,265,580,4,M,Raw,SBD
Jack Thornton,CGL,M-O,91.8,93,205,122.5,250,577.5,5,M,Raw,SBD
Michael Grace,CGL,M-O,91.1,93,190,130,230,550,6,M,Raw,SBD
James Lynch,CGL,M-O,87.7,93,200,120,220,540,7,M,Raw,SBD
Richie Maher,TGL,M-O,87.4,93,185,117.5,235,537.5,8,M,Raw,SBD
Gary Bourke,ABS,M-O,92.7,93,185,120,220,525,9,M,Raw,SBD
Silvano Senn,,M-O,92,93,165,112.5,222.5,500,10,M,Raw,SBD
Brendan Geraghty,DSC,M-O,90.7,93,185,107.5,195,487.5,11,M,Raw,SBD
Damian Christie,ABS,M-O,90.9,93,172.5,117.5,195,485,12,M,Raw,SBD
Robert Parnell,REV,M-O,91.9,93,160,97.5,180,437.5,13,M,Raw,SBD
Kevin McGrath,KJS,M-O,87.3,93,150,100,170,420,14,M,Raw,SBD
John Hayes,KJS,M-O,89,93,130,80,150,360,15,M,Raw,SBD
Luke Curran,REV,M-O,97,105,202.5,130,240,572.5,1,M,Raw,SBD
Stephen Manning,TGL,M-O,100.5,105,200,120,240,560,2,M,Raw,SBD
Paul Taaffe,HER,M-O,103.4,105,195,142.5,205,542.5,3,M,Raw,SBD
David Moran,KJS,M-O,99.1,105,160,102.5,212.5,475,4,M,Raw,SBD
Ulick O'Sullivan,,M-O,101.7,105,142.5,87.5,165,395,5,M,Raw,SBD
Darragh Hayes,CGL,M-O,110.8,120,215,140,260,615,1,M,Raw,SBD
Michael Chisholm,,M-O,112.5,120,185,147.5,220,552.5,2,M,Raw,SBD
Conor O'Shea,DSC,M-O,110.5,120,175,85,192.5,452.5,3,M,Raw,SBD
Eoin O'Leary,,M-O,127.3,120+,250,160,255,665,1,M,Raw,SBD
Rob Burke,ABS,M-O,134.8,120+,230,132.5,250,612.5,2,M,Raw,SBD
