Division,WeightClassKg,Place,Name,Team,BodyweightKg,Best3SquatKg,Best3BenchKg,Best3DeadliftKg,TotalKg,Equipment,Event,Sex
Girls,44.23,1,Alaina Stewart,Splendora,44.09,61.23,29.48,61.23,151.95,Single-ply,SBD,F
Girls,44.23,2,Erin Blazek,Splendora,42.37,52.16,24.95,61.23,138.35,Single-ply,SBD,F
Girls,47.85,1,Kendra Campbell,Splendora,46.9,111.13,52.16,122.47,285.76,Single-ply,SBD,F
Girls,47.85,2,Analicia Perez,Alvin,47.72,86.18,40.82,90.72,217.72,Single-ply,SBD,F
Girls,47.85,3,Pasche Malone,Shepherd,47.81,70.31,31.75,108.86,210.92,Single-ply,SBD,F
Girls,47.85,4,Paloma Garcia,Alvin,47.45,74.84,34.02,77.11,185.97,Single-ply,SBD,F
Girls,47.85,5,Hailey Zigal,Splendora,47.36,70.31,29.48,81.65,181.44,Single-ply,SBD,F
Girls,51.94,1,Olivia Ansley,Shepherd,51.85,115.67,65.77,108.86,290.3,Single-ply,SBD,F
Girls,51.94,2,Jordan Alford,Splendora,51.17,111.13,49.9,111.13,272.16,Single-ply,SBD,F
Girls,51.94,3,Ava Higginbotham,Splendora,49.8,102.06,43.09,108.86,254.01,Single-ply,SBD,F
Girls,51.94,4,Miranda Housman,New Caney Porter,50.8,95.25,47.63,106.59,249.48,Single-ply,SBD,F
Girls,51.94,5,Roberta Sanchez,Shepherd,51.89,95.25,47.63,104.33,247.21,Single-ply,SBD,F
Girls,51.94,6,Maritza Catalan,Channelview,51.71,68.04,31.75,81.65,181.44,Single-ply,SBD,F
Girls,56.02,1,Alexis Bradford,Shepherd,55.93,138.35,56.7,138.35,333.39,Single-ply,SBD,F
Girls,56.02,2,Magdalena Zavala,Alvin,55.07,127.01,45.36,136.08,308.44,Single-ply,SBD,F
Girls,56.02,3,Kaylee Lewis,Splendora,55.16,115.67,56.7,129.27,301.64,Single-ply,SBD,F
Girls,56.02,4,Maddie Brown,Splendora,55.97,83.91,54.43,111.13,249.48,Single-ply,SBD,F
Girls,56.02,5,Megan Myers,Alvin,55.61,90.72,38.56,99.79,229.06,Single-ply,SBD,F
Girls,56.02,6,Hannah Blanchard,Splendora,53.71,97.52,38.56,88.45,224.53,Single-ply,SBD,F
Girls,56.02,7,Jocelin Lara DeLeon,Channelview,54.43,86.18,34.02,95.25,215.46,Single-ply,SBD,F
Girls,56.02,8,Carissa Hobbs,Alvin,55.7,74.84,38.56,83.91,197.31,Single-ply,SBD,F
Girls,56.02,DQ,Noelle Meisser,Trinity,52.71,61.23,29.48,,,Single-ply,SBD,F
Girls,60.1,1,Alyssa Patterson,Shepherd,59.83,142.88,70.31,142.88,356.07,Single-ply,SBD,F
Girls,60.1,2,Jennifer Sanchez,Alvin,59.78,124.74,70.31,113.4,308.44,Single-ply,SBD,F
Girls,60.1,3,Shelbie Swinhoe,New Caney Porter,59.6,117.93,47.63,124.74,290.3,Single-ply,SBD,F
Girls,60.1,4,Jillian Lamm,Alvin,58.97,102.06,56.7,122.47,281.23,Single-ply,SBD,F
Girls,60.1,5,Dixee Earhart,Splendora,57.24,102.06,52.16,102.06,256.28,Single-ply,SBD,F
Girls,60.1,6,Sara Persons,Alvin,58.69,95.25,49.9,102.06,247.21,Single-ply,SBD,F
Girls,60.1,7,Gabriela Valencia,Shepherd,58.69,95.25,52.16,88.45,235.87,Single-ply,SBD,F
Girls,60.1,8,Brittney Cheves,Shepherd,60.06,65.77,45.36,83.91,195.04,Single-ply,SBD,F
Girls,60.1,DQ,Hailey Nelson,Willis,57.7,79.38,45.36,,,Single-ply,SBD,F
Girls,60.1,DQ,Noemi Acosta,Trinity,58.24,,,,,Single-ply,SBD,F
Girls,60.1,DQ,Dioselin Gonzalez,Trinity,59.42,,,,,Single-ply,SBD,F
Girls,67.36,1,Skyler Thames,Willis,67.31,136.08,52.16,133.81,322.05,Single-ply,SBD,F
Girls,67.36,2,Jazmin Lowery,Alvin,66.22,131.54,72.57,104.33,308.44,Single-ply,SBD,F
Girls,67.36,3,Meagon Overstreet,Shepherd,63.73,129.27,31.75,131.54,292.57,Single-ply,SBD,F
Girls,67.36,4,Kyrsten Breaux,Alvin,64.59,115.67,54.43,115.67,285.76,Single-ply,SBD,F
Girls,67.36,5,Brittany Rosales,New Caney,67.22,95.25,45.36,102.06,242.67,Single-ply,SBD,F
Girls,67.36,6,Natalie Terrell,Shepherd,62.14,83.91,40.82,88.45,213.19,Single-ply,SBD,F
Girls,67.36,7,Gabriella Pendleton,Channelview,62.87,68.04,43.09,92.99,204.12,Single-ply,SBD,F
Girls,67.36,DQ,Makenzie Keel,Shepherd,64.41,95.25,34.02,83.91,,Single-ply,SBD,F
Girls,67.36,DQ,Stormie Bairfield,Splendora,63.14,,,,,Single-ply,SBD,F
Girls,67.36,DQ,Hannah Schindler,Splendora,61.14,83.91,40.82,,,Single-ply,SBD,F
Girls,75.07,1,Crystal Garcia,Splendora,73.57,142.88,70.31,138.35,351.53,Single-ply,SBD,F
Girls,75.07,2,Cami Pennington,Shepherd,73.98,133.81,74.84,102.06,310.71,Single-ply,SBD,F
Girls,75.07,3,Baylee Dunn,Splendora,70.31,111.13,70.31,115.67,297.1,Single-ply,SBD,F
Girls,75.07,4,Morgan Eason,Splendora,72.12,111.13,49.9,129.27,290.3,Single-ply,SBD,F
Girls,75.07,5,Julissa Resendez,Alvin,69.94,99.79,52.16,117.93,269.89,Single-ply,SBD,F
Girls,75.07,6,Kaitlin Kennedy,Alvin,72.21,106.59,45.36,95.25,247.21,Single-ply,SBD,F
Girls,75.07,7,Delia Valencia,New Caney,69.22,92.99,45.36,90.72,229.06,Single-ply,SBD,F
Girls,75.07,8,Taegan Cormier,Willis,74.48,90.72,31.75,83.91,206.38,Single-ply,SBD,F
Girls,75.07,DQ,Sara Armstrong,Alvin,69.22,99.79,56.7,,,Single-ply,SBD,F
Girls,75.07,DQ,Kiara McDonald,Splendora,70.76,99.79,,,,Single-ply,SBD,F
Girls,75.07,DQ,Kyndall Hill,Trinity,71.21,,,,,Single-ply,SBD,F
Girls,75.07,DQ,Adriana Martinez,Trinity,73.12,,,,,Single-ply,SBD,F
Girls,75.07,DQ,Aysiah Martinez,Alvin,68.95,104.33,52.16,,,Single-ply,SBD,F
Girls,82.33,1,Kimberlynn Patzold,New Caney Porter,81.74,172.37,104.33,158.76,435.45,Single-ply,SBD,F
Girls,82.33,2,Deanna Edwards,New Caney,79.29,170.1,81.65,142.88,394.63,Single-ply,SBD,F
Girls,82.33,3,De'Jeanna Payne,Channelview,76.38,138.35,70.31,165.56,374.21,Single-ply,SBD,F
Girls,82.33,4,Jennifer Sierra,Channelview,75.11,142.88,52.16,136.08,331.12,Single-ply,SBD,F
Girls,82.33,5,Kelli Ramey,Trinity,78.02,124.74,45.36,117.93,288.03,Single-ply,SBD,F
Girls,82.33,6,Halie Byers,Splendora,78.2,92.99,47.63,113.4,254.01,Single-ply,SBD,F
Girls,82.33,7,Olivia Jackson,Shepherd,80.74,88.45,38.56,92.99,219.99,Single-ply,SBD,F
Girls,82.33,8,Diamond Delfierro,Alvin,78.83,70.31,38.56,108.86,217.72,Single-ply,SBD,F
Girls,82.33,DQ,Allie Barron,Willis,78.2,115.67,54.43,,,Single-ply,SBD,F
Girls,90.04,1,Deanna Fisher,Trinity,89.54,165.56,70.31,161.03,396.89,Single-ply,SBD,F
Girls,90.04,2,Carolina Escamilla,New Caney,82.37,127.01,56.7,127.01,310.71,Single-ply,SBD,F
Girls,90.04,3,Sharee Deckard,Willis,84.55,133.81,61.23,115.67,310.71,Single-ply,SBD,F
Girls,90.04,4,Morgan Revels,Alvin,84.82,104.33,58.97,122.47,285.76,Single-ply,SBD,F
Girls,90.04,5,Carmen Lopez,Alvin,88.63,111.13,58.97,99.79,269.89,Single-ply,SBD,F
Girls,90.04,6,Jasmine O'Bryant,New Caney,89.27,102.06,54.43,113.4,269.89,Single-ply,SBD,F
Girls,90.04,DQ,Michell Landry,Beaumont Ozen,82.74,,,,,Single-ply,SBD,F
Girls,100.02,1,LaDazeja Charles,Channelview,94.8,156.49,70.31,158.76,385.55,Single-ply,SBD,F
Girls,100.02,2,Marlene Zumaya,Splendora,96.98,124.74,56.7,124.74,306.17,Single-ply,SBD,F
Girls,100.02,3,Hayli Pennington,Alvin,93.08,113.4,47.63,97.52,258.55,Single-ply,SBD,F
Girls,100.02,DQ,Hannah Havard,Willis,96.25,156.49,,,,Single-ply,SBD,F
Girls,100.02+,1,Brianna Hermann,Alvin,130.36,145.15,81.65,145.15,371.95,Single-ply,SBD,F
Girls,100.02+,2,Hilda Zumaya,Splendora,102.78,142.88,74.84,145.15,362.87,Single-ply,SBD,F
Girls,100.02+,3,Andrea Rocha,Shepherd,133.81,133.81,56.7,115.67,306.17,Single-ply,SBD,F
Girls,100.02+,4,Madison Hall #1,Channelview,104.42,102.06,45.36,104.33,251.74,Single-ply,SBD,F
Girls,100.02+,DQ,Keyandra Adams,Shepherd,102.51,136.08,,129.27,,Single-ply,SBD,F
Girls,100.02+,DQ,Melanie McVay,Willis,127.19,,,,,Single-ply,SBD,F
Girls,100.02+,DQ,Sinthia Castilla,Trinity,101.42,111.13,56.7,,,Single-ply,SBD,F
