Division,WeightClassKg,Place,Name,Team,BodyweightKg,Best3SquatKg,Best3BenchKg,Best3DeadliftKg,TotalKg,Equipment,Event,Sex
Girls,44.23,1,Mikayla Mewa,Beaumont West Brook,41.82,83.91,43.09,122.47,249.48,Single-ply,SBD,F
Girls,44.23,2,Christina Varela,Alvin,44.18,95.25,54.43,95.25,244.94,Single-ply,SBD,F
Girls,44.23,3,Katrina Le,Beaumont West Brook,43.64,92.99,40.82,102.06,235.87,Single-ply,SBD,F
Girls,44.23,4,Jessica Espinal,Conroe,42.91,90.72,27.22,99.79,217.72,Single-ply,SBD,F
Girls,44.23,5,Kyndall Moffett,Livingston,44,81.65,38.56,88.45,208.65,Single-ply,SBD,F
Girls,44.23,6,Valerie Arango,Channelview,43.73,74.84,34.02,92.99,201.85,Single-ply,SBD,F
Girls,44.23,7,Lainey McDonald,Willis,43.09,58.97,31.75,77.11,167.83,Single-ply,SBD,F
Girls,44.23,8,Kayleena Valdez,Manvel,43.36,54.43,31.75,72.57,158.76,Single-ply,SBD,F
Girls,44.23,DQ,Eliziah Cervantes,Manvel,44,,,,,Single-ply,SBD,F
Girls,44.23,DQ,Yitzel Sosa,Nederland,44,,,,,Single-ply,SBD,F
Girls,44.23,DQ,Leanne Lee,Alvin Shadow Creek,44,,,,,Single-ply,SBD,F
Girls,44.23,DQ,Ivanna Lopez,Splendora,43.73,81.65,,,,Single-ply,SBD,F
Girls,47.85,1,Hailey Alexander,Lumberton,47.72,113.4,61.23,115.67,290.3,Single-ply,SBD,F
Girls,47.85,2,Hope Brekel,Nederland,47.26,120.2,54.43,108.86,283.5,Single-ply,SBD,F
Girls,47.85,3,Hannah Alexander #1,Lumberton,47.72,111.13,65.77,106.59,283.5,Single-ply,SBD,F
Girls,47.85,4,Adile Leal,Clute Brazoswood,46.18,99.79,52.16,104.33,256.28,Single-ply,SBD,F
Girls,47.85,5,Paloma Garcia,Alvin,46.99,95.25,36.29,92.99,224.53,Single-ply,SBD,F
Girls,47.85,6,Madison Marberry,Livingston,45.99,92.99,38.56,88.45,219.99,Single-ply,SBD,F
Girls,47.85,7,Jocelyn Hernandez,Channelview,46.63,74.84,38.56,70.31,183.7,Single-ply,SBD,F
Girls,47.85,8,Peyton Payne,Willis,45.81,58.97,29.48,72.57,161.03,Single-ply,SBD,F
Girls,47.85,9,McKenzie Reznicek,Baytown Goose Creek Memorial,46.08,49.9,27.22,70.31,147.42,Single-ply,SBD,F
Girls,47.85,DQ,Erin Blazek,Nederland,46.36,,,,,Single-ply,SBD,F
Girls,47.85,DQ,Alaina Whitworth,Nederland,47.63,,,,,Single-ply,SBD,F
Girls,51.94,1,Catarina Tran,Nederland,51.62,149.69,54.43,124.74,328.85,Single-ply,SBD,F
Girls,51.94,2,Ava Higginbotham,Splendora,50.44,120.2,56.7,129.27,306.17,Single-ply,SBD,F
Girls,51.94,3,Yessenia Mata,Splendora,50.26,120.2,56.7,120.2,297.1,Single-ply,SBD,F
Girls,51.94,4,Maritza Catalan,Channelview,51.8,102.06,45.36,111.13,258.55,Single-ply,SBD,F
Girls,51.94,5,Claire Broussard,Nederland,50.8,90.72,49.9,111.13,251.74,Single-ply,SBD,F
Girls,51.94,6,Crystalvan Phan,Dickinson,50.71,102.06,40.82,104.33,247.21,Single-ply,SBD,F
Girls,51.94,7,Yahira Campuzano,Conroe,49.8,97.52,38.56,102.06,238.14,Single-ply,SBD,F
Girls,51.94,8,Brisa Carmona,Splendora,50.89,99.79,45.36,90.72,235.87,Single-ply,SBD,F
Girls,51.94,9,Anna Chapa,Willis,49.17,86.18,43.09,104.33,233.6,Single-ply,SBD,F
Girls,51.94,10,Alma Cortez,Splendora,50.98,92.99,38.56,95.25,226.8,Single-ply,SBD,F
Girls,51.94,11,Keira Rodriguez,Santa Fe,49.53,92.99,36.29,88.45,217.72,Single-ply,SBD,F
Girls,51.94,12,Bailey Braquet,Beaumont West Brook,49.44,74.84,45.36,90.72,210.92,Single-ply,SBD,F
Girls,51.94,13,Yitzi Sosa,New Caney Porter,49.99,88.45,34.02,86.18,208.65,Single-ply,SBD,F
Girls,56.02,1,Hayley Kinard,Vidor,51.98,147.42,70.31,122.47,340.19,Single-ply,SBD,F
Girls,56.02,2,Hannah Blanchard,Splendora,55.97,136.08,70.31,106.59,312.98,Single-ply,SBD,F
Girls,56.02,3,Joslyn Hall,Beaumont West Brook,54.16,122.47,68.04,120.2,310.71,Single-ply,SBD,F
Girls,56.02,4,Joeslin Lara,Channelview,54.79,120.2,45.36,131.54,297.1,Single-ply,SBD,F
Girls,56.02,5,Meadow Housman,New Caney Porter,55.7,115.67,58.97,115.67,290.3,Single-ply,SBD,F
Girls,56.02,6,Raylie Pagan,Splendora,54.61,120.2,61.23,106.59,288.03,Single-ply,SBD,F
Girls,56.02,7,Brooke Smalley,Montgomery,55.16,113.4,40.82,115.67,269.89,Single-ply,SBD,F
Girls,56.02,8,Chinyere Okonkwo,Alvin Shadow Creek,54.61,92.99,52.16,122.47,267.62,Single-ply,SBD,F
Girls,56.02,9,Leanne Keys,Nederland,55.7,106.59,45.36,106.59,258.55,Single-ply,SBD,F
Girls,56.02,10,Tommie Stark,Conroe Woodlands College Park,55.79,99.79,40.82,115.67,256.28,Single-ply,SBD,F
Girls,56.02,11,Rylie Huff,Lumberton,55.79,102.06,47.63,102.06,251.74,Single-ply,SBD,F
Girls,56.02,12,Karli Kalischko,Alvin,55.52,95.25,49.9,97.52,242.67,Single-ply,SBD,F
Girls,56.02,13,Mariu Escalante-Bastidas,Baytown Goose Creek Memorial,52.03,97.52,36.29,95.25,229.06,Single-ply,SBD,F
Girls,60.1,1,Jaycee Graham,Splendora,59.6,165.56,79.38,149.69,394.63,Single-ply,SBD,F
Girls,60.1,2,Jenna Hoffmann,Vidor,59.06,145.15,77.11,149.69,371.95,Single-ply,SBD,F
Girls,60.1,3,Hope Pridgen,Vidor,59.06,127.01,58.97,142.88,328.85,Single-ply,SBD,F
Girls,60.1,4,Daniella Faz,Conroe Caney Creek,57.88,127.01,65.77,129.27,322.05,Single-ply,SBD,F
Girls,60.1,5,Isabella Barfagan,Nederland,59.24,127.01,54.43,136.08,317.51,Single-ply,SBD,F
Girls,60.1,6,Carol Cardenas,New Caney Porter,59.6,120.2,54.43,122.47,297.1,Single-ply,SBD,F
Girls,60.1,7,Courtney Calvert,Montgomery,59.42,122.47,63.5,106.59,292.57,Single-ply,SBD,F
Girls,60.1,8,Morgan Adkison,Splendora,58.6,124.74,54.43,106.59,285.76,Single-ply,SBD,F
Girls,60.1,9,Isela Garza,Conroe Caney Creek,59.42,104.33,47.63,117.93,269.89,Single-ply,SBD,F
Girls,60.1,10,Karina Recendez,Alvin,59.06,111.13,47.63,106.59,265.35,Single-ply,SBD,F
Girls,60.1,11,Melanie Gonzales,Clute Brazoswood,56.06,88.45,58.97,88.45,235.87,Single-ply,SBD,F
Girls,60.1,DQ,Leila Abel,Beaumont West Brook,59.24,,,,,Single-ply,SBD,F
Girls,67.36,1,Haley Fleming,Splendora,64.59,163.29,90.72,151.95,405.97,Single-ply,SBD,F
Girls,67.36,2,Sarah Trujilo,Splendora,67.04,161.03,77.11,151.95,390.09,Single-ply,SBD,F
Girls,67.36,3,Victoria Pena,Splendora,66.04,151.95,70.31,147.42,369.68,Single-ply,SBD,F
Girls,67.36,4,Mallory Beck,Vidor,65.77,149.69,72.57,140.61,362.87,Single-ply,SBD,F
Girls,67.36,5,Amaya Bartiste,Manvel,64.41,142.88,58.97,124.74,326.59,Single-ply,SBD,F
Girls,67.36,6,Sara Persons,Alvin,62.32,127.01,58.97,129.27,315.25,Single-ply,SBD,F
Girls,67.36,7,Amanda Carden,Dayton,63.96,129.27,52.16,133.81,315.25,Single-ply,SBD,F
Girls,67.36,8,Morgan Shelton,Alvin Shadow Creek,67.13,113.4,61.23,124.74,299.37,Single-ply,SBD,F
Girls,67.36,9,Allie Moore,Dayton,62.23,113.4,56.7,122.47,292.57,Single-ply,SBD,F
Girls,67.36,DQ,Camille Thompson,Beaumont West Brook,65.91,,,,,Single-ply,SBD,F
Girls,67.36,DQ,Ahniyah Walker,Beaumont West Brook,65.59,,,,,Single-ply,SBD,F
Girls,67.36,DQ,Paris Williams,Beaumont West Brook,66.59,124.74,49.9,,,Single-ply,SBD,F
Girls,75.07,1,Avery Lock,Splendora,74.84,156.49,92.99,142.88,392.36,Single-ply,SBD,F
Girls,75.07,2,Bobbie Cooksie,Pearland,74.84,151.95,83.91,151.95,387.82,Single-ply,SBD,F
Girls,75.07,3,Madison Chapman,New Caney Porter,71.3,138.35,83.91,151.95,374.21,Single-ply,SBD,F
Girls,75.07,4,Grace Groh,Splendora,73.03,158.76,83.91,131.54,374.21,Single-ply,SBD,F
Girls,75.07,5,Samantha Raines,Clute Brazoswood,70.13,147.42,72.57,149.69,369.68,Single-ply,SBD,F
Girls,75.07,6,Julissa Recendez,Alvin,74.12,147.42,65.77,149.69,362.87,Single-ply,SBD,F
Girls,75.07,7,Carlyn Keys,Alvin Shadow Creek,70.03,127.01,68.04,151.95,347,Single-ply,SBD,F
Girls,75.07,8,Aiyanna Holloman,New Caney Porter,72.48,131.54,77.11,133.81,342.46,Single-ply,SBD,F
Girls,75.07,9,Makenzie Keel,Splendora,73.03,136.08,68.04,136.08,340.19,Single-ply,SBD,F
Girls,75.07,10,Kylie Jones,Splendora,74.39,136.08,70.31,133.81,340.19,Single-ply,SBD,F
Girls,75.07,11,Alyssa Rideaux,Beaumont West Brook,72.03,124.74,65.77,142.88,333.39,Single-ply,SBD,F
Girls,75.07,12,Grace Hooker,Montgomery,71.12,113.4,68.04,149.69,331.12,Single-ply,SBD,F
Girls,82.33,1,Morgan Boody,Santa Fe,78.11,183.7,86.18,147.42,417.3,Single-ply,SBD,F
Girls,82.33,2,Winter Rice,Splendora,81.1,154.22,90.72,147.42,392.36,Single-ply,SBD,F
Girls,82.33,3,Jennifer Sierra,Channelview,75.11,163.29,58.97,163.29,385.55,Single-ply,SBD,F
Girls,82.33,4,Ashley Kimey,Nederland,80.29,140.61,63.5,158.76,362.87,Single-ply,SBD,F
Girls,82.33,5,Karina Macias,Alvin,75.3,147.42,49.9,154.22,351.53,Single-ply,SBD,F
Girls,82.33,6,Leah Hensarling,Splendora,75.21,158.76,70.31,120.2,349.27,Single-ply,SBD,F
Girls,82.33,7,Megan Sheehan,Lumberton,76.2,133.81,65.77,127.01,326.59,Single-ply,SBD,F
Girls,82.33,8,Emily Espinoza,Dayton,77.56,108.86,61.23,154.22,324.32,Single-ply,SBD,F
Girls,82.33,9,Bailey Barrett #1,Livingston,77.66,124.74,58.97,136.08,319.78,Single-ply,SBD,F
Girls,82.33,10,Marie LeCompte,Santa Fe,76.93,145.15,54.43,115.67,315.25,Single-ply,SBD,F
Girls,82.33,11,Tiana McClendon,Alvin Shadow Creek,79.92,115.67,58.97,129.27,303.91,Single-ply,SBD,F
Girls,82.33,12,Breanna Redeaux,Beaumont West Brook,80.2,113.4,61.23,124.74,299.37,Single-ply,SBD,F
Girls,90.04,1,Alyssa Daniels,Splendora,89.09,163.29,90.72,136.08,390.09,Single-ply,SBD,F
Girls,90.04,2,D'Lisa Promise,La Porte,86.36,176.9,65.77,142.88,385.55,Single-ply,SBD,F
Girls,90.04,3,Carly Burns,Beaumont West Brook,87.82,156.49,70.31,158.76,385.55,Single-ply,SBD,F
Girls,90.04,4,Adara Land,Conroe Oak Ridge,85.09,154.22,72.57,154.22,381.02,Single-ply,SBD,F
Girls,90.04,5,Raelyn Peddy,Conroe Caney Creek,88.36,142.88,92.99,129.27,365.14,Single-ply,SBD,F
Girls,90.04,6,Amber Johnson,Alvin Shadow Creek,85.82,124.74,68.04,136.08,328.85,Single-ply,SBD,F
Girls,90.04,7,Madison Eason,Splendora,86.36,124.74,68.04,133.81,326.59,Single-ply,SBD,F
Girls,90.04,8,Haylie Burns,Dayton,86.82,124.74,61.23,129.27,315.25,Single-ply,SBD,F
Girls,90.04,9,Savannah Hebert,Conroe Caney Creek,86.36,120.2,70.31,111.13,301.64,Single-ply,SBD,F
Girls,90.04,10,Morgan Williams #2,New Caney Porter,84.82,97.52,54.43,111.13,263.08,Single-ply,SBD,F
Girls,90.04,DQ,Milyons McMillan,Beaumont West Brook,89.81,,,,,Single-ply,SBD,F
Girls,90.04,DQ,Kaylin Davalos,Livingston,83.46,129.27,47.63,,,Single-ply,SBD,F
Girls,100.02,1,Blanca Palma,Conroe Woodlands College Park,98.61,151.95,74.84,154.22,381.02,Single-ply,SBD,F
Girls,100.02,2,Adrianna Fuentes,Dayton,91.08,151.95,72.57,142.88,367.41,Single-ply,SBD,F
Girls,100.02,3,Daniella Contreras,Alvin,94.44,158.76,68.04,136.08,362.87,Single-ply,SBD,F
Girls,100.02,4,Ashlynn Tapia,Conroe Woodlands College Park,93.08,142.88,65.77,136.08,344.73,Single-ply,SBD,F
Girls,100.02,5,Trinity Ruiz,Alvin,95.89,140.61,74.84,127.01,342.46,Single-ply,SBD,F
Girls,100.02,6,Eryn Harris,Clute Brazoswood,98.52,138.35,68.04,129.27,335.66,Single-ply,SBD,F
Girls,100.02,7,Camryn Fusch,Clute Brazoswood,92.53,127.01,63.5,131.54,322.05,Single-ply,SBD,F
Girls,100.02,8,Chesney Payne,Livingston,94.08,127.01,54.43,122.47,303.91,Single-ply,SBD,F
Girls,100.02,9,Ashanti Robinson,Dickinson,97.7,102.06,70.31,124.74,297.1,Single-ply,SBD,F
Girls,100.02,10,Kylie Albritton,Pearland,96.52,115.67,56.7,120.2,292.57,Single-ply,SBD,F
Girls,100.02,DQ,Angelina Sahagun,Conroe Oak Ridge,98.7,147.42,72.57,,,Single-ply,SBD,F
Girls,100.02,DQ,Madeline Genuardi,Beaumont West Brook,98.61,,,,,Single-ply,SBD,F
Girls,117.71,1,Marlene Zumaya,Splendora,100.79,179.17,106.59,156.49,442.25,Single-ply,SBD,F
Girls,117.71,2,Cydney Griffin,Beaumont West Brook,100.43,154.22,79.38,124.74,358.34,Single-ply,SBD,F
Girls,117.71,3,Madison Hall #1,Channelview,113.58,131.54,72.57,120.2,324.32,Single-ply,SBD,F
Girls,117.71,4,Hayli Pennington,Alvin,107.23,154.22,56.7,108.86,319.78,Single-ply,SBD,F
Girls,117.71,5,Kayla Smith,Alvin Shadow Creek,110.5,127.01,68.04,122.47,317.51,Single-ply,SBD,F
Girls,117.71,6,Kennedy Bonsai,New Caney Porter,112.04,122.47,63.5,120.2,306.17,Single-ply,SBD,F
Girls,117.71,7,Jalecia Myles,Dickinson,110.04,122.47,56.7,108.86,288.03,Single-ply,SBD,F
Girls,117.71,DQ,Dariah Jennings,Alvin Shadow Creek,117.48,,,,,Single-ply,SBD,F
Girls,117.71,DQ,Lauren Martinez,Texas City,117.48,,,,,Single-ply,SBD,F
Girls,117.71,DQ,LaNaysha Boudreaux,Nederland,114.21,158.76,,,,Single-ply,SBD,F
Girls,117.71,DQ,Ka Lynn Broadnax,Pearland Dawson,112.85,176.9,79.38,,,Single-ply,SBD,F
Girls,117.71+,1,Kennedi Henderson,Channelview,141.97,185.97,72.57,167.83,426.38,Single-ply,SBD,F
Girls,117.71+,2,Jadyn Walden,Conroe,127.37,185.97,65.77,165.56,417.3,Single-ply,SBD,F
Girls,117.71+,3,Elisa Neder,Montgomery,146.96,163.29,70.31,145.15,378.75,Single-ply,SBD,F
Girls,117.71+,4,Kylie Matticks,Waller,122.83,136.08,61.23,127.01,324.32,Single-ply,SBD,F
Girls,117.71+,5,Belen Almader,Alvin,125.83,140.61,61.23,117.93,319.78,Single-ply,SBD,F
Girls,117.71+,6,Brooke McClelland,Willis,124.1,136.08,68.04,102.06,306.17,Single-ply,SBD,F
Girls,117.71+,7,Maria Limon,Alvin,120.11,133.81,54.43,106.59,294.84,Single-ply,SBD,F
Girls,117.71+,8,Ishiann Jones,Beaumont Ozen,128,68.04,38.56,113.4,219.99,Single-ply,SBD,F
Girls,117.71+,DQ,Haley Blumrich,Pearland Dawson,121.29,165.56,65.77,,,Single-ply,SBD,F
