Division,WeightClassKg,Place,Name,Team,BodyweightKg,Best3SquatKg,Best3BenchKg,Best3DeadliftKg,TotalKg,Equipment,Event,Sex,BirthDate
Boys,55.79,1,Mario Gutierrez,Mission Veterans Memorial,54.52,99.79,61.23,108.86,269.89,Single-ply,SBD,M,
Boys,59.87,1,Matthew Sanchez,Mission Veterans Memorial,58.2,131.54,72.57,127.01,331.12,Single-ply,SBD,M,
Boys,67.13,1,Eduardo Ordaz,Mission Veterans Memorial,64.46,131.54,81.65,156.49,369.68,Single-ply,SBD,M,
Boys,67.13,2,Pablo López,Mission Veterans Memorial,63.05,142.88,79.38,142.88,365.14,Single-ply,SBD,M,
Boys,67.13,3,Eliu Padilla,La Joya Juarez-Lincoln,67.04,127.01,72.57,149.69,349.27,Single-ply,SBD,M,
Boys,67.13,4,Roman Garcia,La Joya Palmview,65.77,115.67,88.45,120.2,324.32,Single-ply,SBD,M,
Boys,67.13,DQ,Gael Corona-Gonzalez,La Joya Palmview,63.55,151.95,92.99,,,Single-ply,SBD,M,
Boys,67.13,DQ,Leonardo Perez,Mission,67.13,204.12,129.27,,,Single-ply,SBD,M,
Boys,67.13,DQ,Jimmy Quinterro,Mission,66.09,136.08,,,,Single-ply,SBD,M,
Boys,74.84,1,Elio Padilla,La Joya Juarez-Lincoln,74.34,167.83,108.86,167.83,444.52,Single-ply,SBD,M,
Boys,74.84,2,Enrique Ordaz,Mission Veterans Memorial,69.26,147.42,83.91,149.69,381.02,Single-ply,SBD,M,
Boys,82.1,1,Angel Cantu,La Joya Palmview,80.1,208.65,133.81,190.51,532.97,Single-ply,SBD,M,
Boys,82.1,2,Jude Jaime,Mission,77.25,199.58,115.67,197.31,512.56,Single-ply,SBD,M,
Boys,82.1,3,Javier Martinez,La Joya Juarez-Lincoln,78.7,163.29,97.52,174.63,435.45,Single-ply,SBD,M,
Boys,89.81,1,Zeke Cuadros,Mission,88.9,260.82,149.69,226.8,637.3,Single-ply,SBD,M,
Boys,89.81,2,Eduardo Herrera,La Joya Palmview,85.82,174.63,106.59,165.56,446.79,Single-ply,SBD,M,
Boys,99.79,1,Alberto Vargas,La Joya Palmview,98.75,285.76,199.58,260.82,746.16,Single-ply,SBD,M,
Boys,99.79,2,Cristian Hernandez,Mission,98.38,303.91,147.42,240.4,691.73,Single-ply,SBD,M,
Boys,99.79,3,Rene Garcia,La Joya Juarez-Lincoln,99.43,183.7,127.01,172.37,483.08,Single-ply,SBD,M,
Boys,109.77,1,Ashton Guzman,Mission,108.5,226.8,122.47,176.9,526.17,Single-ply,SBD,M,
Boys,139.71,1,Jayden Morales,Mission,137.17,249.48,151.95,185.97,587.4,Single-ply,SBD,M,
Boys,139.71,2,Nathaniel Villegas,Mission Veterans Memorial,133.04,199.58,115.67,167.83,483.08,Single-ply,SBD,M,
Boys,139.71+,1,Isaias Garcia,La Joya Palmview,185.61,235.87,124.74,226.8,587.4,Single-ply,SBD,M,
Boys,139.71+,2,Michael Garza #5,Mission,143.97,102.06,83.91,147.42,333.39,Single-ply,SBD,M,
