Place,Name,State,WeightClassKg,BodyweightKg,Age,Best3SquatKg,Best3BenchKg,Best3DeadliftKg,TotalKg,Sex,Division,Equipment,Deadlift4Kg,Squat4Kg,Bench4Kg,Event
1,Logan Whitfill,AZ,60,59.60,19,112.50,55.00,125.00,292.50,F,Juniors 18-19,Raw,,,,SBD
1,Jessica Lenyard,AZ,60,59.20,20,105.00,75.00,145.00,325.00,F,Juniors 20-23,Raw,,,,SBD
1,Sara Olguin,AZ,67.5,63.90,18,133.00,78.00,140.00,351.00,F,Juniors 18-19,Raw,,,,SBD
DQ,Ceyenna Trehern,AZ,75,73.60,20,-120.00,,,,F,Juniors 20-23,Raw,,,,SBD
1,Briana Lacy,AZ,82.5,78.70,23,67.50,55.00,130.00,252.50,F,Juniors 20-23,Raw,,,,SBD
1,Harley Hall,AZ,90,88.90,22,110.00,52.50,157.50,320.00,F,Juniors 20-23,Raw,,,,SBD
1,Danielle Columby,AZ,52,51.60,31,137.50,80.00,170.00,387.50,F,Open,Raw,,,,SBD
2,Rosario Espinoza,AZ,52,51.70,30,110.00,57.50,130.00,297.50,F,Open,Raw,,,,SBD
1,Mirna Henriquez,AZ,56,55.80,25,105.00,47.50,132.50,285.00,F,Open,Raw,,,,SBD
1,Becky Kiraly,AZ,60,59.00,33,120.00,65.00,165.00,350.00,F,Open,Raw,,,,SBD
2,Jessica Lenyard,AZ,60,59.20,20,105.00,75.00,145.00,325.00,F,Open,Raw,,,,SBD
1,Ashley Gleckler,AZ,67.5,67.30,29,127.50,57.50,157.50,342.50,F,Open,Raw,,,,SBD
2,Sara Olguin,AZ,67.5,63.90,18,133.00,78.00,140.00,351.00,F,Open,Raw,,,,SBD
3,Nina Dilorenzo,AZ,67.5,65.40,26,110.00,50.00,125.00,285.00,F,Open,Raw,,,,SBD
DQ,Ceyenna Trehern,AZ,75,73.60,20,-120.00,,,,F,Open,Raw,,,,SBD
1,Kimberly Mills,AZ,90,88.30,38,125.00,60.00,157.50,342.50,F,Open,Raw,,,,SBD
1,Christina Guiterrez,AZ,90+,94.30,42,125.00,65.00,150.00,340.00,F,Open,Raw,,,,SBD
1,Michelle Turner,AZ,67.5,66.40,36,97.50,52.50,152.50,302.50,F,Submasters 35-39,Raw,,,,SBD
1,Kimberly Mills,AZ,90,88.30,38,125.00,60.00,157.50,342.50,F,Submasters 35-39,Raw,,,,SBD
1,Christina Gutierrez,AZ,90+,94.30,42,125.00,65.00,150.00,340.00,F,Masters 40-44,Raw,,,,SBD
1,Noor Sherif,AZ,90,89.60,19,193.50,130.00,235.00,558.50,M,Juniors 18-19,Raw,237.5,,,SBD
1,Chris Anderson #1,IA,82.5,81.60,23,217.50,155.00,250.00,622.50,M,Juniors 20-23,Raw,,,,SBD
1,Cody Watts,AZ,100,96.70,19,182.50,142.50,197.50,522.50,M,Juniors 18-19,Raw,,,,SBD
1,Dane Steadman,AZ,82.5,80.50,18,255.00,172.50,267.50,695.00,M,Open,Raw,,,,SBD
2,Thomas Sheets,AZ,82.5,81.00,24,205.00,135.00,227.50,567.50,M,Open,Raw,,,,SBD
1,Brett Chrisman,AZ,90,90.00,26,275.00,210.00,335.00,820.00,M,Open,Raw,,,,SBD
1,Matt Omen,AZ,100,100.00,26,272.50,205.00,305.00,782.50,M,Open,Raw,,,,SBD
2,Dave Smith #5,AZ,100,99.10,33,240.00,180.00,265.00,685.00,M,Open,Raw,,,,SBD
3,Lee Hammer,AZ,100,95.20,27,232.50,157.50,267.50,657.50,M,Open,Raw,,,,SBD
1,Steve Maday,AZ,125,118.90,34,260.00,207.50,337.50,805.00,M,Open,Raw,,,,SBD
2,Andrew Wooster,AZ,125,122.00,34,230.00,135.00,252.50,617.50,M,Open,Raw,,,,SBD
3,Gene Cameron,AZ,125,122.60,41,202.50,160.00,252.50,615.00,M,Open,Raw,,,,SBD
1,Nick Banu,AZ,82.5,79.00,38,122.50,90.00,185.00,397.50,M,Submasters 35-39,Raw,,,,SBD
1,Gene Cameron,AZ,125,122.60,41,202.50,160.00,252.50,615.00,M,Masters 40-44,Raw,,,,SBD
1,Sharianna Cazares,AZ,75,73.80,21,125.00,65.00,127.50,317.50,F,Juniors 20-23,Wraps,,,,SBD
1,Suzanne Davis,AZ,56,55.60,44,160.00,83.00,209.00,452.00,F,Open,Wraps,,,,SBD
1,Nicole Perez,AZ,67.5,67.00,29,150.00,82.50,175.00,407.50,F,Open,Wraps,,,,SBD
1,Malinda Barnes,AZ,75,74.70,37,142.50,82.50,155.00,380.00,F,Open,Wraps,,,,SBD
2,Alycia Rodriguez,AZ,75,75.00,24,137.50,67.50,157.50,362.50,F,Open,Wraps,,,,SBD
1,Sophia Hussary,AZ,82.5,82.00,38,150.00,92.50,192.50,435.00,F,Open,Wraps,,155,,SBD
1,Makala Davis,AZ,90+,114.60,25,165.00,83.00,215.00,463.00,F,Open,Wraps,,,,SBD
2,Ashley Neal,AZ,90+,107.20,32,165.00,75.00,142.50,382.50,F,Open,Wraps,,,,SBD
1,Malinda Barnes,AZ,75,74.70,37,142.50,82.50,155.00,380.00,F,Submasters 35-39,Wraps,,,,SBD
1,Sophia Hussary,AZ,82.5,82.00,38,150.00,92.50,192.50,435.00,F,Submasters 35-39,Wraps,,155,,SBD
1,Matt Scroggin,AZ,110,107.50,22,272.50,162.50,252.50,687.50,M,Juniors 20-23,Wraps,,,,SBD
1,Vahana Dorcis,AZ,75,75.00,32,207.50,125.00,242.50,575.00,M,Open,Wraps,,,,SBD
1,Matt Scroggin,AZ,110,107.50,22,272.50,162.50,252.50,687.50,M,Open,Wraps,,,,SBD
1,Nick Rowland,AZ,125,122.20,28,295.00,220.00,335.00,850.00,M,Open,Wraps,,,,SBD
1,Trev Mahoney,AZ,140+,149.00,48,320.00,205.00,277.50,802.50,M,Open,Wraps,,,,SBD
1,Thomas Wleklik,AZ,110,107.20,38,185.00,130.00,200.00,515.00,M,Submasters 35-39,Wraps,,,132.5,SBD
1,Terry O'Neal,AZ,110,105.40,56,192.50,122.50,190.00,505.00,M,Masters 55-59,Wraps,,,,SBD
1,Thomas Matlock,AZ,110,109.30,64,182.50,95.00,210.00,487.50,M,Masters 60-64,Wraps,,,,SBD
1,Trev Mahoney,AZ,140+,149.00,48,320.00,205.00,277.50,802.50,M,Masters 45-49,Wraps,,,,SBD
1,Charles Detranaltos,AZ,90,88.80,51,210.00,157.50,240.00,607.50,M,Masters 50-54,Single-ply,,,,SBD
1,Logan Whitfill,AZ,60,59.60,19,,55.00,,55.00,F,Juniors 18-19,Raw,,,,B
1,Suzanne Davis,AZ,56,55.60,44,,83.00,,83.00,F,Open,Raw,,,,B
1,Nicole Perez,AZ,67.5,67.00,29,,82.50,,82.50,F,Open,Raw,,,,B
1,Sophia Hussary,AZ,82.5,82.00,38,,92.50,,92.50,F,Open,Raw,,,,B
1,Sophia Hussary,AZ,82.5,82.00,38,,92.50,,92.50,F,Submasters 35-39,Raw,,,,B
1,Jarrod Mills,AZ,110,105.60,40,,197.50,,197.50,M,Open,Raw,,,,B
1,Sid Gottschalk,AZ,125,121.90,28,,230.00,,230.00,M,Open,Raw,,,,B
2,Nick Rowland,AZ,125,121.90,28,,220.00,,220.00,M,Open,Raw,,,,B
1,Chuck Hudson,AZ,140,132.00,37,,247.50,,247.50,M,Open,Raw,,,,B
1,Jarrod Mills,AZ,110,105.60,37,,197.50,,197.50,M,Submasters 35-39,Raw,,,,B
1,Chuck Hudson,AZ,140,132.00,37,,247.50,,247.50,M,Submasters 35-39,Raw,,,,B
1,Mike Desrosiers,AZ,110,108.70,42,,170.00,,170.00,M,Masters 40-44,Raw,,,,B
1,Terry O'Neal,AZ,110,105.40,56,,122.50,,122.50,M,Masters 55-59,Raw,,,,B
1,Logan Whitfill,AZ,60,59.60,19,,,125.00,125.00,F,Juniors 18-19,Raw,,,,D
1,Suzanne Davis,AZ,56,55.60,44,,,209.00,209.00,F,Open,Raw,,,,D
1,Nicoel Perez,AZ,67.5,67.00,29,,,175.00,175.00,F,Open,Raw,,,,D
1,Sophia Hussary,AZ,82.5,82.00,38,,,192.50,192.50,F,Open,Raw,,,,D
1,Makala Davis,AZ,90+,114.60,25,,,215.00,215.00,F,Open,Raw,,,,D
1,Sophia Hussary,AZ,82.5,82.00,38,,,192.50,192.50,F,Submasters 35-39,Raw,,,,D
1,Vahana Dorcis,AZ,75,75.00,32,,,242.50,242.50,M,Open,Raw,,,,D
1,Michael Peltz,AZ,110,104.00,40,,,322.50,322.50,M,Open,Raw,,,,D
1,Nick Rowland,AZ,125,122.20,28,,,335.00,335.00,M,Open,Raw,,,,D
1,Michael Peltz,AZ,110,104.00,40,,,322.50,322.50,M,Masters 40-44,Raw,,,,D
2,Mike Desrosiers,AZ,110,108.70,42,,,235.00,235.00,M,Masters 40-44,Raw,,,,D
1,Terry O'Neal,AZ,110,105.40,56,,,190.00,190.00,M,Masters 55-59,Raw,,,,D
1,Thomas Matlock,AZ,110,109.30,64,,,210.00,210.00,M,Masters 60-64,Raw,,,,D
