Division,WeightClassKg,Place,Name,Team,BodyweightKg,Best3SquatKg,Best3BenchKg,Best3DeadliftKg,TotalKg,Equipment,Event,Sex,BirthDate
Girls,44.23,1,Jasmine Rodriguez,Dimmitt,44.23,77.11,31.75,90.72,199.58,Single-ply,SBD,F,
Girls,44.23,2,Cassidy Reyes,Bovina,44.18,63.5,27.22,86.18,176.9,Single-ply,SBD,F,
Girls,44.23,3,Evelyn Salvador,Dimmitt,43.54,72.57,29.48,68.04,170.1,Single-ply,SBD,F,
Girls,47.85,1,Ailina Tienda,Levelland,47.85,79.38,34.02,95.25,208.65,Single-ply,SBD,F,
Girls,47.85,2,Alondra Tarango,Bovina,45.27,65.77,29.48,77.11,172.37,Single-ply,SBD,F,
Girls,51.94,1,Ariel Loftin,Levelland,50.08,86.18,45.36,88.45,219.99,Single-ply,SBD,F,
Girls,51.94,2,Zeriah Gomez,Brownfield,50.98,81.65,31.75,95.25,208.65,Single-ply,SBD,F,
Girls,51.94,3,Ana Chavarria,Dimmitt,51.8,81.65,31.75,83.91,197.31,Single-ply,SBD,F,
Girls,56.02,1,Marisol Morales,Brownfield,54.43,127.01,63.5,127.01,317.51,Single-ply,SBD,F,
Girls,56.02,2,Camila Solis,Brownfield,53.8,99.79,47.63,102.06,249.48,Single-ply,SBD,F,
Girls,56.02,3,Jennifer Acosta,Brownfield,52.16,90.72,38.56,106.59,235.87,Single-ply,SBD,F,
Girls,56.02,4,Karla Perez,Dimmitt,54.07,97.52,36.29,102.06,235.87,Single-ply,SBD,F,
Girls,56.02,5,Ailed De La Cruz,Bovina,54.88,79.38,31.75,97.52,208.65,Single-ply,SBD,F,
Girls,56.02,6,Ashley Macias,Dimmitt,52.53,70.31,36.29,83.91,190.51,Single-ply,SBD,F,
Girls,60.1,1,Minnel Leal,Dimmitt,60.1,120.2,70.31,122.47,312.98,Single-ply,SBD,F,
Girls,60.1,2,Ariana Perez,Dimmitt,59.69,95.25,56.7,136.08,288.03,Single-ply,SBD,F,
Girls,60.1,3,Jordyn Varner,Lockney,60.1,102.06,58.97,102.06,263.08,Single-ply,SBD,F,
Girls,60.1,4,Naveah Liscano,Bovina,59.42,88.45,49.9,97.52,235.87,Single-ply,SBD,F,
Girls,60.1,5,Verenice Hernandez,Bovina,58.42,95.25,31.75,83.91,210.92,Single-ply,SBD,F,
Girls,67.36,1,Sandra Vasquez,Dimmitt,63.59,113.4,47.63,115.67,276.69,Single-ply,SBD,F,
Girls,67.36,2,Kaylee Alvarado,Brownfield,64.14,108.86,47.63,106.59,263.08,Single-ply,SBD,F,
Girls,67.36,3,Amber Valderas,Levelland,62.05,83.91,49.9,92.99,226.8,Single-ply,SBD,F,
Girls,67.36,4,Sierra Mendez,Whiteface,65.05,81.65,47.63,74.84,204.12,Single-ply,SBD,F,
Girls,67.36,DQ,Shaylagh Henriquez,Dimmitt,66.59,79.38,,,,Single-ply,SBD,F,
Girls,67.36,DQ,Jimena Fuentes,Dimmitt,64.95,102.06,43.09,,,Single-ply,SBD,F,
Girls,75.07,1,Sophia Mendez,Whiteface,74.12,127.01,72.57,127.01,326.59,Single-ply,SBD,F,
Girls,75.07,2,Ashleigh Broom,Dimmitt,71.21,120.2,68.04,122.47,310.71,Single-ply,SBD,F,
Girls,75.07,3,Alondra Velo,Dimmitt,74.84,117.93,45.36,124.74,288.03,Single-ply,SBD,F,
Girls,75.07,4,Jenny Vaquera,Lockney,70.13,108.86,61.23,115.67,285.76,Single-ply,SBD,F,
Girls,75.07,5,Aubree Valenzuela,Brownfield,71.3,120.2,54.43,111.13,285.76,Single-ply,SBD,F,
Girls,75.07,6,Samantha Valdez,Levelland,68.95,95.25,45.36,111.13,251.74,Single-ply,SBD,F,
Girls,82.33,1,Mya Romero,Brownfield,81.1,117.93,81.65,115.67,315.25,Single-ply,SBD,F,
Girls,82.33,2,Victoria Hernandez,Dimmitt,75.66,102.06,40.82,113.4,256.28,Single-ply,SBD,F,
Girls,82.33,3,Malaya Tienda,Levelland,78.2,81.65,40.82,92.99,215.46,Single-ply,SBD,F,
Girls,90.04,1,Yazmin Barron,Dimmitt,89.99,156.49,70.31,149.69,376.48,Single-ply,SBD,F,
Girls,90.04,DQ,Kimberly Solis,Dimmitt,88.09,,,,,Single-ply,SBD,F,
Girls,100.02,1,Marilyn Martinez,Dimmitt,99.88,154.22,77.11,136.08,367.41,Single-ply,SBD,F,
Girls,100.02,2,Maraya Corrales,Dimmitt,95.53,142.88,68.04,129.27,340.19,Single-ply,SBD,F,
Girls,100.02,3,Samantha Epke,Levelland,93.8,97.52,58.97,108.86,265.35,Single-ply,SBD,F,
Girls,117.71+,1,Arlene Solis,Dimmitt,121.47,142.88,70.31,142.88,356.07,Single-ply,SBD,F,
Girls,,NS,Aaliyah Garcia,Bovina,,,,,,Single-ply,SBD,F,
Girls,,NS,Gabby Medrano,Bovina,,,,,,Single-ply,SBD,F,
Girls,,NS,Jalyssa Carrillo,Brownfield,,,,,,Single-ply,SBD,F,
